<?xml version="1.0" encoding="UTF-8"?>
<kml xmlns="http://earth.google.com/kml/2.1">
  <Document>
    <name>Ruta</name>
    <description>Ruta</description>
    <Style id="yellowLine">
      <LineStyle>
        <color>ffff0000</color>
        <width>4</width>
      </LineStyle>
    </Style>
    <Style id="redLine">
      <LineStyle>
        <color>ff0000ff</color>
        <width>4</width>
      </LineStyle>
    </Style>
    <Placemark>
      <name>Linea Azul</name>
      <styleUrl>#yellowLine</styleUrl>
      <LineString>
        <altitudeMode>relative</altitudeMode>
        <coordinates>
-93.09240460395813,16.784173228809788,0 
-93.09217929840088,16.78380858026506,0 
-93.09198752045631,16.78347474647656,0 
-93.09157580137253,16.78278139750293,0 
-93.09086233377457,16.78298555051914,0 
-93.08978542685509,16.783282149793273,0 
-93.089679479599,16.78289181991629,0 
-93.08955878019333,16.78254257671498,0 
-93.08946222066879,16.78217278909619,0 
-93.08938980102539,16.781810704688688,0 
-93.089140355587,16.78105314997276,0 
-93.08912694454193,16.78076296719674,0 
-93.0893911421299,16.779752460000275,0 
-93.08974117040634,16.77845946519116,0 
-93.08971434831619,16.778364448343766,0 
-93.09012472629547,16.77711381676248,0 
-93.09042781591415,16.77600313602485,0 
-93.09071749448776,16.774910425288912,0 
-93.09100046753883,16.773893466762875,0 
-93.09117883443832,16.7732257637617,0 
-93.09141486883163,16.772296111831096,0 
-93.09171259403229,16.77132664951966,0 
-93.09179842472076,16.770994077866046,0 
-93.09197813272476,16.770341773473646,0 
-93.09208273887634,16.770020756710803,0 
-93.09223562479019,16.76938128970406,0 
-93.09238851070404,16.768786763228416,0 
-93.0924341082573,16.768546640777117,0 
-93.09258431196213,16.76794825944547,0 
-93.09269964694977,16.76748213706055,0 
-93.09286057949066,16.766761763854714,0 
-93.0929034948349,16.76653319567189,0 
-93.09312343597412,16.765770443680577,0 
-93.093551248312,16.76476627730347,0 
-93.09371888637543,16.76445038755153,0 
-93.09425264596939,16.763274143048392,0 
-93.0945074558258,16.762724541595038,0 
-93.09496745467186,16.761704949646717,0 
-93.09525042772293,16.76110911504627,0 
-93.0952987074852,16.760919063962184,0 
-93.09580028057098,16.75998421532532,0 
-93.09612348675728,16.75937039737592,0 
-93.09636890888214,16.758748872580966,0 
-93.09639573097229,16.758620458114045,0 
-93.09724867343903,16.75846379234705,0 
-93.09908598661423,16.75805286513219,0 
-93.09969484806061,16.757842264590614,0 
-93.10015887022018,16.757567456216318,0 
-93.1009903550148,16.75719505171128,0 
-93.1021437048912,16.75658250892288,0 
-93.1034405529499,16.75590318767557,0 
-93.1043042242527,16.755372827435785,0 
-93.1046462059021,16.75539208994008,0 
-93.10541197657585,16.755483265767367,0 
-93.10582503676414,16.75555132656769,0 
-93.10623809695244,16.75564378648387,0 
-93.10632929205894,16.75565791230045,0 
-93.10644865036011,16.75480394059612,0 
-93.10645937919617,16.754712764443386,0 
-93.10665920376778,16.753667445993838,0 
-93.10680538415909,16.752749256133026,0 
-93.10690999031067,16.75223044479869,0 
-93.10691937804222,16.75214311997962,0 
-93.10689926147461,16.752040384847053,0 
-93.10703203082085,16.751192817887812,0 
-93.10704007744789,16.751084945458643,0 
-93.107148706913,16.75046467780464,0 
-93.1089323759079,16.75076646459682,0 
-93.10974106192589,16.750884610785143,0 
-93.11052963137627,16.750992483327845,0 
-93.11244204640388,16.75125702763805,0 
-93.11328962445259,16.751405994175208,0 
-93.11485335230827,16.751664116950653,0 
-93.1156875193119,16.751791251920345,0 
-93.11584308743477,16.750923136700266,0 
-93.11501562595367,16.75081269572273,0 
</coordinates>
      </LineString>
    </Placemark>
    <Placemark>
      <name>Linea Roja</name>
      <styleUrl>#redLine</styleUrl>
      <LineString>
        <altitudeMode>relative</altitudeMode>
        <coordinates>
-93.11501428484917,16.75081269572273,0 
-93.11421766877174,16.750690696893976,0 
-93.11435848474503,16.74992017616931,0 
-93.11514437198639,16.750021628243015,0 
-93.11496332287788,16.751101640005235,0 
-93.11472862958908,16.752477008777504,0 
-93.11455428600311,16.753370800523165,0 
-93.1142283976078,16.754952904357292,0 
-93.11405271291733,16.755794033751854,0 
-93.11384752392769,16.756608192098273,0 
-93.11364501714706,16.75781786573231,0 
-93.113454580307,16.758954335547756,0 
-93.11339691281319,16.7591777762723,0 
-93.11322927474976,16.759880200289142,0 
-93.11307907104492,16.76055308667762,0 
-93.1129315495491,16.761317143717946,0 
-93.11290070414543,16.761502057901794,0 
-93.11200350522995,16.76134025800075,0 
-93.11101377010345,16.761152775403634,0 
-93.11001598834991,16.760952451328546,0 
-93.1090047955513,16.76077267313285,0 
-93.10813575983047,16.76056464386578,0 
-93.10717016458511,16.760348909570794,0 
-93.10672089457512,16.76029369182502,0 
-93.10657203197479,16.76018454041993,0 
-93.10589611530304,16.76052997229916,0 
-93.10556083917618,16.76071617137911,0 
-93.10486480593681,16.761164332555374,0 
-93.10319915413857,16.760807344655234,0 
-93.10212761163712,16.76052997229916,0 
-93.10195192694664,16.76043109409297,0 
-93.10167834162712,16.759826266544312,0 
-93.10164213180542,16.75972353555944,0 
-93.10145974159241,16.759787742431485,0 
-93.10012131929398,16.760487595931377,0 
-93.09917852282524,16.761204140517126,0 
-93.09894382953644,16.76135438339444,0 
-93.09871315956116,16.761439135734424,0 
-93.09832155704498,16.76143271510392,0 
-93.0977126955986,16.7613787817992,0 
-93.09699386358261,16.76136850878705,0 
-93.09637561440468,16.76141730558985,0 
-93.09599071741104,16.761373645293194,0 
-93.09558972716331,16.761278619907017,0 
-93.09516459703445,16.761068022936062,0 
-93.09477835893631,16.761902704683518,0 
-93.09432774782181,16.762872215038747,0 
-93.09401661157608,16.763551511403204,0 
-93.0936250090599,16.764399023314628,0 
-93.09334605932236,16.76500255222212,0 
-93.0930483341217,16.765695966049467,0 
-93.09295043349266,16.765990024112874,0 
-93.09281766414642,16.766507513836423,0 
-93.09261113405228,16.76746544395119,0 
-93.09251323342323,16.76780315810928,0 
-93.0923455953598,16.768528663683007,0 
-93.09229463338852,16.768780342845968,0 
-93.09219807386398,16.769162997261603,0 
-93.09197008609772,16.769995075346355,0 
-93.09174746274948,16.770778355401273,0 
-93.09152752161026,16.77152311049344,0 
-93.0913732945919,16.77206369813809,0 
-93.09132635593414,16.7722755669857,0 
-93.09108227491379,16.77321805948262,0 
-93.09081941843033,16.774178523868212,0 
-93.09047073125839,16.77547283183419,0 
-93.09016764163971,16.776618184310443,0 
-93.08997184038162,16.77731412381158,0 
-93.08964997529984,16.778431216944202,0 
-93.08953732252121,16.77884980417384,0 
-93.08945283293724,16.77920033816902,0 
-93.08934688568115,16.77959195963332,0 
-93.08925032615662,16.779879576194674,0 
-93.08911621570587,16.780524143871613,0 
-93.08905184268951,16.78076553518785,0 
-93.08905452489853,16.781087817796912,0 
-93.08931067585945,16.78182996451498,0 
-93.08947563171387,16.782557984516817,0 
-93.08969020843506,16.783292421621326,0 
-93.08860257267952,16.78355563702532,0 
-93.08874875307083,16.783690454530053,0 
-93.08880776166916,16.783757221258856,0 
-93.08886408805847,16.783883050799382,0 
-93.08800041675568,16.78410389428123,0 
-93.08722257614136,16.78431189779098,0 
-93.08724537491798,16.785177292664272,0 
-93.08761283755302,16.785145193518318,0 
-93.08799102902412,16.785089982974565,0 
-93.08839470148087,16.785048896047872,0 
-93.0893723666668,16.78484731318505,0 
-93.09008449316025,16.78478696668132,0 
-93.09128746390343,16.784468542259084,0 
-93.09241265058517,16.784186068534527,0 
</coordinates>
      </LineString>
    </Placemark>
  </Document>
</kml>
