<?xml version="1.0" encoding="UTF-8"?>
<kml xmlns="http://earth.google.com/kml/2.1">
  <Document>
    <name>Ruta</name>
    <description>Ruta</description>
    <Style id="yellowLine">
      <LineStyle>
        <color>ffff0000</color>
        <width>4</width>
      </LineStyle>
    </Style>
    <Style id="redLine">
      <LineStyle>
        <color>ff0000ff</color>
        <width>4</width>
      </LineStyle>
    </Style>
    <Placemark>
      <name>Linea Azul</name>
      <styleUrl>#yellowLine</styleUrl>
      <LineString>
        <altitudeMode>relative</altitudeMode>
        <coordinates>
-93.09416681528091,16.759221437072867,0 
-93.09431433677673,16.759093022924905,0 
-93.09462279081345,16.758936357547007,0 
-93.0947595834732,16.758890128394466,0 
-93.09420973062515,16.758576797175568,0 
-93.09332191944122,16.758101662785393,0 
-93.09354990720749,16.75775237404457,0 
-93.09369206428528,16.75747756554046,0 
-93.09364646673203,16.7572695326706,0 
-93.09339433908463,16.756730187134014,0 
-93.09316366910934,16.756357780990392,0 
-93.09297859668732,16.755936575922092,0 
-93.0930483341217,16.755489686598615,0 
-93.09313416481018,16.755114709689934,0 
-93.0932092666626,16.754852739082438,0 
-93.09325754642487,16.754575358046186,0 
-93.09340506792068,16.75405398333765,0 
-93.09357941150665,16.753386210688866,0 
-93.09388250112534,16.75226897044143,0 
-93.09394150972366,16.7520249745724,0 
-93.0940729379654,16.751444519984812,0 
-93.09413999319077,16.751161997199993,0 
-93.09349626302719,16.751087513850514,0 
-93.09328705072403,16.75095909421401,0 
-93.09342384338379,16.75036322596706,0 
-93.09359550476074,16.749605545976692,0 
-93.09450209140778,16.74980845040535,0 
-93.09455305337906,16.74965434579575,0 
-93.09367328882217,16.7494642832721,0 
-93.0938395857811,16.74880933663576,0 
-93.09392809867859,16.74837013586464,0 
-93.0940568447113,16.74793350251481,0 
-93.09417217969894,16.74751484724494,0 
-93.09426337480545,16.74713985462658,0 
-93.09438407421112,16.746708355357395,0 
-93.09447795152664,16.746382161808476,0 
-93.09475421905518,16.746451510090058,0 
-93.09492319822311,16.745960934666634,0 
-93.09504926204681,16.745514021924237,0 
-93.09606850147247,16.74588388082035,0 
-93.09701263904572,16.746235759797745,0 
-93.09799432754517,16.746595343482447,0 
-93.0989196896553,16.746936947353948,0 
-93.10005158185959,16.747347898567696,0 
-93.10029566287994,16.747432657145204,0 
-93.10146778821945,16.747869291643603,0 
-93.10198813676834,16.74805935575954,0 
-93.10245752334595,16.74817493519672,0 
-93.10343384742737,16.74834958843534,0 
-93.10356795787811,16.748359862150274,0 
-93.10455769300461,16.74853194679293,0 
-93.10569226741791,16.7486937575837,0 
-93.10676246881485,16.74883758928225,0 
-93.10738742351532,16.74893005245967,0 
-93.10837984085083,16.749053336626368,0 
-93.10899138450623,16.749143231280915,0 
-93.10928374528885,16.749220283808178,0 
-93.10994356870651,16.74930504155214,0 
-93.11081528663635,16.74939493608785,0 
-93.11187744140625,16.74953106201824,0 
-93.11289131641388,16.74969544037051,0 
-93.1135430932045,16.74975708221602,0 
-93.1144067645073,16.749862386989246,0 
-93.11450064182281,16.74929219947215,0 
-93.11453014612198,16.749094431330853,0 
-93.1146776676178,16.748249419685727,0 
-93.11540991067886,16.748382978006827,0 
-93.11623603105545,16.748501125674327,0 
-93.11708360910416,16.748603862716905,0 
-93.11794191598892,16.7487348523658,0 
-93.11881095170975,16.74886584192457,0 
-93.11963438987732,16.748966010349864,0 
-93.12052756547928,16.749079020817707,0 
-93.12127590179443,16.74919716805328,0 
-93.12216371297836,16.749335862540597,0 
-93.1229442358017,16.74945400961677,0 
-93.1238454580307,16.74958499868073,0 
-93.1242960691452,16.749636366916498,0 
-93.12475740909576,16.7497082824233,0 
-93.12569350004196,16.749834134494826,0 
-93.12659472227097,16.74994714444734,0 
-93.1270506978035,16.750021628243015,0 
-93.12740206718445,16.750201416595228,0 
-93.12804043292999,16.75044798320217,0 
-93.12844008207321,16.75047109880521,0 
-93.12894433736801,16.750450551602658,0 
-93.1289067864418,16.749924028780704,0 
-93.12884777784348,16.748986557712655,0 
-93.12883973121643,16.748031102997558,0 
-93.12898188829422,16.74705766436499,0 
-93.12910258769989,16.746536269066574,0 
-93.1291589140892,16.74627171819678,0 
-93.12924206256866,16.745768299992484,0 
-93.12945663928986,16.745822237720887,0 
</coordinates>
      </LineString>
    </Placemark>
    <Placemark>
      <name>Linea Roja</name>
      <styleUrl>#redLine</styleUrl>
      <LineString>
        <altitudeMode>relative</altitudeMode>
        <coordinates>
-93.12949687242508,16.745824806183773,0 
-93.130022585392,16.745927544670412,0 
-93.13117861747742,16.746133021477398,0 
-93.13117861747742,16.7464027094501,0 
-93.1311571598053,16.746726334513127,0 
-93.13116520643234,16.746900989080544,0 
-93.13111692667007,16.74724002395995,0 
-93.13101500272751,16.747876996949305,0 
-93.13095062971115,16.74833160943288,0 
-93.13079237937927,16.74886841034638,0 
-93.13066899776459,16.749335862540597,0 
-93.13053220510483,16.749798176768593,0 
-93.12999576330185,16.749841839720997,0 
-93.12890946865082,16.749921460373123,0 
-93.128941655159,16.7504556884035,0 
-93.12897652387619,16.750938547064127,0 
-93.12902212142944,16.751549823824607,0 
-93.12906235456467,16.752145688357217,0 
-93.12910258769989,16.75272870917638,0 
-93.12914282083511,16.75332713838022,0 
-93.12918305397034,16.75383567330639,0 
-93.12922328710556,16.754467487534015,0 
-93.12856882810593,16.75439557382527,0 
-93.12822818756104,16.754349343569583,0 
-93.12757909297943,16.754241472929312,0 
-93.1272840499878,16.754192674286244,0 
-93.12666714191437,16.754120760473658,0 
-93.12605559825897,16.754038573226,0 
-93.12588930130005,16.753994911236248,0 
-93.12506049871445,16.753869061915623,0 
-93.1241512298584,16.753750917579726,0 
-93.12329024076462,16.75363020481293,0 
-93.12236219644547,16.753509491969595,0 
-93.12149852514267,16.753388779049697,0 
-93.12062948942184,16.753283476227256,0 
-93.11983823776245,16.75320385698137,0 
-93.1190013885498,16.75307800713768,0 
-93.11905235052109,16.752769803087457,0 
-93.11913818120956,16.752266402065498,0 
-93.11915695667267,16.75141883611261,0 
-93.1182986497879,16.751285279921298,0 
-93.11746716499329,16.7511568604182,0 
-93.11660885810852,16.751043851183827,0 
-93.11578005552292,16.750935978670235,0 
-93.1149673461914,16.75083067449088,0 
-93.1142270565033,16.750735643839985,0 
-93.11334997415543,16.75062520275366,0 
-93.11325877904892,16.751000188507124,0 
-93.11316758394241,16.75142140449999,0 
-93.1130388379097,16.752019837813897,0 
-93.11299055814743,16.752248423432942,0 
-93.1129503250122,16.752851990882984,0 
-93.11293423175812,16.753134511159438,0 
-93.11277329921722,16.753830536596755,0 
-93.11193913221359,16.753681571957102,0 
-93.11103254556656,16.753558290787822,0 
-93.11013400554657,16.753370800523165,0 
-93.10933470726013,16.75323981406429,0 
-93.10837984085083,16.753054891851225,0 
-93.10755103826523,16.752887948032367,0 
-93.10671418905258,16.75273384591576,0 
-93.10663908720016,16.753216698797477,0 
-93.10656666755676,16.75364818331497,0 
-93.1064647436142,16.754184969236196,0 
-93.10637086629868,16.754701206899764,0 
-93.10580760240555,16.754626724935253,0 
-93.10559570789337,16.754683228497214,0 
-93.10547769069672,16.754791098887097,0 
-93.10468643903732,16.75518148645377,0 
-93.10457110404968,16.755220011499173,0 
-93.10416609048843,16.755453729940772,0 
-93.10338288545609,16.75535356492952,0 
-93.10237973928452,16.755227716507314,0 
-93.10220807790756,16.75519689647286,0 
-93.10128271579742,16.755065911270762,0 
-93.10069262981415,16.754978587752614,0 
-93.09979945421219,16.75484503405912,0 
-93.09903234243393,16.754737163699808,0 
-93.0978012084961,16.75479366722897,0 
-93.09685170650482,16.754852739082438,0 
-93.0959102511406,16.75464984003081,0 
-93.09518605470657,16.75446491918775,0 
-93.09478104114532,16.754382732088704,0 
-93.09405952692032,16.754208084385407,0 
-93.09340506792068,16.75405655168947,0 
-93.09325754642487,16.754575358046186,0 
-93.09261113405228,16.754444372416316,0 
-93.0924341082573,16.755004271144465,0 
-93.0923080444336,16.755399794941262,0 
-93.09200763702393,16.756329529460107,0 
-93.09210687875748,16.756362917631822,0 
-93.09216320514679,16.756434830597144,0 
-93.09216856956482,16.75656581485702,0 
-93.09204518795013,16.75686630781842,0 
-93.0923992395401,16.757053794639415,0 
-93.09281498193741,16.757279805904076,0 
-93.09254944324493,16.757641937029867,0 
-93.09221684932709,16.75746215570604,0 
-93.09201031923294,16.757801171774833,0 
-93.09177428483963,16.75809395789361,0 
-93.09214979410172,16.758330241099557,0 
-93.09272646903992,16.758651277594012,0 
-93.09303224086761,16.7588310577943,0 
-93.0937135219574,16.759195754250207,0 
-93.09388518333435,16.75929591723897,0 
-93.0939844250679,16.759337009731926,0 
-93.09408903121948,16.759303622082076,0 
-93.09420704841614,16.759195754250207,0 
</coordinates>
      </LineString>
    </Placemark>
  </Document>
</kml>
