<?xml version="1.0" encoding="UTF-8"?>
<kml xmlns="http://earth.google.com/kml/2.1">
  <Document>
    <name>Ruta</name>
    <description>Ruta</description>
    <Style id="yellowLine">
      <LineStyle>
        <color>ffff0000</color>
        <width>4</width>
      </LineStyle>
    </Style>
    <Style id="redLine">
      <LineStyle>
        <color>ff0000ff</color>
        <width>4</width>
      </LineStyle>
    </Style>
    <Placemark>
      <name>Linea Azul</name>
      <styleUrl>#yellowLine</styleUrl>
      <LineString>
        <altitudeMode>relative</altitudeMode>
        <coordinates>
-93.07572931051254,16.770066983158056,0 
-93.0756139755249,16.771045440321572,0 
-93.0751445889473,16.770999214112223,0 
-93.07500511407852,16.772054709757523,0 
-93.07490587234497,16.773048565263753,0 
-93.07534843683243,16.77310249525888,0 
-93.0762791633606,16.7732000828302,0 
-93.07671636343002,16.773236036133323,0 
-93.07682633399963,16.772637669560442,0 
-93.076893389225,16.77255292221116,0 
-93.07697385549545,16.771271434961083,0 
-93.07747274637222,16.7709401472728,0 
-93.07756930589676,16.770269865765872,0 
-93.07803332805634,16.770346909737434,0 
-93.07848393917084,16.770382863580156,0 
-93.07894259691238,16.770426521808588,0 
-93.07929933071136,16.77046504376654,0 
-93.07947903871536,16.770352046001094,0 
-93.08012813329697,16.769769079189707,0 
-93.08043390512466,16.769067975767168,0 
-93.08055460453033,16.76899863572775,0 
-93.08076918125153,16.768821433289922,0 
-93.08069944381714,16.768734116085902,0 
-93.08072626590729,16.768415664766785,0 
-93.08142900466919,16.767909736977636,0 
-93.08153629302979,16.767884055328068,0 
-93.08185011148453,16.767920009636477,0 
-93.08226317167282,16.767968804758453,0 
-93.08235436677933,16.767979077414125,0 
-93.08235704898834,16.767598988785018,0 
-93.08238387107849,16.76725999017756,0 
-93.08239459991455,16.766856786501567,0 
-93.08248579502106,16.7658218075471,0 
-93.0825287103653,16.7654905103642,0 
-93.08253139257431,16.765290190857353,0 
-93.08257162570953,16.765200303830568,0 
-93.08267623186111,16.765128394178568,0 
-93.08339238166809,16.76510784855871,0 
-93.08399051427841,16.765128394178568,0 
-93.08472007513046,16.765223417641515,0 
-93.085717856884,16.765434010011823,0 
-93.08700531721115,16.765755034517905,0 
-93.08723598718643,16.765739625354005,0 
-93.08767318725586,16.765647170344316,0 
-93.0881667137146,16.7654982149564,0 
-93.08824986219406,16.76545969199226,0 
-93.08836787939072,16.76544941920051,0 
-93.08854758739471,16.765495646759025,0 
-93.08877289295197,16.765572692664936,0 
-93.09020519256592,16.76596562629956,0 
-93.09028297662735,16.76597846725432,0 
-93.09044390916824,16.765585533646224,0 
-93.09062629938126,16.76496916556664,0 
-93.09090256690979,16.7642706126617,0 
-93.09130758047104,16.763166277467825,0 
-93.09134781360626,16.7630558435958,0 
-93.09224098920822,16.763703036537322,0 
-93.09352844953537,16.764601911969567,0 
-93.09361696243286,16.764653276151677,0 
-93.09366255998611,16.764553115983713,0 
-93.09357672929764,16.764501751774553,0 
-93.09278011322021,16.76391363059105,0 
-93.09140413999557,16.762922295571887,0 
-93.09170454740524,16.76207991356782,0 
-93.09205055236816,16.761114251559423,0 
-93.09240996837616,16.760107492331585,0 
-93.09349626302719,16.760546666017216,0 
-93.09519946575165,16.761219550048445,0 
-93.09552937746048,16.76140189607452,0 
-93.0959478020668,16.761502057901794,0 
-93.096344769001,16.76153544516583,0 
-93.09697777032852,16.76149692139912,0 
-93.09774219989777,16.761507194404338,0 
-93.0987560749054,16.761561127672646,0 
-93.09907525777817,16.761427578599363,0 
-93.09927105903625,16.761299165940475,0 
-93.10015618801117,16.760626282190856,0 
-93.10105204582214,16.760122901951746,0 
-93.10158312320709,16.75985580169219,0 
-93.10167968273163,16.75982498240734,0 
-93.10161262750626,16.759609247273605,0 
-93.10162872076035,16.759059635232234,0 
-93.10177624225616,16.75856909230302,0 
-93.10179233551025,16.75840472161454,0 
-93.10184329748154,16.75823007760243,0 
-93.10198545455933,16.757433904339724,0 
-93.10220271348953,16.75626532142112,0 
-93.10238510370255,16.755222579835245,0 
-93.10339093208313,16.7553561332638,0 
-93.1041419506073,16.755458866606606,0 
-93.10431897640228,16.755371543268755,0 
-93.10464352369308,16.755389521606286,0 
-93.10541063547134,16.7554794132685,0 
-93.10583174228668,16.75555132656769,0 
-93.10623943805695,16.755638649823037,0 
-93.10633331537247,16.75565149147486,0 
-93.10646206140518,16.754706343585905,0 
-93.10666054487228,16.753666161815307,0 
-93.10680538415909,16.752746687763572,0 
-93.10692340135574,16.75214311997962,0 
-93.1068965792656,16.752050658362812,0 
-93.1070414185524,16.751192817887812,0 
-93.10703605413437,16.751084945458643,0 
-93.10715138912201,16.750465962004775,0 
-93.10804724693298,16.750612360762712,0 
-93.10892164707184,16.750745917426144,0 
-93.10975044965744,16.750843516467082,0 
-93.11061143875122,16.750977072968332,0 
-93.11244606971741,16.751244185689735,0 
-93.11318099498749,16.75142140449999,0 
-93.1140473484993,16.751565234137736,0 
-93.11422973871231,16.750733075443353,0 
-93.11422973871231,16.750733075443353,0 
</coordinates>
      </LineString>
    </Placemark>
    <Placemark>
      <name>Linea Roja</name>
      <styleUrl>#redLine</styleUrl>
      <LineString>
        <altitudeMode>relative</altitudeMode>
        <coordinates>
-93.11422973871231,16.750733075443353,0 
-93.11441212892532,16.749862386989246,0 
-93.1151282787323,16.74996769170423,0 
-93.11496466398239,16.750822969304732,0 
-93.11481714248657,16.75167824306259,0 
-93.11466425657272,16.75247700877748,0 
-93.11462134122849,16.753370800523165,0 
-93.11446040868759,16.75414644398127,0 
-93.11429142951965,16.754932357638552,0 
-93.11413049697876,16.755797886244345,0 
-93.1139749288559,16.75661974952606,0 
-93.11362355947495,16.75785510609373,0 
-93.11341166496277,16.758931220975064,0 
-93.11317026615143,16.759930281609954,0 
-93.11286181211472,16.761322280225478,0 
-93.11285644769669,16.761507194404338,0 
-93.11200082302094,16.76134025800075,0 
-93.11001598834991,16.760947314811027,0 
-93.10900747776031,16.760775241393972,0 
-93.10717016458511,16.760354046104467,0 
-93.10674905776978,16.760297544226407,0 
-93.10657203197479,16.76018454041993,0 
-93.10580492019653,16.76057491692135,0 
-93.10517728328705,16.760955019587254,0 
-93.10487419366837,16.76116048017153,0 
-93.1048634648323,16.761163048427438,0 
-93.103187084198,16.76080092400342,0 
-93.10227781534195,16.760572348657515,0 
-93.10213029384613,16.760520983373446,0 
-93.10195595026016,16.760433662358714,0 
-93.10164481401443,16.759724819697098,0 
-93.10146510601044,16.759781321745255,0 
-93.10014814138412,16.760472186340746,0 
-93.09963315725327,16.760847152691664,0 
-93.0991718173027,16.761209277027696,0 
-93.09901088476181,16.761314575464127,0 
-93.09883922338486,16.7613941913164,0 
-93.09870511293411,16.761440419860488,0 
-93.09771806001663,16.761376213546203,0 
-93.09698849916458,16.761365940533928,0 
-93.09636622667313,16.761414737337375,0 
-93.09596389532089,16.761365940533928,0 
-93.09558302164078,16.76128889292403,0 
-93.0951538681984,16.761062886421673,0 
-93.09420168399811,16.76068792049594,0 
-93.09246093034744,16.759997056683858,0 
-93.09236168861389,16.759963669149833,0 
-93.09201031923294,16.760944746552216,0 
-93.09170454740524,16.761799974819937,0 
-93.09132903814316,16.76285808975779,0 
-93.09132635593414,16.762878635620655,0 
-93.09026688337326,16.76207991356782,0 
-93.08968752622604,16.76165358466845,0 
-93.08837860822678,16.76067507918403,0 
-93.08723866939545,16.759842960324097,0 
-93.08618992567062,16.759100727776218,0 
-93.08606654405594,16.759013406109638,0 
-93.08600217103958,16.759108432627226,0 
-93.08612018823624,16.759193185967735,0 
-93.08760076761246,16.76031552209852,0 
-93.08800041675568,16.760626282190856,0 
-93.0891564488411,16.761455829372675,0 
-93.09024542570114,16.762254554045917,0 
-93.09127271175385,16.76300447898232,0 
-93.09101790189743,16.763726150530207,0 
-93.09083819389343,16.764252635163366,0 
-93.09055656194687,16.764948619929584,0 
-93.09036612510681,16.76555214709308,0 
-93.09022396802902,16.76588858055284,0 
-93.09008717536926,16.766273808974347,0 
-93.08996111154556,16.76652549112161,0 
-93.08975458145142,16.767098195174597,0 
-93.08974921703339,16.767111036052885,0 
-93.08845907449722,16.766784877475885,0 
-93.0881854891777,16.766810559273882,0 
-93.08720916509628,16.767051968005614,0 
-93.08699995279312,16.767057104358276,0 
-93.08567494153976,16.76669499115555,0 
-93.08534234762192,16.766592263880288,0 
-93.08529138565063,16.766746354772373,0 
-93.0850338935852,16.76736528526428,0 
-93.0842050909996,16.76712130875488,0 
-93.0840066075325,16.767093058823043,0 
-93.0837893486023,16.767080217943548,0 
-93.08277547359467,16.766933831856047,0 
-93.08239459991455,16.766861922859498,0 
-93.0819520354271,16.766813127453496,0 
-93.08125466108322,16.766743786591856,0 
-93.08086842298508,16.76669499115555,0 
-93.08078795671463,16.767503966509043,0 
-93.08073431253433,16.768407960292787,0 
-93.08070480823517,16.768739252393132,0 
-93.08077186346054,16.768813728832363,0 
-93.0806216597557,16.76893956826682,0 
-93.08045536279678,16.76906027131958,0 
-93.08043658733368,16.769070543916285,0 
-93.08012276887894,16.769776783608553,0 
-93.07947099208832,16.770346909737434,0 
-93.07929664850235,16.770470180027015,0 
-93.07847321033478,16.77038799984285,0 
-93.07804673910141,16.770346909737434,0 
-93.07756662368774,16.770272433898757,0 
-93.07747542858124,16.7709401472728,0 
-93.07697385549545,16.771279139319038,0 
-93.07586073875427,16.77195455348808,0 
-93.07549864053726,16.77201875623096,0 
-93.07501047849655,16.77205214164871,0 
-93.07513922452927,16.771006918481227,0 
-93.07525992393494,16.770007916029012,0 
-93.07572662830353,16.770059278750967,0 
</coordinates>
      </LineString>
    </Placemark>
  </Document>
</kml>
