<?xml version="1.0" encoding="UTF-8"?>
<kml xmlns="http://earth.google.com/kml/2.1">
  <Document>
    <name>Ruta</name>
    <description>Ruta</description>
    <Style id="yellowLine">
      <LineStyle>
        <color>ffff0000</color>
        <width>4</width>
      </LineStyle>
    </Style>
    <Style id="redLine">
      <LineStyle>
        <color>ff0000ff</color>
        <width>4</width>
      </LineStyle>
    </Style>
    <Placemark>
      <name>Linea Azul</name>
      <styleUrl>#yellowLine</styleUrl>
      <LineString>
        <altitudeMode>relative</altitudeMode>
        <coordinates>
-93.06913912296295,16.759709410044685,0 
-93.06921690702438,16.760736717473314,0 
-93.06967824697495,16.76070846659321,0 
-93.06988477706909,16.76280672509091,0 
-93.07002425193787,16.763818606473723,0 
-93.07046949863434,16.76378008316939,0 
-93.07138949632645,16.763705604758893,0 
-93.07273328304291,16.763597739423023,0 
-93.07321339845657,16.763559216073947,0 
-93.0730202794075,16.761491784896297,0 
-93.07293981313705,16.76044650368692,0 
-93.07385444641113,16.760374592237795,0 
-93.07368278503418,16.75830455815661,0 
-93.07351917028427,16.756244774844067,0 
-93.07342529296875,16.755225148171306,0 
-93.07337701320648,16.75417469583565,0 
-93.07380348443985,16.754143875630668,0 
-93.07428359985352,16.75408994025995,0 
-93.07568907737732,16.753989774530915,0 
-93.07617992162704,16.75394097582332,0 
-93.07665199041367,16.75392813405608,0 
-93.07677000761032,16.75387933533267,0 
-93.07685315608978,16.753809989756835,0 
-93.07690143585205,16.75365075167226,0 
-93.07697653770447,16.75287253782632,0 
-93.07705163955688,16.752744119394077,0 
-93.08112323284149,16.75562580817036,0 
-93.08121174573898,16.75568231143569,0 
-93.08159530162811,16.754693501870317,0 
-93.08187961578369,16.753437577898875,0 
-93.08253407478333,16.75134178447521,0 
-93.08259308338165,16.75114915524527,0 
-93.08259844779968,16.75105155636103,0 
-93.08239459991455,16.75048907760561,0 
-93.08223098516464,16.750108954035298,0 
-93.08230608701706,16.749631230093545,0 
-93.08263063430786,16.748863273502714,0 
-93.08295518159866,16.748105587542824,0 
-93.08330923318863,16.747617584819714,0 
-93.08351039886475,16.747561079160445,0 
-93.08355867862701,16.7474840259617,0 
-93.08356940746307,16.7473838567567,0 
-93.08352917432785,16.74727084528268,0 
-93.08345139026642,16.747224613296694,0 
-93.08349698781967,16.74665441787999,0 
-93.08403611183167,16.743307695946786,0 
-93.08409512042999,16.743230641026965,0 
-93.08417826890945,16.743079099593714,0 
-93.0844196677208,16.74283766045097,0 
-93.08483272790909,16.74258080996311,0 
-93.08491319417953,16.742511460272006,0 
-93.08648765087128,16.741681830527945,0 
-93.08659493923187,16.741638165704472,0 
-93.0876624584198,16.741001171847447,0 
-93.08777779340744,16.740944664224997,0 
-93.090400993824,16.739436931926576,0 
-93.09123247861862,16.73901312086953,0 
-93.09170722961426,16.738956612657358,0 
-93.09438943862915,16.739765705915335,0 
-93.09542745351791,16.740099616416888,0 
-93.09777975082397,16.740852197170305,0 
-93.09878557920456,16.741157851985623,0 
-93.0995500087738,16.741476348918436,0 
-93.10043513774872,16.741948956288898,0 
-93.10250043869019,16.74306112009363,0 
-93.10339897871017,16.743531155037953,0 
-93.10581296682358,16.743875332895357,0 
-93.10664713382721,16.744006325797066,0 
-93.10761541128159,16.74422207861525,0 
-93.11044245958328,16.74503371798002,0 
-93.11153143644333,16.745234058809903,0 
-93.1117969751358,16.745313681388886,0 
-93.11276525259018,16.745434399429005,0 
-93.11428874731064,16.745619329044203,0 
-93.11511486768723,16.745750320746296,0 
-93.11751544475555,16.746133021477398,0 
-93.12097817659378,16.746700650004406,0 
-93.12083333730698,16.74751484724494,0 
-93.12067240476608,16.748334177861913,0 
-93.12052756547928,16.749079020817707,0 
-93.12032103538513,16.74994971285458,0 
-93.11862587928772,16.749721124475222,0 
-93.11693072319031,16.74943859913273,0 
</coordinates>
      </LineString>
    </Placemark>
    <Placemark>
      <name>Linea Roja</name>
      <styleUrl>#redLine</styleUrl>
      <LineString>
        <altitudeMode>relative</altitudeMode>
        <coordinates>
-93.11692535877228,16.74943859913273,0 
-93.11609387397766,16.74930504155214,0 
-93.11526238918304,16.749220283808178,0 
-93.11453014612198,16.749091862912074,0 
-93.11468034982681,16.748241714395103,0 
-93.1148412823677,16.747386425198517,0 
-93.1149673461914,16.746595343482447,0 
-93.1151095032692,16.745752889210138,0 
-93.1137415766716,16.74554998045955,0 
-93.11276525259018,16.745424125556237,0 
-93.11183720827103,16.745244332692927,0 
-93.11153680086136,16.745146730781755,0 
-93.11045318841934,16.744946389860004,0 
-93.1083396077156,16.744332523415686,0 
-93.10754030942917,16.74410392829271,0 
-93.10656130313873,16.743906154762687,0 
-93.10349017381668,16.743451531713692,0 
-93.10290813446045,16.743174134065946,0 
-93.1016555428505,16.74249604922612,0 
-93.10045927762985,16.741869332303196,0 
-93.09959024190903,16.74138131359907,0 
-93.09908866882324,16.74116812608854,0 
-93.09781461954117,16.740767435664054,0 
-93.09543818235397,16.739999443327886,0 
-93.0933165550232,16.739326484287396,0 
-93.09174209833145,16.738859007524116,0 
-93.09124857187271,16.738912947209194,0 
-93.09039294719696,16.739321347186337,0 
-93.08877289295197,16.740217769223392,0 
-93.08790385723114,16.740757161539523,0 
-93.08614164590836,16.741730632377624,0 
-93.08487296104431,16.74244467906412,0 
-93.08469861745834,16.74250889176445,0 
-93.08454841375351,16.742544850867176,0 
-93.0841675400734,16.74248063817897,0 
-93.08403611183167,16.742452384589303,0 
-93.0838081240654,16.74381368914572,0 
-93.08363109827042,16.74504142340045,0 
-93.08336287736893,16.74664671252483,0 
-93.08323413133621,16.747209202632217,0 
-93.08316975831985,16.747252866178357,0 
-93.08312684297562,16.747306803486236,0 
-93.08309465646744,16.747373582989102,0 
-93.08308392763138,16.74746090999599,0 
-93.08307588100433,16.747522552564966,0 
-93.08299541473389,16.747838470417754,0 
-93.08281570672989,16.748231440673806,0 
-93.0822229385376,16.74958756709283,0 
-93.0821344256401,16.74998053373866,0 
-93.08213979005814,16.750137206488933,0 
-93.08227390050888,16.7504608252042,0 
-93.08244824409485,16.751036146006314,0 
-93.08245360851288,16.751120902941818,0 
-93.08234363794327,16.75149331933245,0 
-93.08178305625916,16.753414462656092,0 
-93.08150142431259,16.75466781843652,0 
-93.08117151260376,16.75552564324968,0 
-93.08095693588257,16.755384384938594,0 
-93.07931810617447,16.754195242636193,0 
-93.0781164765358,16.75329888640003,0 
-93.07732254266739,16.752718435697226,0 
-93.07714015245438,16.75257460693085,0 
-93.07697385549545,16.752679910145464,0 
-93.0770543217659,16.752736414285383,0 
-93.0769819021225,16.75286996945852,0 
-93.07694166898727,16.75319358352786,0 
-93.07689875364304,16.753658456743935,0 
-93.07686120271683,16.753781737848335,0 
-93.07680487632751,16.753858788498018,0 
-93.07673245668411,16.753905018872874,0 
-93.07664930820465,16.75393327076308,0 
-93.07617723941803,16.753930702409605,0 
-93.07568371295929,16.75398463782545,0 
-93.07427018880844,16.75408994025995,0 
-93.07380348443985,16.75414644398127,0 
-93.07287812232971,16.754220926133755,0 
-93.07295054197311,16.755243126522664,0 
-93.07304710149765,16.756273026386946,0 
-93.07314097881317,16.757326035447868,0 
-93.07318657636642,16.758337945981783,0 
-93.07274132966995,16.75837133380108,0 
-93.07283788919449,16.75942433124999,0 
-93.07293444871902,16.760436230624432,0 
-93.07246506214142,16.760508142050263,0 
-93.0715262889862,16.76057491692135,0 
-93.06967824697495,16.76070846659321,0 
-93.06961387395859,16.759681159012032,0 
-93.06915789842606,16.759714546595625,0 
-93.06913644075394,16.75971968314644,0 
</coordinates>
      </LineString>
    </Placemark>
  </Document>
</kml>
