<?xml version="1.0" encoding="UTF-8"?>
<kml xmlns="http://earth.google.com/kml/2.1">
  <Document>
    <name>Ruta</name>
    <description>Ruta</description>
    <Style id="yellowLine">
      <LineStyle>
        <color>ffff0000</color>
        <width>4</width>
      </LineStyle>
    </Style>
    <Style id="redLine">
      <LineStyle>
        <color>ff0000ff</color>
        <width>4</width>
      </LineStyle>
    </Style>
    <Placemark>
      <name>Linea Azul</name>
      <styleUrl>#yellowLine</styleUrl>
      <LineString>
        <altitudeMode>relative</altitudeMode>
        <coordinates>
-93.0821880698204,16.753476103297285,0 
-93.08187156915665,16.753432441178504,0 
-93.08178305625916,16.753406757574535,0 
-93.08150678873062,16.75467038678006,0 
-93.0812519788742,16.75529192489639,0 
-93.08110982179642,16.75534329159204,0 
-93.08095693588257,16.75537924827075,0 
-93.07900965213776,16.75396409100216,0 
-93.07810842990875,16.75329374967592,0 
-93.07829082012177,16.75285712761902,0 
-93.07842493057251,16.75226897044143,0 
-93.07840347290039,16.751945354800082,0 
-93.07843029499054,16.751806662213944,0 
-93.0784946680069,16.751639717300286,0 
-93.07940393686295,16.750347815556623,0 
-93.07963192462921,16.750201416595228,0 
-93.08221757411957,16.750062722738488,0 
-93.08231681585312,16.749636366916498,0 
-93.08262795209885,16.748873547189916,0 
-93.08295518159866,16.748108155974897,0 
-93.0833038687706,16.747612447942284,0 
-93.08342725038528,16.747604742625885,0 
-93.08351039886475,16.74756621603925,0 
-93.0836284160614,16.747561079160445,0 
-93.08457255363464,16.747728027650762,0 
-93.08574467897415,16.74790268129934,0 
-93.08720111846924,16.7482288722434,0 
-93.09020519256592,16.74887868403331,0 
-93.09359282255173,16.749605545976692,0 
-93.09692949056625,16.75035038395844,0 
-93.09959024190903,16.750941115457984,0 
-93.10183525085449,16.751441951597748,0 
-93.10301810503006,16.751637148915858,0 
-93.10515314340591,16.751989017259994,0 
-93.10626357793808,16.752130278091073,0 
-93.10690730810165,16.75223301317512,0 
-93.10692071914673,16.75214311997962,0 
-93.10689926147461,16.75204552160501,0 
-93.10703068971634,16.751185112716318,0 
-93.10715138912201,16.750458256803867,0 
-93.10892701148987,16.750745917426144,0 
-93.11151534318924,16.75110806098432,0 
-93.11244875192642,16.751249322469164,0 
-93.11317294836044,16.75142397288732,0 
-93.11481446027756,16.751685948214107,0 
-93.11742156744003,16.752027542951588,0 
-93.11913818120956,16.75226897044143,0 
-93.11913818120956,16.75226897044143,0 
-93.11996698379517,16.752387115697204,0 
-93.12079310417175,16.752487282269662,0 
-93.12156021595001,16.752633679473046,0 
-93.12241315841675,16.752736414285383,0 
-93.12340289354324,16.752828875569072,0 
-93.1241512298584,16.75297527250973,0 
-93.12523484230042,16.753062596947032,0 
-93.12607169151306,16.75318587843737,0 
-93.12684684991837,16.753306591485956,0 
-93.12893360853195,16.753565995863248,0 
-93.12894433736801,16.753815126467032,0 
-93.12918305397034,16.75383567330639,0 
-93.13017278909683,16.75381769482207,0 
-93.13022911548615,16.754367322003684,0 
-93.13022643327713,16.754534264524942,0 
-93.1308165192604,16.754449509109374,0 
-93.13120275735855,16.7543621853084,0 
-93.13206106424332,16.754254314675407,0 
-93.1327423453331,16.754295408257093,0 
-93.13323855400085,16.7543596169607,0 
-93.13570350408554,16.75452399114325,0 
-93.13792705535889,16.754675523467025,0 
-93.14098745584488,16.754911810917584,0 
-93.14255654811859,16.75503765954869,0 
-93.14382255077362,16.755107004677214,0 
-93.14527630805969,16.75520973815449,0 
-93.14647793769836,16.75527137821424,0 
-93.14720749855042,16.75534585992647,0 
-93.14845740795135,16.75539208994008,0 
-93.15073728561401,16.75556930488825,0 
-93.15092504024506,16.755566736556833,0 
-93.15140783786774,16.755615534847585,0 
-93.15197378396988,16.755638649823037,0 
-93.1549483537674,16.755828706181475,0 
-93.15515220165253,16.755862094441063,0 
-93.15634042024612,16.755918597636228,0 
-93.15682858228683,16.755982805792208,0 
-93.15701901912689,16.75600848904853,0 
-93.15975219011307,16.756650569330073,0 
-93.16074728965759,16.756886854328364,0 
-93.16106379032135,16.75690996914939,0 
-93.16269993782043,16.757279805904076,0 
-93.1657549738884,16.757957838087407,0 
-93.16762179136276,16.75837133380108,0 
-93.16814750432968,16.75847663380822,0 
-93.16882342100143,16.75866668733212,0 
-93.17115157842636,16.759172639706843,0 
-93.17214667797089,16.759416626411777,0 
-93.17327320575714,16.75966831763216,0 
-93.17459285259247,16.759979078781658,0 
-93.17684322595596,16.760402843167476,0 
-93.17708730697632,16.760413116231774,0 
-93.17982852458954,16.761029499074688,0 
-93.18291574716568,16.761694676652176,0 
-93.1848818063736,16.76221089394143,0 
-93.18575888872147,16.762657767478505,0 
-93.18701952695847,16.763520692717087,0 
-93.18981975317001,16.7654982149564,0 
-93.19213449954987,16.7671701040818,0 
-93.19494813680649,16.76909365725683,0 
-93.19607734680176,16.769915463094545,0 
-93.19840550422668,16.77133050169757,0 
-93.19932013750076,16.77189548694548,0 
-93.19955348968506,16.772082958952186,0 
-93.2010743021965,16.77302802049967,0 
-93.2013612985611,16.773251444689727,0 
-93.20322811603546,16.774561167418668,0 
-93.20460945367813,16.775578122372334,0 
-93.20662379264832,16.777329532037385,0 
-93.20733994245529,16.77801006076421,0 
-93.20815533399582,16.778703427149292,0 
-93.20922017097473,16.779684407861225,0 
-93.20968955755234,16.780164624321472,0 
-93.21022599935532,16.780727015317524,0 
-93.21053177118301,16.78097867832916,0 
-93.21136862039566,16.781520523069677,0 
-93.2127982378006,16.78228064389268,0 
-93.21304768323898,16.78247067362326,0 
-93.21331590414047,16.782727470254482,0 
-93.21363240480423,16.783117800469135,0 
-93.21401059627533,16.783610848015023,0 
-93.21473747491837,16.78455585223443,0 
-93.21478575468063,16.784648298046935,0 
-93.21480184793472,16.784779262870952,0 
-93.2147803902626,16.784956450430336,0 
-93.21474820375443,16.78509255090719,0 
-93.21451216936111,16.786137696602303,0 
-93.21418225765228,16.78757058970683,0 
-93.21401596069336,16.788220267068628,0 
</coordinates>
      </LineString>
    </Placemark>
    <Placemark>
      <name>Linea Roja</name>
      <styleUrl>#redLine</styleUrl>
      <LineString>
        <altitudeMode>relative</altitudeMode>
        <coordinates>
-93.21401596069336,16.7882254028492,0 
-93.21419298648834,16.787552614412263,0 
-93.21475088596344,16.785100254704847,0 
-93.2147803902626,16.784941042823046,0 
-93.21480989456177,16.784817781919664,0 
-93.21479916572571,16.784727904127198,0 
-93.21478843688965,16.784656001862608,0 
-93.21473747491837,16.784548148414686,0 
-93.2143297791481,16.784024287939463,0 
-93.21338564157486,16.782804509176163,0 
-93.21311205625534,16.782529736879177,0 
-93.21280896663666,16.78228834780438,0 
-93.21138203144073,16.78152822701219,0 
-93.21053445339203,16.78098895028174,0 
-93.21022868156433,16.780721879334227,0 
-93.2096815109253,16.78015948832297,0 
-93.20866495370865,16.77912971781907,0 
-93.20851743221283,16.778991045055538,0 
-93.2076296210289,16.77824118317367,0 
-93.20736676454544,16.778030604989766,0 
-93.20661574602127,16.7773372361498,0 
-93.2051083445549,16.776009556163377,0 
-93.20459604263306,16.775565282065923,0 
-93.203144967556,16.774484125155,0 
-93.20136666297913,16.773256580874918,0 
-93.20107698440552,16.773020316212573,0 
-93.19961249828339,16.77212404868237,0 
-93.19932013750076,16.77188778261248,0 
-93.19789052009583,16.771017190972756,0 
-93.19606125354767,16.769902622405642,0 
-93.19495618343353,16.76910906614896,0 
-93.19213181734085,16.767167535907006,0 
-93.18980097770691,16.7654905103642,0 
-93.18753719329834,16.763875107305953,0 
-93.18575352430344,16.762655199242772,0 
-93.1849005818367,16.762216030424828,0 
-93.18395107984543,16.761933523631775,0 
-93.18155854940414,16.7613941913164,0 
-93.17880660295486,16.760813765306846,0 
-93.17704975605011,16.760402843167476,0 
-93.17688345909119,16.760312953831175,0 
-93.17468136548996,16.759745365898375,0 
-93.17332416772842,16.759519357562354,0 
-93.17163974046707,16.7591264106117,0 
-93.1702396273613,16.7588156480695,0 
-93.1681689620018,16.758345650863667,0 
-93.1676110625267,16.75824548737466,0 
-93.16711217164993,16.758111935973936,0 
-93.16581666469574,16.757819149882828,0 
-93.1650361418724,16.757652210243243,0 
-93.16412419080734,16.757446745870382,0 
-93.16269993782043,16.757097455927358,0 
-93.16107988357544,16.756776416811334,0 
-93.15972000360489,16.756483628665283,0 
-93.15699219703674,16.755849252803436,0 
-93.15640479326248,16.75576192964473,0 
-93.15521121025085,16.7556771747759,0 
-93.15493762493134,16.75568487976553,0 
-93.1529501080513,16.75554618990438,0 
-93.15199255943298,16.755510233257194,0 
-93.15079361200333,16.755399794941262,0 
-93.15056830644608,16.755407499942134,0 
-93.14842253923416,16.755248263194172,0 
-93.14797192811966,16.75523542151515,0 
-93.14648598432541,16.755132688051724,0 
-93.14531654119492,16.755042796225748,0 
-93.14419537782669,16.754991429448967,0 
-93.1424331665039,16.75484503405912,0 
-93.14102500677109,16.754760278781948,0 
-93.13974291086197,16.754652408374593,0 
-93.1389570236206,16.754593336458928,0 
-93.13842862844467,16.754557379631738,0 
-93.1364357471466,16.754418688948896,0 
-93.13588589429855,16.75439043713075,0 
-93.13479155302048,16.754274861467362,0 
-93.13331097364426,16.75418753758625,0 
-93.13281744718552,16.75413617057865,0 
-93.13213884830475,16.75410535036742,0 
-93.13161581754684,16.75413103387713,0 
-93.13125371932983,16.754195242636193,0 
-93.13089966773987,16.754264588071663,0 
-93.13021838665009,16.75436989035127,0 
-93.12947541475296,16.75452142279774,0 
-93.12939494848251,16.754467487534015,0 
-93.12835961580276,16.754364753656063,0 
-93.12757909297943,16.7542440412786,0 
-93.12739670276642,16.754208084385407,0 
-93.12666714191437,16.754120760473658,0 
-93.12605291604996,16.75404114157803,0 
-93.12594562768936,16.75401032135143,0 
-93.12505781650543,16.75386392520689,0 
-93.12414318323135,16.753745780867803,0 
-93.12236487865448,16.753512060328756,0 
-93.12149584293365,16.753381073967105,0 
-93.12062412500381,16.753286044589473,0 
-93.11983287334442,16.753201288618047,0 
-93.11813235282898,16.75293674700995,0 
-93.11639428138733,16.75267477340463,0 
-93.11385422945023,16.75237941057407,0 
-93.1133821606636,16.75232290632816,0 
-93.11297982931137,16.752248423432942,0 
-93.11231195926666,16.752063500256728,0 
-93.10964047908783,16.751621738608545,0 
-93.10877680778503,16.751467635466824,0 
-93.10788094997406,16.75132894253262,0 
-93.10703873634338,16.751190249497352,0 
-93.10689926147461,16.752040384847053,0 
-93.10683757066727,16.752127709713275,0 
-93.10634940862656,16.75204552160501,0 
-93.10515314340591,16.75190169233015,0 
-93.10303151607513,16.751526708352557,0 
-93.1018540263176,16.751313532200346,0 
-93.09964388608932,16.750781874973363,0 
-93.09728890657425,16.750255353067793,0 
-93.09651911258698,16.750106385630207,0 
-93.09274792671204,16.749261378476636,0 
-93.09022933244705,16.748701462856012,0 
-93.0902025103569,16.748881252454968,0 
-93.08975458145142,16.750902589546502,0 
-93.08953732252121,16.751811798978196,0 
-93.08936566114426,16.75272870917638,0 
-93.08919131755829,16.753632773170477,0 
-93.08911889791489,16.754005184646502,0 
-93.08901965618134,16.754079666854263,0 
-93.08888018131256,16.75470377524286,0 
-93.0868336558342,16.75423633623063,0 
-93.0858063697815,16.754012889703827,0 
-93.08499902486801,16.75386392520689,0 
-93.0818822979927,16.753440146259006,0 
</coordinates>
      </LineString>
    </Placemark>
  </Document>
</kml>
