<?xml version="1.0" encoding="UTF-8"?>
<kml xmlns="http://earth.google.com/kml/2.1">
  <Document>
    <name>Ruta</name>
    <description>Ruta</description>
    <Style id="yellowLine">
      <LineStyle>
        <color>ffff0000</color>
        <width>4</width>
      </LineStyle>
    </Style>
    <Style id="redLine">
      <LineStyle>
        <color>ff0000ff</color>
        <width>4</width>
      </LineStyle>
    </Style>
    <Placemark>
      <name>Linea Azul</name>
      <styleUrl>#yellowLine</styleUrl>
      <LineString>
        <altitudeMode>relative</altitudeMode>
        <coordinates>
-93.0987212061882,16.790099953479185,0 
-93.09861660003662,16.790567304316085,0 
-93.09848248958588,16.790559600740185,0 
-93.09763222932816,16.790446614924402,0 
-93.0965968966484,16.790346468349686,0 
-93.09554278850555,16.79023861813322,0 
-93.09548914432526,16.79071880791193,0 
-93.09543818235397,16.791181021525205,0 
-93.0964708328247,16.79130684614732,0 
-93.09830814599991,16.791468620538943,0 
-93.09842348098755,16.79147889192424,0 
-93.0986139178276,16.79058271146695,0 
-93.09873193502426,16.790051164039788,0 
-93.09879094362259,16.78971734122344,0 
-93.09892773628235,16.789288506436687,0 
-93.09909403324127,16.78893157135475,0 
-93.099225461483,16.788718437137018,0 
-93.09947222471237,16.788541253087175,0 
-93.09985041618347,16.78841029085713,0 
-93.10051292181015,16.7882587854195,0 
-93.10079455375671,16.788220267068628,0 
-93.10108155012131,16.788153501908614,0 
-93.10142487287521,16.788109847752832,0 
-93.10158848762512,16.78807646515635,0 
-93.10192912817001,16.787930095240966,0 
-93.10221880674362,16.787750342558965,0 
-93.1028464436531,16.78731893542803,0 
-93.10308516025543,16.78667695871672,0 
-93.10335338115692,16.78608633822584,0 
-93.1037101149559,16.785426381852563,0 
-93.10393542051315,16.78504632811466,0 
-93.10399979352951,16.78486657270348,0 
-93.1040158867836,16.784771559060278,0 
-93.10404270887375,16.78449678960844,0 
-93.10400247573853,16.78421431592588,0 
-93.10396492481232,16.784008880256554,0 
-93.10394078493118,16.78347474647656,0 
-93.10402125120163,16.78323079064476,0 
-93.10472935438156,16.781803000757638,0 
-93.10495734214783,16.781309948519976,0 
-93.10504853725433,16.781240612946426,0 
-93.10556083917618,16.780149216325558,0 
-93.1058344244957,16.779527759448584,0 
-93.10591220855713,16.779322318711657,0 
-93.10591220855713,16.779322318711657,0 
-93.10593098402023,16.779088629603386,0 
-93.10582637786865,16.778780467702575,0 
-93.1056734919548,16.77855961803292,0 
-93.1056010723114,16.778480009368128,0 
-93.10544013977051,16.778384992531013,0 
-93.10516119003296,16.778310519841686,0 
-93.10462474822998,16.778233479097878,0 
-93.104088306427,16.778120485950456,0 
-93.10296177864075,16.777943292015806,0 
-93.10274451971054,16.777909907632818,0 
-93.10221880674362,16.77773784956592,0 
-93.10140073299408,16.777185721881324,0 
-93.1012773513794,16.777052183781823,0 
-93.1012237071991,16.776952030145623,0 
-93.10123711824417,16.776792811435843,0 
-93.10128808021545,16.776615616263282,0 
-93.10189425945282,16.77532131607936,0 
-93.1021973490715,16.774756341013504,0 
-93.10240119695663,16.77432490437781,0 
-93.1025218963623,16.773937124185107,0 
-93.10256481170654,16.773783039120705,0 
-93.10289740562439,16.772463038617587,0 
-93.10302078723907,16.77157704092131,0 
-93.10307711362839,16.7711070752499,0 
-93.10312539339066,16.77051127010578,0 
-93.10321658849716,16.76995912143031,0 
-93.10335606336594,16.769589309327813,0 
-93.10355186462402,16.769114202446055,0 
-93.10374230146408,16.76874695685372,0 
-93.10396492481232,16.768238461785682,0 
-93.1040695309639,16.767968804758453,0 
-93.10427874326706,16.76720349035091,0 
-93.10456842184067,16.766109444943286,0 
-93.10461938381195,16.7658038301954,0 
-93.10467302799225,16.765344123053026,0 
-93.10471326112747,16.76418329336818,0 
-93.10480445623398,16.76246258146499,0 
-93.10492783784866,16.761309438956378,0 
-93.10498416423798,16.761209277027696,0 
-93.10486614704132,16.761168184939127,0 
-93.10306906700134,16.76077010487167,0 
-93.1022697687149,16.76056464386578,0 
-93.10214906930923,16.76053125643137,0 
-93.10196936130524,16.76043879889011,0 
-93.10193449258804,16.760397706635125,0 
-93.10167700052261,16.75982498240734,0 
-93.10160994529724,16.7595989741659,0 
-93.10162603855133,16.75905706694794,0 
-93.10205519199371,16.758908106399563,0 
-93.10377985239029,16.758492043560473,0 
-93.10418486595154,16.75850231672795,0 
-93.10459792613983,16.758635867854657,0 
-93.10486882925034,16.758849035804985,0 
-93.10503244400024,16.758951767262026,0 
-93.10523092746735,16.75905193037924,0 
-93.10537308454514,16.759041657241447,0 
-93.1054937839508,16.759018542679367,0 
-93.10562521219254,16.758951767262026,0 
-93.10572445392609,16.758820784644573,0 
-93.10577541589737,16.758633299564643,0 
-93.10586124658585,16.758271170325582,0 
-93.10615092515945,16.756663410913607,0 
-93.10633063316345,16.75565149147486,0 
-93.10644865036011,16.75480394059612,0 
-93.10646206140518,16.75470377524286,0 
-93.10665786266327,16.753663593458217,0 
-93.10681074857712,16.752741551024545,0 
-93.1069153547287,16.75223044479869,0 
-93.10691803693771,16.7521354148466,0 
-93.10635477304459,16.75204552160501,0 
-93.10526043176651,16.751909397472637,0 
-93.10516119003296,16.75190169233015,0 
-93.1041419506073,16.75170649528332,0 
-93.10404539108276,16.751696221748986,0 
-93.10302883386612,16.751524139966616,0 
-93.10320049524307,16.750517330002836,0 
-93.10321390628815,16.75042229919552,0 
-93.10326486825943,16.749903481519095,0 
-93.10337752103806,16.749433462304435,0 
-93.10353308916092,16.748357293721583,0 
-93.10359477996826,16.747894975994686,0 
-93.10368329286575,16.747535394764327,0 
-93.10371816158295,16.74728882438531,0 
-93.1038361787796,16.746710923808322,0 
-93.10391664505005,16.746097063052193,0 
-93.10405611991882,16.745267448927713,0 
-93.10419023036957,16.744535433463493,0 
-93.1043216586113,16.743649305715824,0 
-93.1065559387207,16.743985777896878,0 
-93.10664981603622,16.743998620334757,0 
-93.10762077569962,16.744219510130762,0 
-93.10966461896896,16.74481026065189,0 
-93.1104451417923,16.745038854927003,0 
-93.11045318841934,16.74494125291053,0 
-93.11047732830048,16.744458379040424,0 
-93.11026275157928,16.743805983675614,0 
-93.1099060177803,16.742883893501993,0 
-93.11018228530884,16.74280940691425,0 
-93.11189353466034,16.743079099593714,0 
-93.11313539743423,16.7432794424798,0 
-93.11402052640915,16.743459237198138,0 
-93.11410903930664,16.744211804677064,0 
-93.11408758163452,16.744427557262455,0 
-93.11468303203583,16.74450718017865,0 
-93.11511754989624,16.744589371541093,0 
-93.11525166034698,16.74459450850007,0 
-93.1169119477272,16.744864198651655,0 
-93.11706483364105,16.74405512705114,0 
-93.11720162630081,16.743323106927004,0 
-93.11803042888641,16.74345410020855,0 
-93.11894506216049,16.743610778328918,0 
-93.11971485614777,16.743785435753807,0 
-93.12038540840149,16.743918997205935,0 
-93.1205490231514,16.743942113601605,0 
-93.1215038895607,16.744106496778766,0 
-93.12222808599472,16.744237489521485,0 
-93.12305688858032,16.74440957788968,0 
-93.12390446662903,16.74452259106181,0 
-93.12404930591583,16.743890743829645,0 
-93.12419682741165,16.743127901085376,0 
-93.12432825565338,16.742393308888268,0 
-93.12445431947708,16.741658713857934,0 
</coordinates>
      </LineString>
    </Placemark>
    <Placemark>
      <name>Linea Roja</name>
      <styleUrl>#redLine</styleUrl>
      <LineString>
        <altitudeMode>relative</altitudeMode>
        <coordinates>
-93.12446236610413,16.74165614533888,0 
-93.12459379434586,16.74070579090856,0 
-93.12383472919464,16.740618460804107,0 
-93.12291741371155,16.740518287987957,0 
-93.1222066283226,16.74041811511911,0 
-93.12116324901581,16.740281982674446,0 
-93.12036126852036,16.74019722091449,0 
-93.1195941567421,16.740086773716108,0 
-93.11864197254181,16.739940366866072,0 
-93.11782389879227,16.739814508255925,0 
-93.11706215143204,16.73970149229025,0 
-93.11550915241241,16.739472891609232,0 
-93.11470985412598,16.73935216979059,0 
-93.11395615339279,16.73923915355061,0 
-93.11375230550766,16.739246859205473,0 
-93.11384350061417,16.73948830289972,0 
-93.11394274234772,16.739981463537095,0 
-93.1139588356018,16.740505445315403,0 
-93.11398833990097,16.741969504408836,0 
-93.11402052640915,16.7434643741876,0 
-93.11313807964325,16.7432794424798,0 
-93.11189085245132,16.743073962593858,0 
-93.11018228530884,16.742804269907133,0 
-93.10990869998932,16.742894167511807,0 
-93.10956805944443,16.742552556388315,0 
-93.10946077108383,16.742614200546118,0 
-93.10890555381775,16.742478069670995,0 
-93.1083208322525,16.74235221273761,0 
-93.10785949230194,16.742236629766342,0 
-93.10740888118744,16.742092793081937,0 
-93.1071326136589,16.742020874698998,0 
-93.10704946517944,16.742460090114168,0 
-93.10688585042953,16.742966085564998,0 
-93.10679197311401,16.74340273030495,0 
-93.10665249824524,16.743826531595204,0 
-93.10656934976578,16.743906154762687,0 
-93.10654789209366,16.74399348335971,0 
-93.10632795095444,16.74511847758761,0 
-93.10603827238083,16.7467417452167,0 
-93.10586392879486,16.747746006710216,0 
-93.10584247112274,16.747838470417754,0 
-93.10568958520889,16.748683483886786,0 
-93.10549646615982,16.74975708221602,0 
-93.1053301692009,16.750758759408072,0 
-93.10515314340591,16.751989017259994,0 
-93.10624212026596,16.752114867823696,0 
-93.10638964176178,16.75214311997962,0 
-93.10682147741318,16.75221246616275,0 
-93.1067168712616,16.752741551024545,0 
-93.10656934976578,16.75364818331497,0 
-93.10637086629868,16.754693501870317,0 
-93.10636013746262,16.75478339386129,0 
-93.10623943805695,16.755636081492575,0 
-93.10615360736847,16.756118927011215,0 
-93.1057620048523,16.758268602030654,0 
-93.10560643672943,16.75823264589789,0 
-93.10533285140991,16.75812734575573,0 
-93.10513705015182,16.75800406746647,0 
-93.1050592660904,16.757939859992515,0 
-93.10283303260803,16.757629095512364,0 
-93.10189694166183,16.757942428291884,0 
-93.1018003821373,16.757939859992515,0 
-93.10175478458405,16.75819668975835,0 
-93.10169577598572,16.75838931185521,0 
-93.10168236494064,16.758535704518405,0 
-93.10152143239975,16.759195754250207,0 
-93.10153216123581,16.759758207273045,0 
-93.10184866189957,16.760469618075522,0 
-93.10194790363312,16.76059546303081,0 
-93.10208737850189,16.7606596696086,0 
-93.1033506989479,16.760952451328546,0 
-93.10482859611511,16.761268346889448,0 
-93.10469180345535,16.762447172034353,0 
-93.1046113371849,16.763880243744428,0 
-93.10456305742264,16.765318441056994,0 
-93.10450673103333,16.76580126200215,0 
-93.10445576906204,16.766088899429416,0 
-93.10398906469345,16.76781471485692,0 
-93.10367524623871,16.768580026804553,0 
-93.10319781303406,16.76962012703049,0 
-93.10308784246445,16.770010484165432,0 
-93.10307174921036,16.770113209594065,0 
-93.10304492712021,16.770403408630084,0 
-93.10302883386612,16.770513838235395,0 
-93.10299932956696,16.77064224467256,0 
-93.1029725074768,16.771117347736013,0 
-93.10280621051788,16.772419380856814,0 
-93.10238510370255,16.77409634528711,0 
-93.10231536626816,16.774309495908437,0 
-93.1017655134201,16.77533929253118,0 
-93.10162603855133,16.775644891951664,0 
-93.10125052928925,16.77648978191,0 
-93.10113251209259,16.77684674036861,0 
-93.10112982988358,16.7769237816746,0 
-93.10116469860077,16.77704191161644,0 
-93.10116469860077,16.77704191161644,0 
-93.10128003358841,16.777211402274318,0 
-93.10153484344482,16.777416845293317,0 
-93.10218393802643,16.77784313884922,0 
-93.1025943160057,16.777961268219613,0 
-93.10442358255386,16.778297679719888,0 
-93.10491174459457,16.77837985648441,0 
-93.1050968170166,16.778402968693033,0 
-93.10538649559021,16.77849284947761,0 
-93.10556888580322,16.778613546464303,0 
-93.105708360672,16.77878817175619,0 
-93.10579150915146,16.77902186123395,0 
-93.10581296682358,16.779288934570925,0 
-93.10575664043427,16.77948410331057,0 
-93.1056359410286,16.779722927942917,0 
-93.10544550418854,16.78015948832297,0 
-93.1052228808403,16.78058577572619,0 
-93.10502707958221,16.781012062173005,0 
-93.10496002435684,16.781220069067935,0 
-93.1049519777298,16.781320220454642,0 
-93.10473203659058,16.781800432780535,0 
-93.10401320457458,16.783228222686972,0 
-93.10394883155823,16.783479882385446,0 
-93.10395956039429,16.784003744361968,0 
-93.10400515794754,16.784216883870336,0 
-93.10404002666473,16.78449678960844,0 
-93.10401320457458,16.784792102554725,0 
-93.10396760702133,16.78496158629916,0 
-93.10391664505005,16.785074575378104,0 
-93.10367792844772,16.7854828762622,0 
-93.10333460569382,16.786119721172106,0 
-93.10308516025543,16.786674390805505,0 
-93.10285717248917,16.787313799622957,0 
-93.10193985700607,16.787919823663717,0 
-93.10159116983414,16.78807132937176,0 
-93.10141682624817,16.788114983536392,0 
-93.10107886791229,16.78814323034345,0 
-93.10076773166656,16.788217699178293,0 
-93.10051828622818,16.788261353309277,0 
-93.09984236955643,16.788417994520213,0 
-93.09946954250336,16.788543820973132,0 
-93.09922814369202,16.788723572904118,0 
-93.09908598661423,16.78894954651881,0 
-93.09892237186432,16.789298777939905,0 
-93.09882044792175,16.78959665129155,0 
-93.09879094362259,16.78971734122344,0 
-93.09872388839722,16.790097385614267,0 
-93.09861660003662,16.79056473645749,0 
-93.09848248958588,16.790554465022744,0 
-93.09763491153717,16.790449182784613,0 
-93.09554010629654,16.7902334824071,0 
-93.09548646211624,16.790721375768452,0 
-93.09543550014496,16.791178453674906,0 
-93.09647351503372,16.791304278298714,0 
-93.0983054637909,16.791471188385323,0 
-93.09842348098755,16.79147632407796,0 
-93.0986139178276,16.790585279325303,0 
-93.09871047735214,16.79009481774931,0 
</coordinates>
      </LineString>
    </Placemark>
  </Document>
</kml>
