<?xml version="1.0" encoding="UTF-8"?>
<kml xmlns="http://earth.google.com/kml/2.1">
  <Document>
    <name>Ruta</name>
    <description>Ruta</description>
    <Style id="yellowLine">
      <LineStyle>
        <color>ffff0000</color>
        <width>4</width>
      </LineStyle>
    </Style>
    <Style id="redLine">
      <LineStyle>
        <color>ff0000ff</color>
        <width>4</width>
      </LineStyle>
    </Style>
    <Placemark>
      <name>Linea Azul</name>
      <styleUrl>#yellowLine</styleUrl>
      <LineString>
        <altitudeMode>relative</altitudeMode>
        <coordinates>
-93.13051611185074,16.76877007023359,0 
-93.13051879405975,16.768187098571886,0 
-93.13051611185074,16.76771455635398,0 
-93.13030421733856,16.76711617240396,0 
-93.13010573387146,16.76652292293813,0 
-93.1299877166748,16.76613255864373,0 
-93.12984824180603,16.76555214709308,0 
-93.12970608472824,16.764961460953003,0 
-93.12954783439636,16.764391318677898,0 
-93.1293573975563,16.76380576537314,0 
-93.129303753376,16.76362085342871,0 
-93.12932789325714,16.763420531952708,0 
-93.12944859266281,16.76283497565941,0 
-93.12956929206848,16.762254554045917,0 
-93.12968999147415,16.76166642591432,0 
-93.12981605529785,16.761093705505992,0 
-93.12990456819534,16.76068792049594,0 
-93.12947273254395,16.760623713927707,0 
-93.1288531422615,16.760508142050263,0 
-93.12767565250397,16.76033349996894,0 
-93.12683880329132,16.760212791377842,0 
-93.12564253807068,16.759981647053507,0 
-93.12570691108704,16.759791594843126,0 
-93.12574177980423,16.759593837611842,0 
-93.12574982643127,16.759406353293677,0 
-93.12577664852142,16.75931389520572,0 
-93.12585443258286,16.759280507551825,0 
-93.12597244977951,16.758800238343465,0 
-93.12601536512375,16.758504885019736,0 
-93.12608242034912,16.758024613853554,0 
-93.12568008899689,16.757927018495128,0 
-93.1253769993782,16.75785767439423,0 
-93.12524020671844,16.757834559688337,0 
-93.1243497133255,16.757636800422976,0 
-93.1235021352768,16.75746986062341,0 
-93.12358260154724,16.756951062157636,0 
-93.12362551689148,16.75669679902675,0 
-93.12376767396927,16.756106085390943,0 
-93.12382131814957,16.755877504405028,0 
-93.12391519546509,16.755279083220305,0 
-93.12401175498962,16.754683228497214,0 
-93.12410026788712,16.75409250861129,0 
-93.12414854764938,16.753740644155734,0 
-93.12414854764938,16.753152489708285,0 
-93.12414854764938,16.75297527250973,0 
-93.1242772936821,16.752140551601986,0 
-93.12390983104706,16.75209432079857,0 
-93.12340021133423,16.752027542951588,0 
-93.12253922224045,16.75191196585339,0 
-93.12132954597473,16.751747589415075,0 
-93.12041491270065,16.75161403345443,0 
-93.11915695667267,16.75142140449999,0 
-93.11929106712341,16.75063290794781,0 
</coordinates>
      </LineString>
    </Placemark>
    <Placemark>
      <name>Linea Roja</name>
      <styleUrl>#redLine</styleUrl>
      <LineString>
        <altitudeMode>relative</altitudeMode>
        <coordinates>
-93.11922669410706,16.750995051720963,0 
-93.11929374933243,16.750622634355544,0 
-93.12012255191803,16.75072537025326,0 
-93.12098354101181,16.750833242886188,0 
-93.12185257673264,16.750961662607587,0 
-93.12295764684677,16.751110629375884,0 
-93.12404125928879,16.751259596027605,0 
-93.1250712275505,16.751403425787625,0 
-93.12539041042328,16.75145479353272,0 
-93.12637746334076,16.751508729650144,0 
-93.12627822160721,16.752066068635404,0 
-93.12617361545563,16.752631111102026,0 
-93.12606364488602,16.753198720254687,0 
-93.1259885430336,16.753766327714654,0 
-93.12589466571808,16.754357048612974,0 
-93.1258088350296,16.754924652618453,0 
-93.125701546669,16.75550509659276,0 
-93.12559425830841,16.756090675445463,0 
-93.12548696994781,16.756671115863313,0 
-93.12538504600525,16.757261827745115,0 
-93.12528043985367,16.757849969492575,0 
-93.12524020671844,16.758111935973936,0 
-93.12525629997253,16.758456087469938,0 
-93.12532067298889,16.75859734350081,0 
-93.12524020671844,16.759146956877593,0 
-93.12507927417755,16.75974022934826,0 
-93.12504976987839,16.759848096871448,0 
-93.12507927417755,16.759979078781658,0 
-93.12492370605469,16.760510710314975,0 
-93.12487542629242,16.760685352233633,0 
-93.12476009130478,16.76128889292403,0 
-93.1245481967926,16.762429194363683,0 
-93.12526434659958,16.76254476507404,0 
-93.12516778707504,16.76309436704682,0 
-93.12509536743164,16.763530965613008,0 
-93.12595635652542,16.763654240320864,0 
-93.12683075666428,16.76377237850759,0 
-93.12710702419281,16.763813470033593,0 
-93.12705874443054,16.76434765906387,0 
-93.12700644135475,16.764912665059423,0 
-93.12699571251869,16.765083450632257,0 
-93.1271405518055,16.765125825976206,0 
-93.12730014324188,16.765829512125887,0 
-93.12789022922516,16.765860330437892,0 
-93.12804982066154,16.766973638610295,0 
-93.12803506851196,16.767428205471195,0 
-93.12806189060211,16.76782627160389,0 
-93.12808200716972,16.768131883101567,0 
-93.12810748815536,16.7684862890973,0 
-93.127770870924,16.76845932344693,0 
-93.12775880098343,16.768237177705505,0 
-93.12709093093872,16.76806639496484,0 
-93.12617361545563,16.767953395773922,0 
-93.12529653310776,16.76783782835012,0 
-93.12443017959595,16.767719692688743,0 
-93.12433898448944,16.768276984186926,0 
-93.12480032444,16.768333483694633,0 
-93.12567204236984,16.768400255818474,0 
-93.12562376260757,16.768859955573067,0 
-93.12440603971481,16.768816296984905,0 
-93.12359064817429,16.768793183610658,0 
-93.12242656946182,16.76874952500718,0 
-93.12247216701508,16.76888820524241,0 
-93.1225848197937,16.769073112065378,0 
-93.12297105789185,16.769440357027772,0 
-93.12315613031387,16.769756238490917,0 
-93.12327414751053,16.770061846886687,0 
-93.12333315610886,16.770572905207256,0 
-93.12349945306778,16.771112211493026,0 
-93.12367647886276,16.77157960903655,0 
-93.12378376722336,16.771826147937247,0 
-93.12384814023972,16.772029028667824,0 
-93.12402248382568,16.772452766204196,0 
-93.12427192926407,16.772997203349405,0 
-93.12456294894218,16.77358144430616,0 
-93.12493175268173,16.77377019869304,0 
-93.12500819563866,16.77379844763276,0 
-93.12554597854614,16.773867785921585,0 
-93.12564924359322,16.77345303985426,0 
-93.12623530626297,16.773496697377638,0 
-93.12639355659485,16.773039576929737,0 
-93.12646463513374,16.77280716414567,0 
-93.12645256519318,16.772109924088618,0 
-93.12636941671371,16.771659220591513,0 
-93.12636271119118,16.771234197226455,0 
-93.12738597393036,16.77117256233935,0 
-93.1281141936779,16.771127620221563,0 
-93.12833547592163,16.771094234641478,0 
-93.12822818756104,16.770657653439198,0 
-93.12909185886383,16.77059858649366,0 
-93.12879949808121,16.76927856388,0 
-93.12925010919571,16.7692361894614,0 
-93.12911868095398,16.768709718624674,0 
-93.12946870923042,16.768700730085538,0 
-93.12953174114227,16.76869687785436,0 
-93.13051879405975,16.76878291099898,0 
-93.13051611185074,16.768659639615517,0 
</coordinates>
      </LineString>
    </Placemark>
  </Document>
</kml>
