<?xml version="1.0" encoding="UTF-8"?>
<kml xmlns="http://earth.google.com/kml/2.1">
  <Document>
    <name>Ruta</name>
    <description>Ruta</description>
    <Style id="yellowLine">
      <LineStyle>
        <color>ffff0000</color>
        <width>4</width>
      </LineStyle>
    </Style>
    <Style id="redLine">
      <LineStyle>
        <color>ff0000ff</color>
        <width>4</width>
      </LineStyle>
    </Style>
    <Placemark>
      <name>Linea Azul</name>
      <styleUrl>#yellowLine</styleUrl>
      <LineString>
        <altitudeMode>relative</altitudeMode>
        <coordinates>
-93.11784535646439,16.74917405229556,0 
-93.11793655157089,16.748727147094833,0 
-93.11881899833679,16.748860705080816,0 
-93.1196317076683,16.748958305088262,0 
-93.12052488327026,16.749076452398725,0 
-93.12033176422119,16.74994200763277,0 
-93.12015473842621,16.750674002311328,0 
-93.1201171875,16.750769032992988,0 
-93.11997771263123,16.75154211866757,0 
-93.11995893716812,16.752381978948485,0 
-93.12079310417175,16.75247957715057,0 
-93.12156826257706,16.752625974359884,0 
-93.12241047620773,16.752741551024545,0 
-93.12340021133423,16.752828875569072,0 
-93.12414318323135,16.752980409242443,0 
-93.1252321600914,16.753060028581803,0 
-93.12612533569336,16.75320385698137,0 
-93.12689244747162,16.75331429657156,0 
-93.12801361083984,16.753445282979175,0 
-93.12894701957703,16.75357113258002,0 
-93.128941655159,16.753820263177076,0 
-93.12919646501541,16.753827968241893,0 
-93.13017547130585,16.75381769482207,0 
-93.13022375106812,16.754364753656063,0 
-93.13022643327713,16.75453683287029,0 
-93.1308326125145,16.754449509109374,0 
-93.13124299049377,16.754364753656063,0 
-93.13205569982529,16.754274861467362,0 
-93.1327423453331,16.754295408257093,0 
-93.13325732946396,16.75436989035127,0 
-93.13471108675003,16.75446491918775,0 
-93.13578933477402,16.754534264524942,0 
-93.13711166381836,16.754613883214283,0 
-93.13828647136688,16.754701206899764,0 
-93.13935667276382,16.75478596220326,0 
-93.14098745584488,16.75491437925783,0 
-93.14222127199173,16.755009407822424,0 
-93.14234733581543,16.754934925978503,0 
-93.14254581928253,16.755040227887232,0 
-93.14382523298264,16.755112141352384,0 
-93.14438045024872,16.755150666411836,0 
-93.14530581235886,16.755212306490716,0 
-93.1464672088623,16.755273946549625,0 
-93.14721286296844,16.755350996595194,0 
-93.14845740795135,16.75539465827385,0 
-93.14963757991791,16.755489686598615,0 
-93.15073728561401,16.755571873219615,0 
-93.15123081207275,16.755602693193346,0 
-93.15196841955185,16.755646354814242,0 
-93.15296083688736,16.755705426403036,0 
-93.15402299165726,16.755782476273918,0 
-93.15494298934937,16.75583641116497,0 
-93.15518170595169,16.755867231095852,0 
-93.15589517354965,16.75590318767557,0 
-93.15641015768051,16.755928870942643,0 
-93.1568393111229,16.755982805792208,0 
-93.15701097249985,16.756003352397542,0 
-93.15813481807709,16.756262753099108,0 
-93.15922379493713,16.75650417521655,0 
-93.15963685512543,16.756609476256948,0 
-93.1597226858139,16.75657095149283,0 
-93.15977901220322,16.756650569330073,0 
-93.16073656082153,16.756881717701077,0 
-93.16107451915741,16.756915105775914,0 
-93.16198647022247,16.75712570734365,0 
-93.16269725561142,16.757284942520613,0 
-93.16269189119339,16.757105160859496,0 
-93.16269189119339,16.757002428405453,0 
-93.16277235746384,16.75690996914939,0 
-93.1628367304802,16.756270458065035,0 
-93.1628206372261,16.755384384938594,0 
-93.16290378570557,16.754459782495086,0 
-93.16333562135696,16.75456508466671,0 
-93.1637567281723,16.75460360983689,0 
-93.16438168287277,16.75459847314798,0 
-93.16527217626572,16.75458306308043,0 
-93.16606342792511,16.754541969560854,0 
-93.16702097654343,16.7545034443782,0 
-93.16797852516174,16.75452912783417,0 
-93.16903799772263,16.754544537906085,0 
-93.16916942596436,16.754539401215585,0 
-93.16962003707886,16.754441804069724,0 
-93.17002236843109,16.75439043713075,0 
-93.17120790481567,16.754267156420635,0 
-93.17179799079895,16.754220926133755,0 
-93.17290842533112,16.754297976605645,0 
-93.17346900701523,16.754349343569583,0 
-93.17457675933838,16.75432622843752,0 
-93.17582666873932,16.75422863118235,0 
-93.17598760128021,16.75349408181388,0 
-93.17605197429657,16.752880242929496,0 
-93.17606806755066,16.752235581551506,0 
-93.17609488964081,16.752032679709885,0 
-93.17611902952194,16.751963333461262,0 
-93.17611366510391,16.75161403345443,0 
-93.17610830068588,16.75097193618156,0 
-93.17608952522278,16.75035295236025,0 
-93.17606270313263,16.74969800878113,0 
-93.17653208971024,16.749225420642215,0 
-93.17650258541107,16.748591020589615,0 
-93.17736893892288,16.7486886207353,0 
-93.17828625440598,16.748806768213136,0 
-93.17835330963135,16.74823914596484,0 
-93.17839622497559,16.74790524973415,0 
-93.17853569984436,16.746875304595385,0 
-93.17868322134018,16.745832511572193,0 
-93.17881733179092,16.74482823998684,0 
-93.17896753549576,16.743795709714984,0 
-93.17791610956192,16.743649305715824,0 
-93.17806631326675,16.742627043076485,0 
-93.17771226167679,16.741435252569936,0 
-93.17787051200867,16.74041040951164,0 
-93.17800998687744,16.739406109336027,0 
-93.17801535129547,16.73926997616817,0 
-93.17815482616425,16.73897972965527,0 
-93.17849546670914,16.73850968347961,0 
-93.17886024713516,16.737936893402807,0 
-93.1790292263031,16.737672330588605,0 
-93.17948520183563,16.737207418345495,0 
-93.17981243133545,16.736891482858844,0 
-93.18053126335144,16.73625961031391,0 
-93.18098992109299,16.735989907979807,0 
-93.18153440952301,16.735748459852097,0 
-93.18287283182144,16.7352475824413,0 
-93.18390280008316,16.734931643705014,0 
-93.18408787250519,16.734800644563183,0 
-93.1845223903656,16.734441038612868,0 
-93.18506687879562,16.73397611848557,0 
-93.18542093038559,16.733657609014376,0 
-93.18566232919693,16.733434138341806,0 
-93.18590641021729,16.733197824242065,0 
-93.1864482164383,16.7328613330074,0 
-93.18690955638885,16.732671253726757,0 
-93.18737357854843,16.732488880184672,0 
-93.18782418966293,16.73227054543295,0 
-93.18842500448227,16.731977719608544,0 
-93.18887293338776,16.73179277675079,0 
-93.1892591714859,16.731533342717345,0 
-93.18943083286285,16.73138179197994,0 
-93.18965345621109,16.730806411811944,0 
-93.1899431347847,16.730179656438178,0 
</coordinates>
      </LineString>
    </Placemark>
    <Placemark>
      <name>Linea Roja</name>
      <styleUrl>#redLine</styleUrl>
      <LineString>
        <altitudeMode>relative</altitudeMode>
        <coordinates>
-93.18995118141174,16.73017195041666,0 
-93.18962395191193,16.730878334427935,0 
-93.18943619728088,16.73138179197994,0 
-93.18925648927689,16.73153591137286,0 
-93.18887561559677,16.73178507079449,0 
-93.18841695785522,16.73196744501005,0 
-93.18782150745392,16.732262839495974,0 
-93.18737089633942,16.73249401746994,0 
-93.18690419197083,16.7326763910071,0 
-93.18644016981125,16.732856195732033,0 
-93.18590641021729,16.733197824242065,0 
-93.18542629480362,16.733657609014376,0 
-93.1850615143776,16.73398896159825,0 
-93.18447411060333,16.73448727370164,0 
-93.18409860134125,16.734798075951662,0 
-93.18389475345612,16.734931643705014,0 
-93.18289965391159,16.7352475824413,0 
-93.18154245615005,16.735738185456892,0 
-93.18098723888397,16.73598477078879,0 
-93.18053662776947,16.73625961031391,0 
-93.17981511354446,16.736896620025412,0 
-93.17946374416351,16.737235672713087,0 
-93.1791365146637,16.737551607629005,0 
-93.17902654409409,16.737672330588605,0 
-93.17882806062698,16.737975421937318,0 
-93.17849546670914,16.738499409233317,0 
-93.17815750837326,16.73897459254486,0 
-93.1780207157135,16.73926740761689,0 
-93.17800730466843,16.739403540786604,0 
-93.17787051200867,16.74039756683181,0 
-93.17770689725876,16.741422409959213,0 
-93.17788392305374,16.742015737670595,0 
-93.17805826663971,16.742619337558377,0 
-93.17792147397995,16.74365187420801,0 
-93.17895948886871,16.743785435753807,0 
-93.17882269620895,16.744817966081364,0 
-93.17867785692215,16.74582737464662,0 
-93.17853838205338,16.74687016769793,0 
-93.17839622497559,16.747900112864496,0 
-93.17828357219696,16.748801631367805,0 
-93.17736357450485,16.7486886207353,0 
-93.17650526762009,16.74858588373847,0 
-93.1765267252922,16.749222852225216,0 
-93.1760761141777,16.74968773513842,0 
-93.1760922074318,16.75041202559189,0 
-93.17610830068588,16.751105492592714,0 
-93.17611902952194,16.751955628320964,0 
-93.17607343196869,16.752084047285162,0 
-93.17606002092361,16.752697888737245,0 
-93.17602515220642,16.75331429657156,0 
-93.17590445280075,16.75378687455928,0 
-93.1758239865303,16.75422863118235,0 
-93.17520439624786,16.754277429816195,0 
-93.17457675933838,16.754315955044596,0 
-93.17395985126495,16.754349343569583,0 
-93.17345023155212,16.75435191191742,0 
-93.17275285720825,16.754287703211194,0 
-93.17203670740128,16.75423890457998,0 
-93.17179262638092,16.754218357784158,0 
-93.17105233669281,16.754279998165003,0 
-93.17003309726715,16.75439043713075,0 
-93.16962271928787,16.754439235723105,0 
-93.16913455724716,16.754544537906085,0 
-93.16903799772263,16.75454710625129,0 
-93.16798388957977,16.75452399114325,0 
-93.16702097654343,16.754498307686593,0 
-93.16606879234314,16.75454710625129,0 
-93.16526412963867,16.7545856314251,0 
-93.16438168287277,16.75459847314798,0 
-93.16372722387314,16.754606178181284,0 
-93.16332221031189,16.754567653011634,0 
-93.1629091501236,16.754459782495086,0 
-93.16286087036133,16.754952904357292,0 
-93.16281795501709,16.75539465827385,0 
-93.1628367304802,16.756288436317657,0 
-93.16276967525482,16.756902264209355,0 
-93.16269189119339,16.756997291781296,0 
-93.1626945734024,16.757192483401823,0 
-93.16266775131226,16.757115434101852,0 
-93.16194623708725,16.756943357219267,0 
-93.16107988357544,16.75678412175646,0 
-93.16073387861252,16.75669679902675,0 
-93.16024571657181,16.75659406635223,0 
-93.15981388092041,16.75650674353529,0 
-93.15973341464996,16.75655040494878,0 
-93.15969854593277,16.756473355388817,0 
-93.15908968448639,16.756337234423324,0 
-93.15823137760162,16.756142041925536,0 
-93.15729528665543,16.755923734289507,0 
-93.1569492816925,16.755851821131035,0 
-93.15643429756165,16.75576706630223,0 
-93.15528899431229,16.75568231143569,0 
-93.15494030714035,16.755690016425117,0 
-93.15394520759583,16.75562837650096,0 
-93.15294474363327,16.75555132656769,0 
-93.15199792385101,16.755510233257194,0 
-93.15080165863037,16.755404931608545,0 
-93.150554895401,16.755407499942134,0 
-93.14936131238937,16.755325313250136,0 
-93.14852982759476,16.75526110487233,0 
-93.1479799747467,16.755248263194172,0 
-93.14720749855042,16.755184054790377,0 
-93.14649671316147,16.75513782472621,0 
-93.14532190561295,16.75503765954869,0 
-93.14420878887177,16.75499913446638,0 
-93.14275234937668,16.7548655807873,0 
-93.14243853092194,16.754850170741367,0 
-93.14235270023346,16.754922084278334,0 
-93.1421810388565,16.754834760694198,0 
-93.14103305339813,16.75475514209726,0 
-93.13993871212006,16.754678091810465,0 
-93.13912063837051,16.75460104149245,0 
-93.13840180635452,16.754554811286685,0 
-93.13720554113388,16.75447005588025,0 
-93.13641965389252,16.754413552254995,0 
-93.13585638999939,16.754382732088704,0 
-93.13479155302048,16.75426972476957,0 
-93.13331097364426,16.754190105936264,0 
-93.1328147649765,16.75413103387713,0 
-93.13213616609573,16.754102782016275,0 
-93.13161045312881,16.75413103387713,0 
-93.13104718923569,16.754226062832856,0 
-93.1309050321579,16.754262019722642,0 
-93.1302210688591,16.754372458698832,0 
-93.12948614358902,16.754513717761,0 
-93.12938958406448,16.75446491918775,0 
-93.12922060489655,16.75446235084144,0 
-93.1280779838562,16.75432366008935,0 
-93.1275737285614,16.75423633623063,0 
-93.12666445970535,16.75411562377172,0 
-93.12604755163193,16.75404114157803,0 
-93.12594294548035,16.75401032135143,0 
-93.12506586313248,16.75386392520689,0 
-93.12414854764938,16.753743212511782,0 
-93.12329560518265,16.75362249974012,0 
-93.12235951423645,16.753509491969595,0 
-93.12149316072464,16.75338364232801,0 
-93.12063217163086,16.753275771140405,0 
-93.12079578638077,16.75248471389667,0 
-93.12083601951599,16.75168081144646,0 
-93.12097281217575,16.750833242886188,0 
-93.12108546495438,16.750052449115454,0 
-93.1203156709671,16.74994971285458,0 
-93.11946004629135,16.749828997677216,0 
-93.1186231970787,16.749731398116143,0 
-93.11777025461197,16.749574725031913,0 
-93.11785072088242,16.74917405229556,0 
</coordinates>
      </LineString>
    </Placemark>
  </Document>
</kml>
