<?xml version="1.0" encoding="UTF-8"?>
<kml xmlns="http://earth.google.com/kml/2.1">
  <Document>
    <name>Ruta</name>
    <description>Ruta</description>
    <Style id="yellowLine">
      <LineStyle>
        <color>ffff0000</color>
        <width>4</width>
      </LineStyle>
    </Style>
    <Style id="redLine">
      <LineStyle>
        <color>ff0000ff</color>
        <width>4</width>
      </LineStyle>
    </Style>
    <Placemark>
      <name>Linea Azul</name>
      <styleUrl>#yellowLine</styleUrl>
      <LineString>
        <altitudeMode>relative</altitudeMode>
        <coordinates>
-93.07404488325119,16.737071283606536,0 
-93.07390540838242,16.73705844070161,0 
-93.07389736175537,16.73740263025426,0 
-93.07386249303818,16.73779305347173,0 
-93.07383030653,16.738160358794588,0 
-93.0737954378128,16.73854050621519,0 
-93.07344406843185,16.73849684067165,0 
-93.07265281677246,16.738445469431156,0 
-93.07187229394913,16.738383823924263,0 
-93.07146728038788,16.73836327541754,0 
-93.07065188884735,16.73827851280386,0 
-93.07024419307709,16.738242552895752,0 
-93.07028710842133,16.737769936329812,0 
-93.06914716959,16.738442900868765,0 
-93.06841224431992,16.738892398759535,0 
-93.06805819272995,16.73915695987943,0 
-93.06849271059036,16.7394574803175,0 
-93.06838274002075,16.739601318991877,0 
-93.0690398812294,16.74000714895198,0 
-93.06992501020432,16.740564521601964,0 
-93.07048559188843,16.740924115994503,0 
-93.07054728269577,16.740762298601872,0 
-93.07042390108109,16.74067239999101,0 
-93.07045608758926,16.740446369010535,0 
-93.07050973176956,16.740055951230715,0 
-93.07057946920395,16.73918007685303,0 
-93.07102471590042,16.73922117368808,0 
-93.07176768779755,16.739275113270605,0 
-93.07294249534607,16.73937271819066,0 
-93.07371228933334,16.739449774671165,0 
-93.0736318230629,16.74032821634581,0 
-93.07360231876373,16.74073147622578,0 
-93.07351380586624,16.74149176004684,0 
-93.07353794574738,16.74167412497158,0 
-93.07442843914032,16.741424978481422,0 
-93.07449012994766,16.74143268404785,0 
-93.07502388954163,16.741684399046658,0 
-93.07515263557434,16.741692104602603,0 
-93.07605117559433,16.74154313046584,0 
-93.07609409093857,16.741561110109217,0 
-93.07611554861069,16.741617617548783,0 
-93.07605385780334,16.741782002732197,0 
-93.07562202215195,16.74187446933553,0 
-93.07559788227081,16.741930976682134,0 
-93.07427555322647,16.742339370188706,0 
-93.07427555322647,16.742339370188706,0 
-93.07379812002182,16.742475501162982,0 
-93.07358890771866,16.742534576838523,0 
-93.07362645864487,16.742698961230552,0 
-93.07454645633698,16.74244211055565,0 
-93.07507485151291,16.742285431473885,0 
-93.07579100131989,16.742038854297274,0 
-93.07652592658997,16.74179998235303,0 
-93.07747811079025,16.74152515082076,0 
-93.07837933301926,16.74126573003865,0 
-93.07904452085495,16.741024288597252,0 
-93.08032661676407,16.740490034107204,0 
-93.08127075433731,16.740037971445272,0 
-93.08212101459503,16.739629573004443,0 
-93.08300882577896,16.739203193823847,0 
-93.08398514986038,16.73873314819954,0 
-93.08493196964264,16.73827337567454,0 
-93.08522701263428,16.738132104564126,0 
-93.08619797229767,16.737672330588605,0 
-93.08719038963318,16.737194575449745,0 
-93.08825254440308,16.736662878806044,0 
-93.08934956789017,16.736144023646034,0 
-93.09030711650848,16.73567910767375,0 
-93.09125930070877,16.73521162196114,0 
-93.09158653020859,16.7350420938919,0 
-93.09226512908936,16.734674782557768,0 
-93.09297055006027,16.73421756885901,0 
-93.09369206428528,16.73376035406325,0 
-93.0947408080101,16.733012882568307,0 
-93.09484273195267,16.732946098030887,0 
-93.09588611125946,16.7322268784526,0 
-93.09711456298828,16.731399772582215,0 
-93.09824913740158,16.730598349805724,0 
-93.09834033250809,16.730521289745784,0 
-93.0989545583725,16.730197637153857,0 
-93.09957414865494,16.729920220209078,0 
-93.1004324555397,16.729676195710923,0 
-93.10120224952698,16.729552899003576,0 
-93.10233682394028,16.72956831109636,0 
-93.10281962156296,16.72963766549844,0 
-93.10364842414856,16.729856003266168,0 
-93.10421973466873,16.73006149740733,0 
-93.10492783784866,16.730351757504263,0 
-93.10585051774979,16.7307858624881,0 
-93.10661226511002,16.731122357387072,0 
-93.10756981372833,16.731633520257258,0 
-93.10797214508057,16.731964876360326,0 
-93.10840934515,16.7323321929176,0 
-93.108591735363,16.732501723397576,0 
-93.109130859375,16.733082235717003,0 
-93.10957878828049,16.733547158025054,0 
-93.1101393699646,16.734081431983935,0 
-93.11074286699295,16.734420489680932,0 
-93.11152070760727,16.734708174526492,0 
-93.11224490404129,16.734810919008936,0 
-93.112912774086,16.734862291229387,0 
-93.11483323574066,16.735013839199024,0 
-93.11562180519104,16.735075485796248,0 
-93.11545550823212,16.735751028450807,0 
-93.11522752046585,16.736799013836816,0 
-93.11514973640442,16.737161183916754,0 
-93.1149834394455,16.73795744195552,0 
-93.1148412823677,16.73864838575043,0 
-93.114715218544,16.739349601240427,0 
-93.11457842588425,16.740058519771363,0 
-93.1153804063797,16.740171535525224,0 
-93.11693340539932,16.74041040951164,0 
-93.11681538820267,16.741024288597252,0 
-93.11668127775192,16.74175374903891,0 
-93.11653643846512,16.742452384589303,0 
-93.11638623476028,16.743197250552022,0 
-93.11621457338333,16.743895880807454,0 
-93.11607509851456,16.74473577481758,0 
-93.11594367027283,16.7457220676417,0 
-93.11586052179337,16.74586847004737,0 
-93.11574250459671,16.746703218455437,0 
-93.11655253171921,16.746847051657706,0 
-93.11655253171921,16.746847051657706,0 
-93.11735987663269,16.746983179409764,0 
-93.11723113059998,16.747781964824043,0 
</coordinates>
      </LineString>
    </Placemark>
    <Placemark>
      <name>Linea Roja</name>
      <styleUrl>#redLine</styleUrl>
      <LineString>
        <altitudeMode>relative</altitudeMode>
        <coordinates>
-93.11722308397293,16.74778453326048,0 
-93.11707824468613,16.748598725866106,0 
-93.11793923377991,16.748724578671105,0 
-93.11810284852982,16.747912955038373,0 
-93.11825305223465,16.747111601728164,0 
-93.11839789152145,16.746274286653584,0 
-93.11862587928772,16.745141593837673,0 
-93.11878949403763,16.744329954932685,0 
-93.11788827180862,16.74418868831414,0 
-93.11706483364105,16.744062832511176,0 
-93.11620652675629,16.743895880807454,0 
-93.11597853899002,16.743867627427743,0 
-93.11557620763779,16.74305598309329,0 
-93.11525166034698,16.74222635572106,0 
-93.11511486768723,16.741943819258573,0 
-93.11508536338806,16.741792276801462,0 
-93.11519265174866,16.74100374037533,0 
-93.1153079867363,16.74039756683181,0 
-93.11540454626083,16.740014854575776,0 
-93.11547964811325,16.739668101196635,0 
-93.11564058065414,16.73875112810815,0 
-93.11576128005981,16.7380678903884,0 
-93.11423778533936,16.737846993458604,0 
-93.11442285776138,16.73700193190967,0 
-93.11471790075302,16.735576363659423,0 
-93.11483860015869,16.735011270590366,0 
-93.11562716960907,16.73507291718843,0 
-93.11691462993622,16.735124289338238,0 
-93.11731696128845,16.735167955654703,0 
-93.1173250079155,16.735078054404028,0 
-93.1169119477272,16.735029250850197,0 
-93.11595976352692,16.734988153110955,0 
-93.11559498310089,16.73498044728386,0 
-93.11420559883118,16.734875134282337,0 
-93.11266601085663,16.734751840938298,0 
-93.11225831508636,16.734731292039875,0 
-93.11156094074249,16.734625978900645,0 
-93.11078578233719,16.73434599978405,0 
-93.11019569635391,16.73400694195454,0 
-93.10943931341171,16.733292863643495,0 
-93.10858905315399,16.732380997162146,0 
-93.10814917087555,16.73198028825808,0 
-93.10774683952332,16.731656638143615,0 
-93.10748934745789,16.73147426363065,0 
-93.1066632270813,16.73104529753898,0 
-93.10585588216782,16.730693390503408,0 
-93.10500293970108,16.730254147963475,0 
-93.1041955947876,16.729894533434504,0 
-93.10326486825943,16.729586291869687,0 
-93.10269892215729,16.72947070115438,0 
-93.10168772935867,16.729424464848627,0 
-93.10076236724854,16.729465563787628,0 
-93.09949368238449,16.729809767053872,0 
-93.09865683317184,16.730133420304405,0 
-93.09748470783234,16.730960531670114,0 
-93.09596121311188,16.732029092592736,0 
-93.09471130371094,16.732899862568214,0 
-93.0941104888916,16.73331341269703,0 
-93.09359282255173,16.733667883521754,0 
-93.09303760528564,16.734058314391717,0 
-93.09260308742523,16.734328019459756,0 
-93.09208273887634,16.734631116128305,0 
-93.09107154607773,16.73518593589975,0 
-93.08977335691452,16.735820380602984,0 
-93.08845907449722,16.736459960372095,0 
-93.08727085590363,16.73700193190967,0 
-93.08560788631439,16.73782387632324,0 
-93.08416217565536,16.73852252628671,0 
-93.08252334594727,16.739308504433097,0 
-93.08178842067719,16.739670669742523,0 
-93.08040171861649,16.74030253097423,0 
-93.07900428771973,16.740895862173954,0 
-93.07834982872009,16.74112446114732,0 
-93.07676464319229,16.741586795311097,0 
-93.07660639286041,16.741509739695065,0 
-93.0762791633606,16.741427547003607,0 
-93.07614237070084,16.74141213587,0 
-93.07513386011124,16.741584226791073,0 
-93.07506412267685,16.741576521230762,0 
-93.0749461054802,16.741522582299897,0 
-93.07453840970993,16.741237476268758,0 
-93.07443380355835,16.741227202169572,0 
-93.07434260845184,16.741232339219234,0 
-93.07362645864487,16.741458369267058,0 
-93.07369619607925,16.74074688741445,0 
-93.07372570037842,16.740377018542294,0 
-93.0741012096405,16.740420683654868,0 
-93.07489782571793,16.740454074616554,0 
-93.07497829198837,16.739557653691495,0 
-93.07575345039368,16.739624435911562,0 
-93.07586073875427,16.73869975693621,0 
-93.07625770568848,16.73874085387486,0 
-93.07652056217194,16.73878965647801,0 
-93.07657152414322,16.738391529613715,0 
-93.07668149471283,16.73760811625791,0 
-93.076710999012,16.737256221341433,0 
-93.07560592889786,16.737143203858114,0 
-93.07519555091858,16.737125223797754,0 
-93.0748039484024,16.737081557929848,0 
-93.07405024766922,16.737071283606536,0 
</coordinates>
      </LineString>
    </Placemark>
  </Document>
</kml>
