<?xml version="1.0" encoding="UTF-8"?>
<kml xmlns="http://earth.google.com/kml/2.1">
  <Document>
    <name>Ruta</name>
    <description>Ruta</description>
    <Style id="yellowLine">
      <LineStyle>
        <color>ffff0000</color>
        <width>4</width>
      </LineStyle>
    </Style>
    <Style id="redLine">
      <LineStyle>
        <color>ff0000ff</color>
        <width>4</width>
      </LineStyle>
    </Style>
    <Placemark>
      <name>Linea Azul</name>
      <styleUrl>#yellowLine</styleUrl>
      <LineString>
        <altitudeMode>relative</altitudeMode>
        <coordinates>
-93.11708360910416,16.74859358901515,0 
-93.11794459819794,16.748727147094833,0 
-93.11825037002563,16.74711930706451,0 
-93.11863124370575,16.74514929925375,0 
-93.11879485845566,16.744329954932685,0 
-93.11789631843567,16.744186119829195,0 
-93.11705946922302,16.744057695537858,0 
-93.11734110116959,16.74258594697627,0 
-93.11758249998093,16.741178400190904,0 
-93.11782389879227,16.739814508255925,0 
-93.11551183462143,16.739470323060686,0 
-93.11563521623611,16.73874599099158,0 
-93.11575055122375,16.738065321820912,0 
-93.11423778533936,16.737841856317658,0 
-93.1144255399704,16.737017343400048,0 
-93.11483591794968,16.735024113633276,0 
-93.11690658330917,16.73512172073108,0 
-93.11937421560287,16.735465913782235,0 
-93.12002062797546,16.735650853075327,0 
-93.12048465013504,16.735882026939276,0 
-93.12156826257706,16.736472803317362,0 
-93.12223076820374,16.73698395183599,0 
-93.12294691801071,16.737700584887268,0 
-93.12323123216629,16.738101281762475,0 
-93.1239527463913,16.73916466553761,0 
-93.12509536743164,16.741065385034414,0 
-93.12592685222626,16.7424215624867,0 
-93.12604755163193,16.742603926521202,0 
-93.12650084495544,16.743199819050314,0 
-93.12695145606995,16.743592798879035,0 
-93.1275549530983,16.74402430520792,0 
-93.12790095806122,16.744127044665937,0 
-93.12864392995834,16.744301701617346,0 
-93.13048392534256,16.74464844656094,0 
-93.13282281160355,16.74501573866446,0 
-93.13528507947922,16.745393303934573,0 
-93.13578128814697,16.74548576878458,0 
-93.1362533569336,16.745534569659533,0 
-93.13865661621094,16.745978913892948,0 
-93.13899993896484,16.746091926133737,0 
-93.13957393169403,16.746125316101143,0 
-93.14067095518112,16.746338498062673,0 
-93.14138978719711,16.746497742263735,0 
-93.14243584871292,16.747147559961796,0 
-93.14331293106079,16.747692069526746,0 
-93.14376622438431,16.747876996949305,0 
-93.14414441585541,16.74790268129934,0 
-93.14469426870346,16.747797375442158,0 
-93.14543455839157,16.747959186857216,0 
-93.14571350812912,16.74811329283896,0 
-93.14697951078415,16.749055905045655,0 
-93.14739525318146,16.749328157293952,0 
-93.1477090716362,16.749466851685842,0 
-93.1479075551033,16.74946171485831,0 
-93.14864784479141,16.74932302046268,0 
-93.14928621053696,16.74927678897501,0 
-93.1508794426918,16.749379525599014,0 
-93.15117716789246,16.74944630437491,0 
-93.15204083919525,16.749489967408,0 
-93.1527891755104,16.749705714012816,0 
-93.15459430217743,16.750612360762712,0 
-93.15527021884918,16.7509436838518,0 
-93.15578252077103,16.750951389033066,0 
-93.15696269273758,16.751313532200346,0 
-93.15709948539734,16.750825537700152,0 
-93.155956864357,16.750465962004775,0 
</coordinates>
      </LineString>
    </Placemark>
    <Placemark>
      <name>Linea Roja</name>
      <styleUrl>#redLine</styleUrl>
      <LineString>
        <altitudeMode>relative</altitudeMode>
        <coordinates>
-93.15596222877502,16.750468530405005,0 
-93.1557047367096,16.750419730794665,0 
-93.15472304821014,16.750558424391304,0 
-93.15458625555038,16.75060979236443,0 
-93.15281063318253,16.749713419244177,0 
-93.1520327925682,16.749495104234768,0 
-93.15147489309311,16.749459146444504,0 
-93.15113425254822,16.751352058028665,0 
-93.15094649791718,16.75240252594256,0 
-93.15091162919998,16.75272357243687,0 
-93.1508794426918,16.75303177656197,0 
-93.1508794426918,16.75303177656197,0 
-93.15084457397461,16.754495739340737,0 
-93.1508257985115,16.755091594650832,0 
-93.1507882475853,16.755399794941262,0 
-93.15056830644608,16.755410068275687,0 
-93.14836084842682,16.75524569485844,0 
-93.14798265695572,16.75524055818686,0 
-93.14648866653442,16.75513782472621,0 
-93.14531922340393,16.755040227887232,0 
-93.14419537782669,16.754996566127268,0 
-93.14274966716766,16.754870717469,0 
-93.1425404548645,16.75471918530064,0 
-93.1423768401146,16.754575358046186,0 
-93.14227491617203,16.754393005478025,0 
-93.14211666584015,16.75329374967592,0 
-93.14181089401245,16.751475340626865,0 
-93.14179211854935,16.751244185689735,0 
-93.14163655042648,16.75071766506285,0 
-93.14155608415604,16.750568697987045,0 
-93.1414246559143,16.75019114297969,0 
-93.14091503620148,16.747761417331258,0 
-93.14083456993103,16.74731964570014,0 
-93.14068704843521,16.746731471414463,0 
-93.1406682729721,16.746348771886108,0 
-93.14067631959915,16.745914702362604,0 
-93.1407567858696,16.745734909962486,0 
-93.1409364938736,16.745596212852114,0 
-93.14109742641449,16.745542275059695,0 
-93.14128518104553,16.745547411992963,0 
-93.14141392707825,16.74558593898807,0 
-93.1416043639183,16.74569124606827,0 
-93.14177066087723,16.74586590158508,0 
-93.14170628786087,16.74595066082226,0 
-93.1417465209961,16.746145863770472,0 
-93.14170897006989,16.746235759797745,0 
-93.14163386821747,16.746338498062673,0 
-93.14156949520111,16.746377024897715,0 
-93.14145147800446,16.74640014099501,0 
-93.14137637615204,16.7464848999944,0 
-93.14060658216476,16.746333361150743,0 
-93.13957124948502,16.746115042265636,0 
-93.13905626535416,16.746104768429582,0 
-93.13867270946503,16.745984050814435,0 
-93.13728600740433,16.7457220676417,0 
-93.13619434833527,16.74552429579216,0 
-93.13579469919205,16.745398440871874,0 
-93.13485324382782,16.745236627280704,0 
-93.13283622264862,16.74492584206124,0 
-93.13081383705139,16.744622761771964,0 
-93.1286546587944,16.744214373161668,0 
-93.1278070807457,16.74401146277177,0 
-93.1269782781601,16.7434643741876,0 
-93.12657058238983,16.74313303808377,0 
-93.1261333823204,16.742562830416002,0 
-93.12539845705032,16.74137103950766,0 
-93.12406003475189,16.739154391326633,0 
-93.12301129102707,16.737641507712578,0 
-93.12238097190857,16.73700193190967,0 
-93.12227100133896,16.736883777108723,0 
-93.1217747926712,16.736511332147955,0 
-93.12161386013031,16.736388039862625,0 
-93.12055170536041,16.735815243407398,0 
-93.12005013227463,16.735571226457257,0 
-93.11941176652908,16.735368306860735,0 
-93.11730891466141,16.73508576022718,0 
-93.1169119477272,16.735029250850197,0 
-93.11419755220413,16.734872565671807,0 
-93.11289131641388,16.734764683998687,0 
-93.11290204524994,16.734859722618694,0 
-93.11482518911362,16.735013839199024,0 
-93.11562716960907,16.73506777997269,0 
-93.11514437198639,16.73716888965566,0 
-93.11497807502747,16.73794973624851,0 
-93.11471253633499,16.739339327039424,0 
-93.11457574367523,16.740063656852527,0 
-93.11693072319031,16.74041811511911,0 
-93.11653643846512,16.742452384589303,0 
-93.11621993780136,16.743893312318576,0 
-93.11607509851456,16.744740911772602,0 
-93.1159383058548,16.745734909962486,0 
-93.11585783958435,16.74587617543402,0 
-93.11751544475555,16.746130453018683,0 
-93.11707556247711,16.748601294291525,0 
</coordinates>
      </LineString>
    </Placemark>
  </Document>
</kml>
