<?xml version="1.0" encoding="UTF-8"?>
<kml xmlns="http://earth.google.com/kml/2.1">
  <Document>
    <name>Ruta</name>
    <description>Ruta</description>
    <Style id="yellowLine">
      <LineStyle>
        <color>ffff0000</color>
        <width>4</width>
      </LineStyle>
    </Style>
    <Style id="redLine">
      <LineStyle>
        <color>ff0000ff</color>
        <width>4</width>
      </LineStyle>
    </Style>
    <Placemark>
      <name>Linea Azul</name>
      <styleUrl>#yellowLine</styleUrl>
      <LineString>
        <altitudeMode>relative</altitudeMode>
        <coordinates>
-93.0991181731224,16.791522545305526,0 
-93.09842616319656,16.79147889192424,0 
-93.09861928224564,16.790559600740185,0 
-93.09873193502426,16.79008711415424,0 
-93.09881240129471,16.789601787034897,0 
-93.09892505407333,16.789291074312533,0 
-93.09908598661423,16.788946978638332,0 
-93.09923082590103,16.788718437137018,0 
-93.09946149587631,16.788543820973132,0 
-93.09984505176544,16.78842056240785,0 
-93.10048609972,16.788266489088727,0 
-93.10079723596573,16.788217699178293,0 
-93.10107886791229,16.788153501908614,0 
-93.10142487287521,16.788120119319803,0 
-93.10159653425217,16.788073897264066,0 
-93.10193449258804,16.787924959452408,0 
-93.1028464436531,16.78731893542803,0 
-93.10309320688248,16.78666155124897,0 
-93.10335874557495,16.78608633822584,0 
-93.10393005609512,16.785056599847312,0 
-93.10400784015656,16.7848640047678,0 
-93.10404807329178,16.78449165372706,0 
-93.10395956039429,16.78401401615099,0 
-93.10394614934921,16.78347217852208,0 
-93.10402125120163,16.783225654729144,0 
-93.10414731502533,16.782938043233063,0 
-93.10473203659058,16.78180556873469,0 
-93.10495734214783,16.781302244568607,0 
-93.10504853725433,16.7812483169003,0 
-93.10556083917618,16.78013894432757,0 
-93.10590416193008,16.779340294785,0 
-93.10593903064728,16.77910146967174,0 
-93.10583174228668,16.778785603738353,0 
-93.10566544532776,16.77855705001199,0 
-93.10560911893845,16.77849284947761,0 
-93.10544282197952,16.778377288461062,0 
-93.10460865497589,16.77823604712317,0 
-93.10408025979996,16.7781179179236,0 
-93.10274720191956,16.77791504369212,0 
-93.10222148895264,16.77773784956592,0 
-93.101387321949,16.777185721881324,0 
-93.10127466917038,16.77704447965784,0 
-93.10121834278107,16.77694689406029,0 
-93.1012424826622,16.776772267076478,0 
-93.10129344463348,16.776610480168866,0 
-93.10189962387085,16.775323884144015,0 
-93.10220271348953,16.774746068724028,0 
-93.10240119695663,16.774332608612042,0 
-93.10256749391556,16.773785607206136,0 
-93.10289472341537,16.772447629997295,0 
-93.10302078723907,16.77157960903655,0 
-93.10307711362839,16.771101939006638,0 
-93.10311734676361,16.77064224467256,0 
-93.10312539339066,16.770508701976112,0 
-93.10314416885376,16.770405976761165,0 
-93.10321658849716,16.769953985156043,0 
-93.10355722904205,16.76910649800035,0 
-93.10375034809113,16.768726411624804,0 
-93.10396492481232,16.76825130258696,0 
-93.1040695309639,16.767963668430422,0 
-93.10427606105804,16.767208626699475,0 
-93.10533821582794,16.76801246354119,0 
-93.10553401708603,16.76811262188723,0 
-93.10741156339645,16.768615980981362,0 
-93.10765564441681,16.76813059902068,0 
-93.10802578926086,16.7673087854689,0 
-93.10977727174759,16.767694011013514,0 
-93.11075091362,16.767899464318223,0 
-93.11092793941498,16.76708535429546,0 
-93.11110496520996,16.766276377161198,0 
-93.1113463640213,16.76513096238089,0 
-93.1115448474884,16.76416017943084,0 
-93.11172187328339,16.763227914949923,0 
-93.1118693947792,16.762198052732312,0 
-93.11200618743896,16.761332553240134,0 
-93.113454580307,16.76164074342173,0 
-93.11461061239243,16.76187702222282,0 
-93.11551451683044,16.762036253423247,0 
-93.11818063259125,16.762467717941604,0 
-93.1198650598526,16.762701427480437,0 
-93.1216487288475,16.762947977891457,0 
-93.12329828739166,16.763251029000557,0 
-93.12340825796127,16.762573015681454,0 
-93.12342435121536,16.76228023645565,0 
-93.12454551458359,16.76243433084119,0 
-93.12526971101761,16.762549901548432,0 
-93.1263855099678,16.762688586304435,0 
-93.12895238399506,16.76309693527661,0 
-93.12940299510956,16.763081525897345,0 
-93.12964171171188,16.761889863453604,0 
-93.12990188598633,16.76067507918403,0 
-93.1315541267395,16.760939610034484,0 
-93.13317954540253,16.76117332145068,0 
-93.1349766254425,16.76147380713534,0 
-93.13808262348175,16.76243433084119,0 
-93.1392976641655,16.76286065799076,0 
-93.1405958533287,16.76323561963377,0 
-93.14120203256607,16.763510419820598,0 
-93.14128786325455,16.76359003475383,0 
-93.14128786325455,16.76359003475383,0 
-93.14411222934723,16.762100459514745,0 
-93.1450617313385,16.761607356176164,0 
-93.14609438180923,16.761111683302854,0 
-93.1463760137558,16.76092163222135,0 
-93.14645648002625,16.760906222665884,0 
-93.14655035734177,16.76083174313017,0 
-93.14652353525162,16.760633986980082,0 
-93.1464672088623,16.760556939073755,0 
-93.14643502235413,16.760379728770772,0 
-93.14636796712875,16.76023076925797,0 
-93.14620703458786,16.760004761498582,0 
-93.14545601606369,16.759491106501468,0 
-93.14498394727707,16.75908018150534,0 
-93.14376890659332,16.757909040397323,0 
-93.14288645982742,16.756820078162928,0 
-93.14266920089722,16.756350076028014,0 
-93.14251095056534,16.7554331832761,0 
-93.14248949289322,16.755350996595194,0 
-93.14250558614731,16.755237989851015,0 
-93.14255386590958,16.755040227887232,0 
-93.14382791519165,16.755114709689934,0 
-93.14421683549881,16.7551403930634,0 
-93.14537554979324,16.75521744316305,0 
-93.14647525548935,16.755279083220305,0 
-93.14720749855042,16.755340723257596,0 
-93.14846009016037,16.75539208994008,0 
-93.15073192119598,16.755566736556833,0 
-93.15091162919998,16.755564168225405,0 
-93.15129518508911,16.75561039818599,0 
-93.1519764661789,16.75564378648387,0 
-93.15494298934937,16.755841547820463,0 
-93.1551468372345,16.755862094441063,0 
-93.15642088651657,16.755918597636228,0 
-93.15642088651657,16.755918597636228,0 
-93.15701633691788,16.756000784071993,0 
-93.16074728965759,16.756879149387398,0 
-93.16106647253036,16.756915105775914,0 
-93.16352874040604,16.757467292317653,0 
-93.16574424505234,16.757960406386534,0 
-93.16612511873245,16.758034887046282,0 
-93.16762179136276,16.758361060626534,0 
-93.16799730062485,16.75843810942213,0 
-93.16882610321045,16.758671823911214,0 
-93.16930890083313,16.758761714022885,0 
-93.17116498947144,16.75916750314127,0 
-93.171806037426,16.759326736609523,0 
-93.17214399576187,16.759432036087905,0 
-93.17327857017517,16.759658044527647,0 
-93.17460089921951,16.759976510509784,0 
-93.17569524049759,16.760179403881676,0 
-93.17563354969025,16.759994488412225,0 
-93.17519098520279,16.759878916152545,0 
</coordinates>
      </LineString>
    </Placemark>
    <Placemark>
      <name>Linea Roja</name>
      <styleUrl>#redLine</styleUrl>
      <LineString>
        <altitudeMode>relative</altitudeMode>
        <coordinates>
-93.17519098520279,16.759878916152545,0 
-93.17468136548996,16.759750502448345,0 
-93.17332416772842,16.759521925840414,0 
-93.17023694515228,16.758825921219508,0 
-93.16901385784149,16.758540841101034,0 
-93.16818237304688,16.75835335574526,0 
-93.16763520240784,16.758248055669902,0 
-93.16614389419556,16.757883357397507,0 
-93.16581130027771,16.757821718183823,0 
-93.16412419080734,16.75744417756432,0 
-93.16202133893967,16.756961335408302,0 
-93.1610718369484,16.756771280181074,0 
-93.15970659255981,16.75646821875039,0 
-93.1571638584137,16.755895482694772,0 
-93.1569492816925,16.755849252803436,0 
-93.15644234418869,16.755774771288234,0 
-93.15520316362381,16.755674606445947,0 
-93.1549483537674,16.75568487976553,0 
-93.15295547246933,16.755556463230878,0 
-93.15199255943298,16.75550509659276,0 
-93.15079361200333,16.75539722660758,0 
-93.15057635307312,16.755412636609204,0 
-93.14842522144318,16.755248263194172,0 
-93.1479799747467,16.75524569485844,0 
-93.14649134874344,16.755135256388993,0 
-93.14532190561295,16.755042796225748,0 
-93.14420342445374,16.754996566127268,0 
-93.14361065626144,16.754924652618453,0 
-93.14274162054062,16.754860444105464,0 
-93.14242511987686,16.754839897376737,0 
-93.14242511987686,16.754839897376737,0 
-93.14218640327454,16.754832192352886,0 
-93.14222931861877,16.755017112839088,0 
-93.14222931861877,16.755017112839088,0 
-93.1423231959343,16.755250831529874,0 
-93.14241707324982,16.755430614942853,0 
-93.14257800579071,16.756378327555243,0 
-93.14281672239304,16.756884286014746,0 
-93.14370185136795,16.757970679582723,0 
-93.14435094594955,16.758592206919694,0 
-93.14493298530579,16.75915466172673,0 
-93.1453862786293,16.759547608619037,0 
-93.1460890173912,16.760068968275704,0 
-93.14623653888702,16.760305249028956,0 
-93.14627677202225,16.760436230624432,0 
-93.14629286527634,16.76058775824003,0 
-93.1462150812149,16.76078808269913,0 
-93.14595490694046,16.760990975205516,0 
-93.14480423927307,16.761643311671136,0 
-93.14306080341339,16.76254476507404,0 
-93.14156413078308,16.763333212268947,0 
-93.14120471477509,16.763512988044763,0 
-93.14058512449265,16.763238187861656,0 
-93.13930571079254,16.76286065799076,0 
-93.13806653022766,16.762436899079887,0 
-93.13687294721603,16.76205166288718,0 
-93.13502222299576,16.761476375387012,0 
-93.13370257616043,16.761255505616724,0 
-93.1330668926239,16.761152775403634,0 
-93.13183039426804,16.76097556565566,0 
-93.12991261482239,16.76068792049594,0 
-93.12972486019135,16.76150976265555,0 
-93.12951564788818,16.76252421917511,0 
-93.12940567731857,16.76307382120725,0 
-93.12895238399506,16.7630840941273,0 
-93.12622725963593,16.76265263100703,0 
-93.12526971101761,16.762549901548432,0 
-93.12454551458359,16.762426626124874,0 
-93.12342166900635,16.76228023645565,0 
-93.12340825796127,16.762565310970746,0 
-93.12329560518265,16.763253597228235,0 
-93.12165141105652,16.762947977891457,0 
-93.1198650598526,16.762711700420603,0 
-93.1181725859642,16.762467717941604,0 
-93.11633795499802,16.76218007503811,0 
-93.11551183462143,16.76204909464328,0 
-93.11344385147095,16.761633038673274,0 
-93.11104327440262,16.761152775403634,0 
-93.11089307069778,16.7619669108201,0 
-93.11072140932083,16.76297879667037,0 
-93.1103378534317,16.764869005565032,0 
-93.1101045012474,16.76606064934421,0 
-93.10993552207947,16.76686449103841,0 
-93.10977190732956,16.76770685185156,0 
-93.10956001281738,16.768867660028757,0 
-93.1094366312027,16.76964580844557,0 
-93.10932666063309,16.770218503100825,0 
-93.1084817647934,16.77023648003517,0 
-93.1084817647934,16.77023648003517,0 
-93.1081947684288,16.77024418443507,0 
-93.10712724924088,16.770300683358244,0 
-93.10571104288101,16.770372591054354,0 
-93.10506463050842,16.77041881741606,0 
-93.10321122407913,16.770521542624078,0 
-93.10312807559967,16.770516406364997,0 
-93.10303151607513,16.77051897449455,0 
-93.10299664735794,16.77064481280042,0 
-93.10296714305878,16.77113018834287,0 
-93.10280352830887,16.772424517064483,0 
-93.10238778591156,16.774104049530607,0 
-93.10231804847717,16.774294087437795,0 
-93.10177087783813,16.77533929253118,0 
-93.10124516487122,16.776507758251277,0 
-93.1011351943016,16.776836468192123,0 
-93.10113251209259,16.77692121363156,0 
-93.10116469860077,16.7770470476992,0 
-93.10128003358841,16.77720883423517,0 
-93.1015482544899,16.777419413329653,0 
-93.10208737850189,16.777802050355366,0 
-93.10222685337067,16.77786368309283,0 
-93.10268551111221,16.777992084565017,0 
-93.10490638017654,16.77838756055426,0 
-93.10512095689774,16.778413240784854,0 
-93.10537844896317,16.77850055354288,0 
-93.10559570789337,16.778652066763073,0 
-93.10571104288101,16.77879073977399,0 
-93.1057807803154,16.779003885130482,0 
-93.10581028461456,16.779288934570925,0 
-93.10577005147934,16.779471263268068,0 
-93.1056359410286,16.77972035993771,0 
-93.10545355081558,16.780154352324338,0 
-93.10503244400024,16.78100949418523,0 
-93.10495734214783,16.78122263705286,0 
-93.10495465993881,16.781320220454642,0 
-93.10495465993881,16.781320220454642,0 
-93.10472935438156,16.78180556873469,0 
-93.10413926839828,16.782948315079704,0 
-93.10402929782867,16.783215382897502,0 
-93.10394614934921,16.78347474647656,0 
-93.10395956039429,16.78401401615099,0 
-93.10404270887375,16.78449678960844,0 
-93.10401320457458,16.784840893345145,0 
-93.10393005609512,16.785061735713427,0 
-93.10370206832886,16.785449493203988,0 
-93.10335338115692,16.78608890614499,0 
-93.10308516025543,16.786679526627868,0 
-93.10285717248917,16.78730866381773,0 
-93.10193985700607,16.787922391558073,0 
-93.1014221906662,16.788120119319803,0 
-93.10108155012131,16.788150934017374,0 
-93.10066044330597,16.788238242300004,0 
-93.10051292181015,16.78825108174994,0 
-93.09947490692139,16.788541253087175,0 
-93.099225461483,16.788723572904118,0 
-93.09908598661423,16.788946978638332,0 
-93.09892505407333,16.78929364218837,0 
-93.09881240129471,16.78960949064966,0 
-93.09872388839722,16.790092249884317,0 
-93.09851199388504,16.79102181474099,0 
-93.09842348098755,16.79147889192424,0 
-93.09912353754044,16.791517409614126,0 
</coordinates>
      </LineString>
    </Placemark>
  </Document>
</kml>
