<?xml version="1.0" encoding="UTF-8"?>
<kml xmlns="http://earth.google.com/kml/2.1">
  <Document>
    <name>Ruta</name>
    <description>Ruta</description>
    <Style id="yellowLine">
      <LineStyle>
        <color>ffff0000</color>
        <width>4</width>
      </LineStyle>
    </Style>
    <Style id="redLine">
      <LineStyle>
        <color>ff0000ff</color>
        <width>4</width>
      </LineStyle>
    </Style>
    <Placemark>
      <name>Linea Azul</name>
      <styleUrl>#yellowLine</styleUrl>
      <LineString>
        <altitudeMode>relative</altitudeMode>
        <coordinates>
-93.11608850955963,16.74930247313621,0 
-93.11624139547348,16.74850626252779,0 
-93.11640232801437,16.74765611139596,0 
-93.11654180288315,16.746849620106765,0 
-93.11668664216995,16.74600459849901,0 
-93.11585783958435,16.74587103850962,0 
-93.11511754989624,16.745742615354544,0 
-93.11428874731064,16.74562189750981,0 
-93.11374425888062,16.745547411992963,0 
-93.1127679347992,16.745431830960875,0 
-93.11228513717651,16.745339366084675,0 
-93.11182647943497,16.745254606575404,0 
-93.11153411865234,16.745141593837673,0 
-93.11045050621033,16.744946389860004,0 
-93.10968339443207,16.744712658518246,0 
-93.1089323759079,16.744499474736607,0 
-93.10834228992462,16.744335091898648,0 
-93.10762614011765,16.744129613151674,0 
-93.10757786035538,16.74416300346314,0 
-93.10751885175705,16.74410906526478,0 
-93.10667127370834,16.743916428717363,0 
-93.1065559387207,16.74399091487213,0 
-93.10643523931503,16.744615056334588,0 
-93.10633331537247,16.745115909115206,0 
-93.10620188713074,16.745840216960293,0 
-93.10604363679886,16.74674945056802,0 
-93.10585856437683,16.747751143584043,0 
-93.10589879751205,16.747812786059054,0 
-93.10583978891373,16.747856449466774,0 
-93.10569494962692,16.74868605231106,0 
-93.10557693243027,16.74932302046268,0 
-93.10551792383194,16.74966461944027,0 
-93.10555011034012,16.749728829705962,0 
-93.10549646615982,16.749767355854996,0 
-93.1054213643074,16.750214258613898,0 
-93.10533553361893,16.75075619101176,0 
-93.10537844896317,16.750807558931506,0 
-93.10531675815582,16.750856358442434,0 
-93.10522824525833,16.751488182559598,0 
-93.10516923666,16.751888850425335,0 
-93.10519874095917,16.75195049156058,0 
-93.10515582561493,16.751991585639665,0 
-93.10503780841827,16.75261313250392,0 
-93.10497879981995,16.752916200073546,0 
-93.10501098632812,16.752977840876106,0 
-93.10495734214783,16.753018934733394,0 
-93.10487687587738,16.75345555641911,0 
-93.10478836297989,16.753958954295996,0 
-93.10471057891846,16.75446235084144,0 
-93.10474276542664,16.754513717761,0 
-93.10468912124634,16.754559947976766,0 
-93.10458987951279,16.755199464809248,0 
-93.10414999723434,16.755453729940772,0 
-93.10339629650116,16.75535356492952,0 
-93.10238242149353,16.75523542151515,0 
-93.10130417346954,16.755065911270762,0 
-93.1011888384819,16.75505820625607,0 
-93.10108423233032,16.755713131391534,0 
-93.101025223732,16.756052150576327,0 
-93.10095280408859,16.756645432696416,0 
-93.10090452432632,16.75703067983584,0 
-93.10089647769928,16.75723357634905,0 
-93.10015350580215,16.757564887911887,0 
-93.09970021247864,16.757842264590614,0 
-93.09908598661423,16.75804772853638,0 
-93.09831082820892,16.75823007760243,0 
-93.09732377529144,16.75844067771478,0 
-93.09640109539032,16.75861532153358,0 
-93.09562861919403,16.75876685059942,0 
-93.09514850378036,16.758849035804985,0 
-93.09474617242813,16.75888499182126,0 
-93.09421241283417,16.758571660593905,0 
-93.09377789497375,16.758350787451437,0 
-93.09332191944122,16.758104231082587,0 
-93.09311270713806,16.75844067771478,0 
-93.09289813041687,16.758761714022885,0 
-93.09271305799484,16.759041657241447,0 
-93.09255748987198,16.7594114898528,0 
-93.09244751930237,16.75983268722901,0 
-93.09239119291306,16.76002530766962,0 
-93.09243142604828,16.76011519714182,0 
-93.09320390224457,16.76042595756138,0 
-93.09387177228928,16.760685352233633,0 
-93.09448331594467,16.76094217829337,0 
-93.09507608413696,16.76117332145068,0 
-93.09517800807953,16.761157911915607,0 
-93.09522897005081,16.761234959578545,0 
-93.09553742408752,16.76139162306362,0 
-93.09591293334961,16.761476375387012,0 
-93.09630185365677,16.76152774041311,0 
-93.09669882059097,16.761517467409004,0 
-93.09698849916458,16.76148921664483,0 
-93.09772610664368,16.76149435314773,0 
-93.09833765029907,16.761548286419675,0 
-93.0987399816513,16.761558559422117,0 
-93.09905648231506,16.76143528335614,0 
-93.09927105903625,16.761294029432335,0 
-93.09953659772873,16.761086000735375,0 
-93.09989869594574,16.760811197046227,0 
-93.10020446777344,16.76058775824003,0 
-93.10083210468292,16.760246178868154,0 
-93.10125857591629,16.760022739398355,0 
-93.10156971216202,16.75986607478603,0 
-93.10160458087921,16.759794163117494,0 
-93.10160994529724,16.759920008519575,0 
-93.10184597969055,16.760456776748864,0 
-93.10195326805115,16.76059546303081,0 
-93.10206860303879,16.760657101345895,0 
-93.10257822275162,16.760775241393972,0 
-93.10305565595627,16.76088567658997,0 
-93.103908598423,16.761060318164414,0 
-93.10440480709076,16.76117332145068,0 
-93.10482323169708,16.761268346889448,0 
-93.10497879981995,16.76121441353814,0 
-93.10530871152878,16.761006384754126,0 
-93.1057459115982,16.760746990519596,0 
-93.10623943805695,16.760500437255946,0 
-93.10667932033539,16.760274429816906,0 
-93.10719162225723,16.76004585383844,0 
-93.10769587755203,16.759812141037177,0 
-93.10809016227722,16.75962979348736,0 
-93.1086266040802,16.759349851134164,0 
-93.10892432928085,16.759188049402724,0 
-93.10929447412491,16.75892351611687,0 
-93.10954928398132,16.758700075093735,0 
-93.10970216989517,16.758468928931627,0 
-93.10982823371887,16.758278875210188,0 
-93.10998111963272,16.75810936767686,0 
-93.11038345098495,16.757914176996874,0 
-93.11074018478394,16.75776264725198,0 
-93.11113983392715,16.75772669102361,0 
-93.11177015304565,16.75776521555374,0 
-93.1127679347992,16.75780887667846,0 
-93.11362087726593,16.757844832891294,0 
-93.114353120327,16.757893630597856,0 
-93.1153267621994,16.7579937942721,0 
-93.11617970466614,16.75818641657436,0 
-93.11708360910416,16.758399585028233,0 
-93.11795800924301,16.7585665240121,0 
-93.1187304854393,16.758710348249988,0 
-93.11954587697983,16.758864445527088,0 
-93.12041223049164,16.75901083782472,0 
-93.12124639749527,16.759195754250207,0 
-93.12211811542511,16.759372965655977,0 
-93.12306225299835,16.759498811336677,0 
-93.12388569116592,16.75964263486983,0 
-93.12504440546036,16.759842960324097,0 
-93.1256452202797,16.759981647053507,0 
-93.12633454799652,16.76011519714182,0 
-93.12685489654541,16.76021022310912,0 
-93.12779635190964,16.760351477837645,0 
-93.12858492136002,16.76047475460594,0 
-93.12889337539673,16.760520983373446,0 
-93.12991261482239,16.76067764744649,0 
-93.13058584928513,16.760793219220957,0 
-93.13096404075623,16.760844584431506,0 
-93.1311222910881,16.760875403551182,0 
-93.13184648752213,16.760983270430753,0 
-93.13305616378784,16.761150207147587,0 
-93.13372671604156,16.76126321038047,0 
-93.13422560691833,16.76134282625423,0 
-93.13501954078674,16.761478943638647,0 
-93.13602536916733,16.761771724097716,0 
-93.13686490058899,16.762038821667325,0 
-93.13719481229782,16.76215182437234,0 
-93.13809871673584,16.762447172034353,0 
-93.1392976641655,16.76285295329172,0 
-93.14024180173874,16.763132890490027,0 
-93.1406119465828,16.76324846077284,0 
-93.14119935035706,16.763512988044763,0 
-93.14129590988159,16.763574625414513,0 
-93.14180552959442,16.763328075815714,0 
-93.14232051372528,16.76304813890466,0 
-93.14267992973328,16.76285808975779,0 
-93.14319759607315,16.7625884251019,0 
-93.14409345388412,16.76211586897347,0 
-93.14502686262131,16.761627902174126,0 
-93.14575374126434,16.761273483398305,0 
-93.14610242843628,16.761106546789634,0 
-93.14637869596481,16.760924200480467,0 
-93.14640551805496,16.760736717473314,0 
-93.14646452665329,16.76055180254555,0 
-93.14643502235413,16.760382297037204,0 
-93.14638674259186,16.76024874713639,0 
-93.14622312784195,16.760022739398355,0 
-93.14595758914948,16.75982498240734,0 
-93.14544528722763,16.75947312855146,0 
-93.14499467611313,16.75908018150534,0 
-93.14452797174454,16.7586307312746,0 
-93.14410418272018,16.75822750930694,0 
-93.14377427101135,16.757914176996874,0 
-93.14337462186813,16.757415926195318,0 
-93.14302057027817,16.75699472346917,0 
-93.14289450645447,16.756830351420682,0 
-93.14266383647919,16.756355212669636,0 
-93.14257264137268,16.755854389458584,0 
-93.14250558614731,16.755420341609543,0 
-93.1424868106842,16.755330449919427,0 
-93.1425029039383,16.755191759799978,0 
-93.14254850149155,16.75505050124106,0 
-93.1423419713974,16.75492722095852,0 
-93.14259946346283,16.755045364564225,0 
-93.14332365989685,16.755091594650832,0 
-93.14382523298264,16.755107004677214,0 
-93.14417660236359,16.75513782472621,0 
-93.14439386129379,16.755150666411836,0 
-93.14509928226471,16.755207169818227,0 
-93.14564913511276,16.75523542151515,0 
-93.14646452665329,16.755266241543353,0 
-93.14721554517746,16.75534585992647,0 
-93.14796656370163,16.75535870159804,0 
-93.14846813678741,16.75539465827385,0 
-93.1493130326271,16.755466571605076,0 
-93.15016597509384,16.7555153699215,0 
-93.15074801445007,16.755571873219615,0 
-93.15094381570816,16.755571873219615,0 
-93.15141052007675,16.75561039818599,0 
-93.15197378396988,16.755641218153475,0 
-93.15310299396515,16.755713131391534,0 
-93.15431535243988,16.755800454572633,0 
-93.1549483537674,16.755841547820463,0 
-93.15518707036972,16.755862094441063,0 
-93.15641820430756,16.755923734289507,0 
-93.15686881542206,16.755985374117987,0 
-93.15757155418396,16.756129200306816,0 
-93.15839499235153,16.756316687854046,0 
-93.15925866365433,16.756514448491345,0 
-93.1596502661705,16.756609476256948,0 
-93.15979242324829,16.756496470260085,0 
-93.1598487496376,16.75640144243805,0 
-93.16016793251038,16.756041877276566,0 
-93.16039055585861,16.755795317916036,0 
-93.16069632768631,16.755253399865538,0 
-93.1607848405838,16.75511727802743,0 
-93.16099673509598,16.754968314394905,0 
-93.1611630320549,16.75489896921585,0 
-93.16123813390732,16.75424917797708,0 
-93.16130250692368,16.753640478242875,0 
-93.16137492656708,16.752895653134917,0 
-93.16143661737442,16.75220989778604,0 
-93.16073387861252,16.75213284646885,0 
-93.16009551286697,16.752068637014045,0 
-93.15988630056381,16.75204808998393,0 
-93.15915942192078,16.75194021803943,0 
-93.15865784883499,16.751788683537967,0 
-93.1581723690033,16.751685948214107,0 
-93.15785318613052,16.751593486375235,0 
-93.15696001052856,16.751318668977905,0 
-93.15709948539734,16.750825537700152,0 
-93.15670251846313,16.75069711788691,0 
</coordinates>
      </LineString>
    </Placemark>
    <Placemark>
      <name>Linea Roja</name>
      <styleUrl>#redLine</styleUrl>
      <LineString>
        <altitudeMode>relative</altitudeMode>
        <coordinates>
-93.15670520067215,16.75069711788691,0 
-93.155956864357,16.750468530405005,0 
-93.15571278333664,16.750419730794665,0 
-93.15474182367325,16.750560992790298,0 
-93.15459161996841,16.75060979236443,0 
-93.15376818180084,16.75016802734266,0 
-93.1528052687645,16.749705714012816,0 
-93.15206229686737,16.7494976726481,0 
-93.1514722108841,16.74946171485831,0 
-93.15119862556458,16.751010462078998,0 
-93.15094649791718,16.752392252445798,0 
-93.1508794426918,16.753042050024217,0 
-93.1508418917656,16.754428962336274,0 
-93.15081775188446,16.755076184623206,0 
-93.15079629421234,16.75539465827385,0 
-93.15051198005676,16.755399794941262,0 
-93.14982265233994,16.755350996595194,0 
-93.14908504486084,16.755294493231496,0 
-93.14841717481613,16.755250831529874,0 
-93.14799070358276,16.755237989851015,0 
-93.14755350351334,16.755212306490716,0 
-93.14648866653442,16.75513782472621,0 
-93.14531922340393,16.75503765954869,0 
-93.14416319131851,16.75499913446638,0 
-93.14358651638031,16.754922084278334,0 
-93.14218640327454,16.754842465717935,0 
-93.1422346830368,16.755017112839088,0 
-93.14238756895065,16.75537924827075,0 
-93.14249217510223,16.755957122532415,0 
-93.1425753235817,16.756383464196116,0 
-93.14281940460205,16.756886854328364,0 
-93.1428650021553,16.756948493844884,0 
-93.14369916915894,16.757968111283734,0 
-93.14487665891647,16.759111000910817,0 
-93.14526826143265,16.75944744576278,0 
-93.14602464437485,16.760020171127064,0 
-93.14610779285431,16.76010492406144,0 
-93.14625531435013,16.760382297037204,0 
-93.14628481864929,16.76059803129434,0 
-93.14619898796082,16.760811197046227,0 
-93.14590662717819,16.761008953012094,0 
-93.14519315958023,16.761425010347043,0 
-93.14431339502335,16.761892431699664,0 
-93.14285695552826,16.76266290394984,0 
-93.14120471477509,16.763512988044763,0 
-93.14083993434906,16.763343485175003,0 
-93.1405770778656,16.76323561963377,0 
-93.13991189002991,16.763027593060105,0 
-93.13930571079254,16.762850385058645,0 
-93.13685953617096,16.76204909464328,0 
-93.13510000705719,16.761491784896297,0 
-93.13421487808228,16.76134539450767,0 
-93.13305348157883,16.761142502379272,0 
-93.13177138566971,16.760970429138766,0 
-93.12989920377731,16.76067507918403,0 
-93.12879413366318,16.760500437255946,0 
-93.12684148550034,16.760212791377842,0 
-93.12563985586166,16.75998421532532,0 
-93.12504440546036,16.759848096871448,0 
-93.12304884195328,16.7595039478933,0 
-93.1221154332161,16.75937039737592,0 
-93.12039881944656,16.759026247533708,0 
-93.1187653541565,16.758712916538965,0 
-93.11707019805908,16.75840472161454,0 
-93.11531335115433,16.757988657674698,0 
-93.1127518415451,16.757803740076085,0 
-93.11175674200058,16.757767783855474,0 
-93.11101913452148,16.757724122721328,0 
-93.11101913452148,16.757724122721328,0 
-93.11072677373886,16.75776264725198,0 
-93.10995697975159,16.758117072568016,0 
-93.10976654291153,16.758140187239597,0 
-93.10949563980103,16.758545977683525,0 
-93.1092756986618,16.75880280663122,0 
-93.10881435871124,16.75911870576143,0 
-93.10806602239609,16.759519357562354,0 
-93.10657471418381,16.76018454041993,0 
-93.10582101345062,16.76056978039364,0 
-93.10487151145935,16.761165616683297,0 
-93.10306638479233,16.76077267313285,0 
-93.1021249294281,16.760518415108887,0 
-93.10193717479706,16.760415684497772,0 
-93.10167700052261,16.75982498240734,0 
-93.10163676738739,16.75971968314644,0 
-93.10163676738739,16.75971968314644,0 
-93.10141682624817,16.759796731391837,0 
-93.10095280408859,16.76003558075431,0 
-93.1001427769661,16.7604773228711,0 
-93.09909403324127,16.761258073871335,0 
-93.09882313013077,16.76139932782184,0 
-93.09865683317184,16.761445556364688,0 
-93.09770733118057,16.76136850878705,0 
-93.09694558382034,16.761373645293194,0 
-93.09639304876328,16.761409600832337,0 
-93.09597194194794,16.761373645293194,0 
-93.09559375047684,16.761276051652686,0 
-93.09524774551392,16.761116819815943,0 
-93.09529334306717,16.76094217829337,0 
-93.0957680940628,16.760050990380297,0 
-93.09611678123474,16.75937553393601,0 
-93.09636622667313,16.758748872580966,0 
-93.09639036655426,16.75861275324328,0 
-93.09726476669312,16.75846379234705,0 
-93.09880703687668,16.75810936767686,0 
-93.09907793998718,16.7580502968343,0 
-93.0996921658516,16.757839696289885,0 
-93.10016959905624,16.75755975130291,0 
-93.10098230838776,16.75719505171128,0 
-93.10213834047318,16.75658122476403,0 
-93.10255408287048,16.754226062832856,0 
-93.10258090496063,16.75412589717547,0 
-93.10284376144409,16.752661931551962,0 
-93.10319513082504,16.750553287593235,0 
-93.10322195291519,16.750417162393774,0 
-93.10326755046844,16.74990604992692,0 
-93.10339629650116,16.749346136202302,0 
-93.10359477996826,16.74790268129934,0 
-93.10368329286575,16.747540531643832,0 
-93.10383081436157,16.746721197611667,0 
-93.10404807329178,16.745267448927713,0 
-93.10432970523834,16.74365187420801,0 
-93.10664713382721,16.744006325797066,0 
-93.10761541128159,16.74422207861525,0 
-93.11044245958328,16.74503628645353,0 
-93.1117594242096,16.745298270569744,0 
-93.11233341693878,16.74538046159075,0 
-93.11375230550766,16.74555768585909,0 
-93.11585247516632,16.74587103850962,0 
-93.11573445796967,16.746708355357395,0 
-93.11540991067886,16.74837013586464,0 
-93.11623334884644,16.748503694101085,0 
-93.11707556247711,16.748603862716905,0 
-93.11691999435425,16.749433462304435,0 
-93.11611533164978,16.749310178383897,0 
</coordinates>
      </LineString>
    </Placemark>
  </Document>
</kml>
