<?xml version="1.0" encoding="UTF-8"?>
<kml xmlns="http://earth.google.com/kml/2.1">
  <Document>
    <name>Ruta</name>
    <description>Ruta</description>
    <Style id="yellowLine">
      <LineStyle>
        <color>ffff0000</color>
        <width>4</width>
      </LineStyle>
    </Style>
    <Style id="redLine">
      <LineStyle>
        <color>ff0000ff</color>
        <width>4</width>
      </LineStyle>
    </Style>
    <Placemark>
      <name>Linea Azul</name>
      <styleUrl>#yellowLine</styleUrl>
      <LineString>
        <altitudeMode>relative</altitudeMode>
        <coordinates>
-93.11423778533936,16.750733075443353,0 
-93.11334997415543,16.750620065957385,0 
-93.11354845762253,16.749754513806188,0 
-93.11442285776138,16.749862386989246,0 
-93.1151282787323,16.74996255489022,0 
-93.11677515506744,16.750247647858362,0 
-93.11762273311615,16.750368362770256,0 
-93.11777830123901,16.74957215661961,0 
-93.11793386936188,16.7487348523658,0 
-93.11809480190277,16.74792836564592,0 
-93.11825305223465,16.74712187550989,0 
-93.11839789152145,16.746276855110377,0 
-93.12007695436478,16.746559385144533,0 
-93.12176674604416,16.74684191475949,0 
-93.12337338924408,16.74710646483708,0 
-93.12525629997253,16.74743522558636,0 
-93.12540382146835,16.747650974519573,0 
-93.12545478343964,16.74776912264131,0 
-93.12546819448471,16.747912955038373,0 
-93.12544137239456,16.748079903220166,0 
-93.12534481287003,16.74837270429315,0 
-93.12529653310776,16.74859358901515,0 
-93.12532871961594,16.74876310502336,0 
-93.12541991472244,16.748924915617657,0 
-93.12558621168137,16.749058473464906,0 
-93.1258276104927,16.74910727342419,0 
-93.12662959098816,16.748899231405517,0 
-93.1268897652626,16.748948031405615,0 
-93.12721699476242,16.749094431330853,0 
-93.12735915184021,16.74924339956027,0 
-93.12745034694672,16.749459146444504,0 
-93.12762469053268,16.749739103346464,0 
-93.1278258562088,16.749867523805968,0 
-93.12802165746689,16.74994714444734,0 
-93.12826037406921,16.749954849668935,0 
-93.1289067864418,16.749921460373123,0 
-93.13000917434692,16.749834134494826,0 
-93.13137173652649,16.749744240166514,0 
-93.13312858343124,16.749646640561984,0 
-93.13456892967224,16.749561882970102,0 
-93.13486397266388,16.74955417773261,0 
-93.13578397035599,16.749674893084244,0 
-93.13639551401138,16.749775061083866,0 
-93.1384339928627,16.750060154332786,0 
-93.13948541879654,16.75023223743856,0 
-93.139927983284,16.750337541948973,0 
-93.14026594161987,16.75047623560549,0 
-93.14051806926727,16.750602087169337,0 
-93.14095258712769,16.750779306577357,0 
-93.14154535531998,16.75072280185649,0 
-93.14164996147156,16.751244185689735,0 
-93.14165532588959,16.751513866422435,0 
-93.1418189406395,16.752433346429505,0 
-93.14191281795502,16.753103690786013,0 
-93.14197719097137,16.753414462656092,0 
-93.14214885234833,16.754382732088704,0 
-93.14218908548355,16.754837329035485,0 
-93.14223200082779,16.75501454450024,0 
-93.1434953212738,16.755101868001887,0 
-93.14384132623672,16.755114709689934,0 
-93.14415246248245,16.755135256388993,0 
-93.14476937055588,16.755173781443748,0 
-93.14514756202698,16.755199464809248,0 
-93.14590126276016,16.755250831529874,0 
-93.14646989107132,16.755273946549625,0 
-93.14721286296844,16.755340723257596,0 
-93.14796388149261,16.75536640660057,0 
-93.14846009016037,16.75539465827385,0 
-93.1490609049797,16.755435751609298,0 
-93.15013110637665,16.75552307491768,0 
-93.150734603405,16.755571873219615,0 
-93.15093040466309,16.755571873219615,0 
-93.15128713846207,16.755612966516807,0 
-93.15198451280594,16.755638649823037,0 
-93.15300643444061,16.75571569972095,0 
-93.15443873405457,16.755797886244345,0 
-93.15495371818542,16.75583127450934,0 
-93.15514951944351,16.75585952611359,0 
-93.15579056739807,16.75589805102175,0 
-93.15643429756165,16.755926302616086,0 
-93.15701365470886,16.756011057373964,0 
-93.159019947052,16.75646051379246,0 
-93.1596690416336,16.75661974952606,0 
-93.15972000360489,16.75689455926901,0 
-93.15973341464996,16.75711800241234,0 
-93.15969586372375,16.75743647264591,0 
-93.15960735082626,16.757631663815932,0 
-93.159199655056,16.75902367924896,0 
-93.15906286239624,16.759478265108786,0 
-93.15886437892914,16.75998421532532,0 
-93.15846472978592,16.760962724363175,0 
-93.15817505121231,16.761684403657075,0 
-93.1579738855362,16.762177506795926,0 
-93.15788000822067,16.76257558391828,0 
-93.15771102905273,16.762976228438987,0 
-93.15761983394623,16.763107208195414,0 
-93.15751522779465,16.763163709238977,0 
-93.15746426582336,16.763233051405866,0 
-93.1574347615242,16.763348621627816,0 
-93.15760105848312,16.763443645979944,0 
-93.1577405333519,16.76343850952969,0 
-93.15814286470413,16.763536102060755,0 
-93.15852373838425,16.763613148760456,0 
-93.15888583660126,16.76374926452031,0 
-93.15955370664597,16.763923903465745,0 
-93.15946519374847,16.76463529868951,0 
-93.15936863422394,16.765233690445477,0 
-93.15927743911743,16.765793557422224,0 
-93.15916210412979,16.766317468146216,0 
-93.15912991762161,16.766430468309228,0 
-93.15877586603165,16.767031422593572,0 
-93.15834134817123,16.767758215195084,0 
-93.15829306840897,16.767896896153278,0 
-93.1567695736885,16.76764521582103,0 
-93.15627336502075,16.76758101160132,0 
-93.15618753433228,16.767696579181194,0 
-93.1552004814148,16.768407960292787,0 
-93.15513074398041,16.768533799995787,0 
-93.15509051084518,16.768703298239632,0 
-93.15506368875504,16.769006340177818,0 
-93.15576106309891,16.769114202446055,0 
-93.15647453069687,16.769240041681662,0 
-93.15683394670486,16.768954977171433,0 
-93.15760642290115,16.768415664766785,0 
-93.15811067819595,16.768084372102667,0 
-93.15830111503601,16.767899464318223,0 
-93.1593069434166,16.76827184786721,0 
-93.1601169705391,16.768813728832363,0 
-93.16079020500183,16.769265723148095,0 
-93.16105037927628,16.76943522073948,0 
-93.16173166036606,16.76988464543973,0 
-93.16270798444748,16.770580609593548,0 
-93.16356897354126,16.77125859436375,0 
-93.16444605588913,16.771838988496235,0 
-93.16482961177826,16.772095799493805,0 
</coordinates>
      </LineString>
    </Placemark>
    <Placemark>
      <name>Linea Roja</name>
      <styleUrl>#redLine</styleUrl>
      <LineString>
        <altitudeMode>relative</altitudeMode>
        <coordinates>
-93.16483229398727,16.772100935710228,0 
-93.16409468650818,16.771623266990165,0 
-93.16356360912323,16.77126116248329,0 
-93.16271871328354,16.770580609593548,0 
-93.16172093153,16.76988721357783,0 
-93.16103965044022,16.76942751630678,0 
-93.15956443548203,16.768446482659694,0 
-93.15933376550674,16.76828468866624,0 
-93.15828770399094,16.76789432798831,0 
-93.15833866596222,16.767758215195084,0 
-93.15875440835953,16.76706994523934,0 
-93.15912455320358,16.766438172863364,0 
-93.15924257040024,16.765963058108508,0 
-93.15937936306,16.76522084944044,0 
-93.15945446491241,16.764732890606513,0 
-93.15955370664597,16.763923903465745,0 
-93.15956175327301,16.763831447573427,0 
-93.15893411636353,16.76366964965373,0 
-93.15854251384735,16.763497578699212,0 
-93.15816432237625,16.763387145019536,0 
-93.15778881311417,16.763220210265754,0 
-93.15767884254456,16.76317655038289,0 
-93.15752327442169,16.763166277467825,0 
-93.15655767917633,16.76307382120725,0 
-93.15617948770523,16.763014751906127,0 
-93.15501272678375,16.762816998025393,0 
-93.15431267023087,16.76270399571553,0 
-93.15345704555511,16.762552469785575,0 
-93.1530413031578,16.762465149703317,0 
-93.1507882475853,16.761586810175988,0 
-93.149833381176,16.761255505616724,0 
-93.14907968044281,16.76107829596444,0 
-93.14794778823853,16.76085742573198,0 
-93.14715653657913,16.76076496834923,0 
-93.14686417579651,16.760664806133878,0 
-93.14646452665329,16.760567212129732,0 
-93.14637869596481,16.760559507337806,0 
-93.14629286527634,16.76058775824003,0 
-93.14621239900589,16.760798355742626,0 
-93.14592808485031,16.761003816496117,0 
-93.14504832029343,16.761507194404338,0 
-93.14384132623672,16.76213898315924,0 
-93.1428650021553,16.762657767478505,0 
-93.14120203256607,16.76350271514788,0 
-93.14084529876709,16.763351189854184,0 
-93.14058512449265,16.76323561963377,0 
-93.14038932323456,16.763168845696647,0 
-93.13931375741959,16.76286322622372,0 
-93.13806653022766,16.762431762602457,0 
-93.13717603683472,16.762141551401932,0 
-93.13604146242142,16.7617845653356,0 
-93.13503563404083,16.761476375387012,0 
-93.13372403383255,16.761255505616724,0 
-93.13317149877548,16.76116048017153,0 
-93.13185453414917,16.76098583868904,0 
-93.13093721866608,16.760834311390504,0 
-93.12990725040436,16.760685352233633,0 
-93.1286895275116,16.760490164196355,0 
-93.12727332115173,16.76027699808476,0 
-93.1267449259758,16.760197381764957,0 
-93.12564253807068,16.759979078781658,0 
-93.12517583370209,16.759871211332744,0 
-93.1253582239151,16.759082749789314,0 
-93.12541723251343,16.7585665240121,0 
-93.12535285949707,16.758430404543976,0 
-93.12533408403397,16.758101662785393,0 
-93.12551379203796,16.757076909440162,0 
-93.12566667795181,16.756255048132875,0 
-93.12590539455414,16.754965746055387,0 
-93.12604755163193,16.75402316311311,0 
-93.12617093324661,16.753219267160596,0 
-93.12630504369736,16.752392252445798,0 
-93.12524557113647,16.75229722257449,0 
-93.12428534030914,16.752140551601986,0 
-93.12341898679733,16.752019837813897,0 
-93.12170773744583,16.751806662213944,0 
-93.12083065509796,16.751673106294735,0 
-93.11998307704926,16.751544687053283,0 
-93.11829596757889,16.75129041669962,0 
-93.11578810214996,16.750933410276314,0 
-93.11422973871231,16.750733075443353,0 
</coordinates>
      </LineString>
    </Placemark>
  </Document>
</kml>
