<?xml version="1.0" encoding="UTF-8"?>
<kml xmlns="http://earth.google.com/kml/2.1">
  <Document>
    <name>Ruta</name>
    <description>Ruta</description>
    <Style id="yellowLine">
      <LineStyle>
        <color>ffff0000</color>
        <width>4</width>
      </LineStyle>
    </Style>
    <Style id="redLine">
      <LineStyle>
        <color>ff0000ff</color>
        <width>4</width>
      </LineStyle>
    </Style>
    <Placemark>
      <name>Linea Azul</name>
      <styleUrl>#yellowLine</styleUrl>
      <LineString>
        <altitudeMode>relative</altitudeMode>
        <coordinates>
-93.08420777320862,16.780850278875082,0 
-93.0834299325943,16.78020571230449,0 
-93.08302491903305,16.779879576194674,0 
-93.08306783437729,16.77852109771541,0 
-93.08310806751251,16.777180585802302,0 
-93.08275401592255,16.777172881683523,0 
-93.0823490023613,16.776949462102976,0 
-93.0828908085823,16.776107142242203,0 
-93.08334410190582,16.77540863025791,0 
-93.08336824178696,16.775210889266717,0 
-93.08344334363937,16.774912993359116,0 
-93.08379739522934,16.773783039120705,0 
-93.08290153741837,16.77354420702404,0 
-93.08127343654633,16.773071678120676,0 
-93.08124929666519,16.772676191070357,0 
-93.0814477801323,16.771833852272753,0 
-93.08155238628387,16.771412681474345,0 
-93.08161407709122,16.770996645989147,0 
-93.08172136545181,16.770590882108106,0 
-93.08183670043945,16.77019025362911,0 
-93.08192253112793,16.769702307546552,0 
-93.08201640844345,16.769234905387968,0 
-93.0821344256401,16.768806024374474,0 
-93.0822765827179,16.768166553282473,0 
-93.08234632015228,16.76809464475208,0 
-93.08235436677933,16.767598988785018,0 
-93.08239191770554,16.76687219557495,0 
-93.08277010917664,16.76692869550005,0 
-93.08376520872116,16.767072513415442,0 
-93.08420240879059,16.767126445105674,0 
-93.08502048254013,16.767370421608472,0 
-93.08512777090073,16.767396103327414,0 
-93.08540135622025,16.766720672965697,0 
-93.08544158935547,16.766617945704304,0 
-93.08555960655212,16.76628408172157,0 
-93.0857527256012,16.765667715905906,0 
-93.08583050966263,16.76545969199226,0 
-93.08699190616608,16.76574989813008,0 
-93.0872306227684,16.765726784383112,0 
-93.08765977621078,16.76565230673493,0 
-93.08815598487854,16.7654982149564,0 
-93.08825522661209,16.76546739658572,0 
-93.08835983276367,16.765441714606325,0 
-93.08872997760773,16.765567556272185,0 
-93.09017568826675,16.76595278534395,0 
-93.09027224779129,16.76598103544517,0 
-93.09060484170914,16.766091467618764,0 
-93.09133440256119,16.76610174037583,0 
-93.09193789958954,16.766222445229907,0 
-93.09290081262589,16.76652805930508,0 
-93.09304028749466,16.76603496744493,0 
-93.0933165550232,16.765318441056994,0 
-93.09361428022385,16.764653276151677,0 
-93.09382349252701,16.764221816590847,0 
-93.09412121772766,16.76356692074439,0 
-93.09441357851028,16.7629094544108,0 
-93.09458255767822,16.762549901548432,0 
-93.09488832950592,16.761902704683518,0 
-93.09505730867386,16.761517467409004,0 
-93.09550255537033,16.761581673675593,0 
-93.09583514928818,16.761586810175988,0 
-93.09630453586578,16.76153544516583,0 
-93.09679001569748,16.76150976265555,0 
-93.0970099568367,16.761491784896297,0 
-93.09773415327072,16.76149435314773,0 
-93.09873193502426,16.761561127672646,0 
-93.09891164302826,16.761507194404338,0 
-93.09907793998718,16.76141730558985,0 
-93.09924691915512,16.76131971197172,0 
-93.09964120388031,16.761003816496117,0 
-93.10018301010132,16.760605736084713,0 
-93.10103058815002,16.76013831157066,0 
-93.10158044099808,16.759868643059406,0 
-93.10167700052261,16.75983011895515,0 
-93.10163676738739,16.759714546595625,0 
-93.10161530971527,16.759609247273605,0 
-93.10162603855133,16.759082749789314,0 
-93.10204446315765,16.758905538113222,0 
-93.10262650251389,16.758754009157833,0 
-93.10316294431686,16.75863843614464,0 
-93.10378521680832,16.75848947526851,0 
-93.1041768193245,16.75850231672795,0 
-93.10457110404968,16.758620458114045,0 
-93.10482054948807,16.7588156480695,0 
-93.1050243973732,16.758949198976282,0 
-93.10522019863129,16.759046793810413,0 
-93.10548573732376,16.75902367924896,0 
-93.10562789440155,16.75895433554774,0 
-93.1057271361351,16.75882335293206,0 
-93.10576468706131,16.758671823911214,0 
-93.10578614473343,16.75852799964422,0 
-93.10585856437683,16.7582737386205,0 
-93.10606241226196,16.75713854889511,0 
-93.10624212026596,16.75613690527815,0 
-93.10633599758148,16.755648923144566,0 
-93.10645133256912,16.754806508937815,0 
-93.10646742582321,16.7547114802719,0 
-93.10665786266327,16.753668730172357,0 
-93.10681074857712,16.752764666349044,0 
-93.1069153547287,16.752240718304183,0 
-93.10692340135574,16.752140551601986,0 
-93.10690194368362,16.752040384847053,0 
-93.10703068971634,16.751185112716318,0 
-93.10704410076141,16.75108237706672,0 
-93.10715407133102,16.750463393604505,0 
-93.10804724693298,16.750612360762712,0 
-93.10892432928085,16.750745917426144,0 
-93.10975313186646,16.750843516467082,0 
-93.1106087565422,16.750982209754977,0 
-93.1115072965622,16.751097787417695,0 
-93.11244070529938,16.751246754079457,0 
-93.11317294836044,16.75142397288732,0 
-93.11404466629028,16.7515626657523,0 
-93.11480909585953,16.75167824306259,0 
-93.11574786901474,16.751796388685005,0 
-93.11578273773193,16.75092827348836,0 
-93.1158497929573,16.750602087169337,0 
</coordinates>
      </LineString>
    </Placemark>
    <Placemark>
      <name>Linea Roja</name>
      <styleUrl>#redLine</styleUrl>
      <LineString>
        <altitudeMode>relative</altitudeMode>
        <coordinates>
-93.11584442853928,16.750599518770915,0 
-93.1159383058548,16.75009097519898,0 
-93.1159383058548,16.75009097519898,0 
-93.11608850955963,16.749317883631267,0 
-93.11526507139206,16.74921514697399,0 
-93.11513096094131,16.74995998648316,0 
-93.11496466398239,16.750833242886188,0 
-93.11481177806854,16.751673106294735,0 
-93.11467498540878,16.752469303657982,0 
-93.11385959386826,16.752374273825133,0 
-93.11332583427429,16.752299790950016,0 
-93.11298251152039,16.75223814992786,0 
-93.11230659484863,16.752066068635404,0 
-93.1104451417923,16.751768136477622,0 
-93.10962438583374,16.75162430699319,0 
-93.10876607894897,16.751467635466824,0 
-93.10787826776505,16.75132637414398,0 
-93.10703068971634,16.751185112716318,0 
-93.10690194368362,16.752042953226052,0 
-93.10683488845825,16.752122572957546,0 
-93.10682147741318,16.752222739669207,0 
-93.1067168712616,16.752731277546076,0 
-93.10656666755676,16.75365075167226,0 
-93.10636550188065,16.754685796840537,0 
-93.10635477304459,16.7547885305452,0 
-93.10623675584793,16.755633513162078,0 
-93.10615628957748,16.75611379036322,0 
-93.10595780611038,16.75712570734365,0 
-93.10581296682358,16.757988657674698,0 
-93.10576468706131,16.75826346544067,0 
-93.10557156801224,16.758214667828966,0 
-93.1053301692009,16.75812991405258,0 
-93.10518801212311,16.758040023642423,0 
-93.1050592660904,16.75793215509418,0 
-93.10283035039902,16.75762652720876,0 
-93.10189694166183,16.757937291693107,0 
-93.10179501771927,16.75795270148904,0 
-93.10174137353897,16.758224941011413,0 
-93.10169577598572,16.7583687655075,0 
-93.1016206741333,16.758764282311173,0 
-93.10154020786285,16.759144388594486,0 
-93.1015294790268,16.75972225142179,0 
-93.10153752565384,16.759758207273045,0 
-93.10130685567856,16.759850665145066,0 
-93.10012400150299,16.760492732461312,0 
-93.09928715229034,16.761116819815943,0 
-93.09917986392975,16.761211845282933,0 
-93.09893846511841,16.761353099267765,0 
-93.09871047735214,16.76143271510392,0 
-93.09836983680725,16.76142244209467,0 
-93.09771537780762,16.761365940533928,0 
-93.09698849916458,16.761363372280766,0 
-93.09637695550919,16.761412169084874,0 
-93.09599339962006,16.761371077040135,0 
-93.09561789035797,16.761294029432335,0 
-93.09515923261642,16.761060318164414,0 
-93.09511095285416,16.761183594473376,0 
-93.0947756767273,16.761879590469047,0 
-93.09447526931763,16.762552469785575,0 
-93.09417486190796,16.76321250558127,0 
-93.0938395857811,16.763934176339898,0 
-93.09362232685089,16.764393886890172,0 
-93.09351772069931,16.764586502712216,0 
-93.09321194887161,16.76532100925675,0 
-93.09304565191269,16.765703670633357,0 
-93.09284448623657,16.76641249101506,0 
-93.09198081493378,16.76612485407723,0 
-93.09132903814316,16.766011853732632,0 
-93.09058874845505,16.766006717351726,0 
-93.09022128582001,16.76589371693693,0 
-93.0895346403122,16.765695966049467,0 
-93.08880239725113,16.765472532981168,0 
-93.08852881193161,16.76539805523341,0 
-93.08831423521042,16.765367236846494,0 
-93.08821499347687,16.765382646040575,0 
-93.08811843395233,16.76542373721869,0 
-93.08764636516571,16.765562419879295,0 
-93.08721452951431,16.76564973853963,0 
-93.08700263500214,16.76566514771082,0 
-93.08585733175278,16.765374941443692,0 
-93.08574736118317,16.765364668647365,0 
-93.08507949113846,16.765190031024797,0 
-93.08473080396652,16.765133530583178,0 
-93.08425337076187,16.765074461921714,0 
-93.08396369218826,16.765025666057102,0 
-93.08378130197525,16.76502823426081,0 
-93.08263599872589,16.765017961445757,0 
-93.08252334594727,16.765092439342368,0 
-93.08244824409485,16.765256804252367,0 
-93.0823865532875,16.7658038301954,0 
-93.082295358181,16.76684137742692,0 
-93.08227390050888,16.767519375529986,0 
-93.08224439620972,16.767968804758453,0 
-93.08226585388184,16.76816141695977,0 
-93.08212906122208,16.768806024374474,0 
-93.08201640844345,16.76922720094715,0 
-93.08191448450089,16.76969973940597,0 
-93.08183938264847,16.7702030942986,0 
-93.08171063661575,16.770585745850898,0 
-93.0816113948822,16.771024895341018,0 
-93.08156311511993,16.771412681474345,0 
-93.08142900466919,16.771836420384506,0 
-93.08134317398071,16.77224988592585,0 
-93.08124125003815,16.772676191070357,0 
-93.08126002550125,16.773079382405697,0 
-93.08139950037003,16.773942260351774,0 
-93.08152288198471,16.775054237166618,0 
-93.08173209428787,16.776171343582536,0 
-93.08176159858704,16.77660277602697,0 
-93.0819895863533,16.77672604225978,0 
-93.08234095573425,16.776952030145623,0 
-93.08275133371353,16.777178017762747,0 
-93.08349698781967,16.777165177564424,0 
-93.08433383703232,16.777160041484855,0 
-93.0851224064827,16.777190857960193,0 
-93.08553278446198,16.777172881683523,0 
-93.08548182249069,16.77854934594902,0 
-93.08509290218353,16.778526233758196,0 
-93.08498829603195,16.781199525187205,0 
-93.08494806289673,16.7812585888383,0 
-93.08490246534348,16.781279132712633,0 
-93.08470666408539,16.78122520503776,0 
-93.08422654867172,16.780932454535684,0 
</coordinates>
      </LineString>
    </Placemark>
  </Document>
</kml>
