<?xml version="1.0" encoding="UTF-8"?>
<kml xmlns="http://earth.google.com/kml/2.1">
  <Document>
    <name>Ruta</name>
    <description>Ruta</description>
    <Style id="yellowLine">
      <LineStyle>
        <color>ffff0000</color>
        <width>4</width>
      </LineStyle>
    </Style>
    <Style id="redLine">
      <LineStyle>
        <color>ff0000ff</color>
        <width>4</width>
      </LineStyle>
    </Style>
    <Placemark>
      <name>Linea Azul</name>
      <styleUrl>#yellowLine</styleUrl>
      <LineString>
        <altitudeMode>relative</altitudeMode>
        <coordinates>
-93.09131294488907,16.778711131206027,0 
-93.0913719534874,16.778721403281185,0 
-93.09140145778656,16.77872653931855,0 
-93.09143632650375,16.778731675355782,0 
-93.09146046638489,16.778734243374345,0 
-93.09148997068405,16.77873937941137,0 
-93.09151947498322,16.778747083466655,0 
-93.09155434370041,16.77875478752162,0 
-93.09155434370041,16.77875478752162,0 
-93.09162676334381,16.778762491576266,0 
-93.09162676334381,16.778762491576266,0 
-93.09172064065933,16.77877533166667,0 
-93.09175550937653,16.778780467702575,0 
-93.09179306030273,16.77879330779175,0 
-93.0919674038887,16.778813851932625,0 
-93.0921819806099,16.778844668139794,0 
-93.092380464077,16.778878052358575,0 
-93.09243142604828,16.778883188391706,0 
-93.09251457452774,16.77873937941137,0 
-93.09256553649902,16.77867517893859,0 
-93.09261918067932,16.778603274383318,0 
-93.09267282485962,16.778528801779533,0 
-93.09271842241287,16.778464601235616,0 
-93.09276401996613,16.778426080898843,0 
-93.09282302856445,16.77840040066999,0 
-93.09289008378983,16.778382424507733,0 
-93.0929571390152,16.778374720437665,0 
-93.09304028749466,16.778377288461062,0 
-93.09309393167496,16.778384992531013,0 
-93.09314757585526,16.77838756055426,0 
-93.09326022863388,16.77840040066999,0 
-93.09324413537979,16.778313087865946,0 
-93.09321194887161,16.778182118584652,0 
-93.09318512678146,16.778087101598587,0 
-93.09318780899048,16.77795613216156,0 
-93.09319585561752,16.777838002787973,0 
-93.0932468175888,16.77763769629106,0 
-93.09334337711334,16.777201130117536,0 
-93.0934077501297,16.77695973427336,0 
-93.09345066547394,16.776977710570193,0 
-93.09348553419113,16.77699055078119,0 
-93.09352040290833,16.777011095116954,0 
-93.09352040290833,16.777011095116954,0 
-93.09355795383453,16.777023935325673,0 
-93.09365719556808,16.776910941459104,0 
-93.09383690357208,16.77669265766296,0 
-93.09402465820312,16.77645126117295,0 
-93.0941453576088,16.776299746198124,0 
-93.09430629014969,16.776086597808717,0 
-93.09448331594467,16.775873449180278,0 
-93.09459328651428,16.77575275045335,0 
-93.09467107057571,16.775657732252693,0 
-93.09477299451828,16.77563205164977,0 
-93.09496879577637,16.775416334448202,0 
-93.09509485960007,16.7752417060581,0 
-93.09520751237869,16.775085053983393,0 
-93.09548377990723,16.774743500651585,0 
-93.09571713209152,16.774448172087936,0 
-93.09595316648483,16.7741759557881,0 
-93.09602826833725,16.774086072961975,0 
-93.09608995914459,16.774009030505756,0 
-93.09618651866913,16.77387549017433,0 
-93.09626430273056,16.773775334864208,0 
-93.09633672237396,16.77367774758819,0 
-93.0964145064354,16.77357245599736,0 
-93.09646278619766,16.773505685690026,0 
-93.09635281562805,16.773462028168698,0 
-93.09630185365677,16.773444051539354,0 
-93.09618383646011,16.773436347269115,0 
-93.09607923030853,16.773436347269115,0 
-93.09596925973892,16.773436347269115,0 
-93.09582442045212,16.773423506818027,0 
-93.09583514928818,16.773256580874918,0 
-93.09584051370621,16.77307424621571,0 
-93.09586197137833,16.77289704757652,0 
-93.09593170881271,16.772730121171126,0 
-93.09605240821838,16.772709576372627,0 
-93.09613555669785,16.77269159967214,0 
-93.09619724750519,16.77267105486948,0 
-93.09623748064041,16.772640237661346,0 
-93.09627503156662,16.772596579941258,0 
-93.0961999297142,16.77250926447102,0 
-93.09614092111588,16.772437357583062,0 
-93.09612214565277,16.77240654033704,0 
-93.09606581926346,16.77238599550358,0 
-93.09597194194794,16.77236288256329,0 
-93.09583783149719,16.772337201515217,0 
-93.0956581234932,16.772301248042098,0 
-93.09550255537033,16.7722755669857,0 
-93.09543013572693,16.772265294562175,0 
-93.09536844491959,16.772247317819666,0 
-93.09529066085815,16.772224204862507,0 
-93.0951726436615,16.77219338758193,0 
-93.09505194425583,16.77216513840368,0 
-93.09468984603882,16.77207782273528,0 
-93.09475153684616,16.771867237722955,0 
-93.09479713439941,16.77169517418605,0 
-93.09486955404282,16.771453771349414,0 
-93.09488832950592,16.7713715915904,0 
-93.0949392914772,16.771112211493026,0 
-93.09484541416168,16.77108396215412,0 
-93.09472739696503,16.771053144688704,0 
-93.094542324543,16.771006918481227,0 
-93.09431970119476,16.770950419767917,0 
-93.09396833181381,16.770870807916147,0 
-93.09346944093704,16.770726992873584,0 
-93.0930107831955,16.770601154622103,0 
-93.09273183345795,16.770531815141826,0 
-93.0922919511795,16.77041881741606,0 
-93.0919861793518,16.770336637209695,0 
-93.09208542108536,16.770025892983266,0 
-93.0921283364296,16.769833282670614,0 
-93.09219270944595,16.769548219049796,0 
-93.0922731757164,16.769255450561936,0 
-93.09235095977783,16.76895754532209,0 
-93.09239387512207,16.768780342845968,0 
-93.09240996837616,16.76869045746887,0 
-93.09243947267532,16.768520959213575,0 
-93.0924716591835,16.76838741502724,0 
-93.0925440788269,16.76811262188723,0 
-93.09264332056046,16.767719692688743,0 
-93.09275329113007,16.76724458113559,0 
-93.09282839298248,16.766908150074677,0 
-93.09287399053574,16.766712968423025,0 
-93.09290885925293,16.766538332038575,0 
-93.09294909238815,16.766379104607104,0 
-93.09301882982254,16.766109444943286,0 
-93.0930832028389,16.76589628512892,0 
-93.09313148260117,16.76574989813008,0 
-93.09328973293304,16.765374941443692,0 
-93.09345334768295,16.764987142997242,0 
-93.09354990720749,16.76475857268163,0 
-93.0936598777771,16.764553115983713,0 
-93.09372156858444,16.76444781934001,0 
-93.09383422136307,16.764198702658188,0 
-93.09402465820312,16.76377494672822,0 
-93.0942177772522,16.763351189854184,0 
-93.09438407421112,16.76298650136432,0 
-93.09453964233398,16.76264749453541,0 
-93.09468448162079,16.762334169504793,0 
-93.09488832950592,16.7618847269614,0 
-93.09502512216568,16.761584241925803,0 
-93.09505730867386,16.76152003566008,0 
-93.09516459703445,16.761538013416676,0 
-93.09520751237869,16.76154571816897,0 
-93.09532552957535,16.761561127672646,0 
-93.09544622898102,16.7615714006744,0 
-93.0955320596695,16.761576537175074,0 
-93.09561520814896,16.761579105425348,0 
-93.09569031000137,16.761584241925803,0 
-93.09576272964478,16.761581673675593,0 
-93.09581100940704,16.761584241925803,0 
-93.09588611125946,16.761579105425348,0 
-93.09593170881271,16.761576537175074,0 
-93.09600681066513,16.76156883242401,0 
-93.0960738658905,16.761563695923133,0 
-93.09617310762405,16.761550854670332,0 
-93.09622943401337,16.76152517216214,0 
-93.09625893831253,16.76152774041311,0 
-93.09629917144775,16.761532876914956,0 
-93.09634208679199,16.76153544516583,0 
-93.09639036655426,16.761532876914956,0 
-93.09645473957062,16.76153544516583,0 
-93.09652179479599,16.76153030866406,0 
-93.0966505408287,16.76152003566008,0 
-93.09687852859497,16.761499489650475,0 
-93.09706091880798,16.76149435314773,0 
-93.09728354215622,16.76149692139912,0 
-93.09752225875854,16.76149692139912,0 
-93.09772074222565,16.761499489650475,0 
-93.0978199839592,16.761507194404338,0 
-93.09799164533615,16.76152260391113,0 
-93.09814453125,16.761538013416676,0 
-93.09831351041794,16.761550854670332,0 
-93.09856563806534,16.76155599117155,0 
-93.09871315956116,16.761558559422117,0 
-93.09875339269638,16.761553422920972,0 
-93.09882044792175,16.76153030866406,0 
-93.0989009141922,16.761507194404338,0 
-93.0990082025528,16.761453261120735,0 
-93.09910207986832,16.76140703257976,0 
-93.0991879105568,16.76135053101444,0 
-93.09928447008133,16.761278619907017,0 
-93.09934616088867,16.761232391323603,0 
-93.09943467378616,16.761163048427438,0 
-93.09964925050735,16.760990975205516,0 
-93.09979140758514,16.760888244849582,0 
-93.10012400150299,16.760641691769006,0 
-93.10019373893738,16.760592894767257,0 
-93.10044050216675,16.760456776748864,0 
-93.10052901506424,16.760413116231774,0 
-93.10060679912567,16.76036945570467,0 
-93.10081869363785,16.76025902020901,0 
-93.10117810964584,16.760058695192818,0 
-93.10134708881378,16.759976510509784,0 
-93.10157775878906,16.75986093823917,0 
-93.10167968273163,16.75983011895515,0 
-93.1016394495964,16.75971711487105,0 
-93.10161262750626,16.75959640588888,0 
-93.10161799192429,16.759383238775897,0 
-93.10163140296936,16.75905449866361,0 
-93.10168236494064,16.758869582100825,0 
-93.10177356004715,16.758548545974726,0 
-93.10179501771927,16.75840472161454,0 
-93.10182988643646,16.758278875210188,0 
-93.10187011957169,16.758060570025627,0 
-93.10193717479706,16.75772155441901,0 
-93.10203105211258,16.75723357634905,0 
-93.10209542512894,16.756879149387398,0 
-93.10213029384613,16.756671115863313,0 
-93.10217320919037,16.756434830597144,0 
-93.10222148895264,16.756183135099604,0 
-93.10224294662476,16.756039308951536,0 
-93.10233414173126,16.75552821158163,0 
-93.10238778591156,16.755230284843297,0 
-93.10243606567383,16.75523542151515,0 
-93.10269087553024,16.755268809878814,0 
-93.1028464436531,16.75528678822605,0 
-93.10294032096863,16.755299629901614,0 
-93.10339093208313,16.7553561332638,0 
-93.10362428426743,16.755386953272453,0 
-93.10415267944336,16.755453729940772,0 
-93.10431092977524,16.75537411160279,0 
-93.10439139604568,16.75537667993679,0 
-93.1046462059021,16.75539208994008,0 
-93.10498148202896,16.75542804660958,0 
-93.10541331768036,16.755481981601076,0 
-93.10544282197952,16.755487118266146,0 
-93.10583174228668,16.75555132656769,0 
-93.10623675584793,16.755636081492575,0 
-93.1063386797905,16.755656628135352,0 
-93.10635477304459,16.755489686598615,0 
-93.10638964176178,16.75524569485844,0 
-93.10641914606094,16.755053069579436,0 
-93.10644060373306,16.754868149128157,0 
-93.10645937919617,16.75474486872749,0 
-93.10647815465927,16.754624156591127,0 
-93.10652107000351,16.754398142172473,0 
-93.10663640499115,16.753797147980766,0 
-93.10668736696243,16.75350692361039,0 
-93.10675173997879,16.75310112242134,0 
-93.10681074857712,16.752744119394077,0 
-93.10684829950333,16.75254635483897,0 
-93.1069153547287,16.752225308045738,0 
-93.10692340135574,16.7521354148466,0 
-93.10689926147461,16.752040384847053,0 
-93.10692876577377,16.751860598231666,0 
-93.10697972774506,16.75153184512438,0 
-93.10703605413437,16.751185112716318,0 
-93.10704678297043,16.751061829930144,0 
-93.10706824064255,16.750938547064127,0 
-93.10708701610565,16.75081269572273,0 
-93.107148706913,16.750465962004775,0 
-93.10725063085556,16.750481372405645,0 
-93.1072935461998,16.75048907760561,0 
-93.10739278793335,16.750504488004626,0 
-93.10761541128159,16.75054044559744,0 
-93.10805529356003,16.75061749755919,0 
-93.10819208621979,16.75063547634579,0 
-93.10844153165817,16.750674002311328,0 
-93.10863196849823,16.75070482307815,0 
-93.10892432928085,16.750751054219023,0 
-93.10945004224777,16.75081012732713,0 
-93.10976922512054,16.750851221652404,0 
-93.11014741659164,16.750905157940842,0 
-93.11049073934555,16.750961662607587,0 
-93.1107696890831,16.751000188507124,0 
-93.11110496520996,16.75105155636103,0 
-93.11153948307037,16.751105492592714,0 
-93.111831843853,16.751151723636287,0 
-93.1119954586029,16.751182544325758,0 
-93.1122288107872,16.751215933400395,0 
-93.11244338750839,16.751249322469164,0 
-93.1126418709755,16.75130069025585,0 
-93.1128591299057,16.751352058028665,0 
-93.11317026615143,16.751429109661903,0 
-93.11344385147095,16.751467635466824,0 
-93.11365574598312,16.75150102449145,0 
-93.11405003070831,16.751570370908503,0 
-93.1144630908966,16.751626875377784,0 
-93.11481714248657,16.751685948214107,0 
-93.1152006983757,16.751729610733523,0 
-93.11575323343277,16.751811798978196,0 
-93.11575591564178,16.751583212834806,0 
-93.11576664447784,16.75131610058914,0 
-93.11578541994095,16.750938547064127,0 
-93.11564058065414,16.750912863123656,0 
-93.11462134122849,16.750779306577357,0 
</coordinates>
      </LineString>
    </Placemark>
    <Placemark>
      <name>Linea Roja</name>
      <styleUrl>#redLine</styleUrl>
      <LineString>
        <altitudeMode>relative</altitudeMode>
        <coordinates>
-93.11460793018341,16.750781874973363,0 
-93.1145516037941,16.750771601389136,0 
-93.11446040868759,16.750758759408072,0 
-93.11437726020813,16.750745917426144,0 
-93.11432361602783,16.750740780633127,0 
-93.11422973871231,16.75072793864999,0 
-93.11426192522049,16.750573834784692,0 
-93.11431556940079,16.750324699938623,0 
-93.114353120327,16.750147480107398,0 
-93.11441212892532,16.749864955397634,0 
-93.11454892158508,16.749882934255286,0 
-93.11472058296204,16.74990604992692,0 
-93.11513096094131,16.749972828518114,0 
-93.11507999897003,16.750239942648616,0 
-93.11497271060944,16.750822969304732,0 
-93.114894926548,16.751246754079457,0 
-93.11477959156036,16.751876008519638,0 
-93.11466962099075,16.75247187203119,0 
-93.1146588921547,16.752590017161015,0 
-93.1146427989006,16.752877674561798,0 
-93.11461865901947,16.753301454762045,0 
-93.11460793018341,16.753406757574535,0 
-93.11459720134735,16.753463261498684,0 
-93.11456233263016,16.753632773170477,0 
-93.11449259519577,16.753976932766967,0 
-93.11444967985153,16.754184969236196,0 
-93.11439871788025,16.754431530683032,0 
-93.11435043811798,16.754672955123564,0 
-93.1142994761467,16.754911810917584,0 
-93.11425656080246,16.7551275513771,0 
-93.11421632766724,16.755340723257596,0 
-93.11419486999512,16.75544602494178,0 
-93.11417609453201,16.75555132656769,0 
-93.11413586139679,16.755759361315935,0 
-93.11409026384354,16.756011057373964,0 
-93.11404466629028,16.756244774844067,0 
-93.1139749288559,16.75661204457428,0 
-93.1139400601387,16.7567455970277,0 
-93.11387032270432,16.75698188190799,0 
-93.11375230550766,16.757377401594464,0 
-93.11366647481918,16.757693303091187,0 
-93.11363160610199,16.757793466870886,0 
-93.11359405517578,16.757973247881683,0 
-93.11355650424957,16.75815302872261,0 
-93.1135082244873,16.758407289907634,0 
-93.11343848705292,16.758771987175805,0 
-93.11341166496277,16.758918379544568,0 
-93.11337411403656,16.75905193037924,0 
-93.11333388090134,16.759200890815002,0 
-93.11326682567596,16.75949624305831,0 
-93.11317294836044,16.759920008519575,0 
-93.11309784650803,16.76027186154901,0 
-93.11302542686462,16.76058775824003,0 
-93.11296105384827,16.760875403551182,0 
-93.11287254095078,16.761281188161323,0 
-93.11285644769669,16.761358235774328,0 
-93.11285108327866,16.761517467409004,0 
-93.1127142906189,16.761486648393333,0 
-93.11200350522995,16.76134796276107,0 
-93.1110405921936,16.761152775403634,0 
-93.11001867055893,16.760952451328546,0 
-93.1090047955513,16.76077267313285,0 
-93.1081411242485,16.76056978039364,0 
-93.1076180934906,16.76044907195246,0 
-93.10716480016708,16.760346341303904,0 
-93.10689389705658,16.76031809036583,0 
-93.10675173997879,16.760300112493958,0 
-93.10669809579849,16.76027186154901,0 
-93.1065022945404,16.7603643191714,0 
-93.10644596815109,16.760395138368896,0 
-93.10633599758148,16.76044650368692,0 
-93.10595780611038,16.760636555243092,0 
-93.10573786497116,16.760759831826647,0 
-93.10548841953278,16.76089851788767,0 
-93.10512900352478,16.761121956328882,0 
-93.10498684644699,16.76121441353814,0 
-93.10486882925034,16.761168184939127,0 
-93.10479909181595,16.761155343659635,0 
-93.10464084148407,16.761124524585313,0 
-93.10449868440628,16.761093705505992,0 
-93.10436457395554,16.761062886421673,0 
-93.10419827699661,16.761024362559255,0 
-93.10395956039429,16.760972997397232,0 
-93.103728890419,16.760924200480467,0 
-93.10335606336594,16.760839447911074,0 
-93.1028464436531,16.760721307902873,0 
-93.10245484113693,16.76062114566452,0 
-93.10221880674362,16.760554370809665,0 
-93.10206860303879,16.760500437255946,0 
-93.10200154781342,16.760464481544965,0 
-93.10196936130524,16.760443935421357,0 
-93.10193181037903,16.760397706635125,0 
-93.10186743736267,16.760246178868154,0 
-93.10181111097336,16.76011519714182,0 
-93.10172259807587,16.75992514506484,0 
-93.10164481401443,16.75972995624763,0 
-93.10155093669891,16.75975563899818,0 
-93.10142487287521,16.759804436214665,0 
-93.10125589370728,16.759886620972036,0 
-93.10106813907623,16.759979078781658,0 
-93.10077846050262,16.76013317503117,0 
-93.10039222240448,16.760346341303904,0 
-93.10013204813004,16.760492732461312,0 
-93.09997379779816,16.760600599557833,0 
-93.09983968734741,16.760698193544854,0 
-93.0996760725975,16.760818901827964,0 
-93.0994588136673,16.760983270430753,0 
-93.09908330440521,16.761270915143896,0 
-93.0989921092987,16.76132741673287,0 
-93.09893846511841,16.761358235774328,0 
-93.09888482093811,16.7613787817992,0 
-93.09883654117584,16.761396759569138,0 
-93.09876143932343,16.76142244209467,0 
-93.0987024307251,16.76143785160833,0 
-93.09860318899155,16.761442988112606,0 
-93.09829205274582,16.761430146851662,0 
-93.09798628091812,16.76140189607452,0 
-93.0977126955986,16.761376213546203,0 
-93.09744715690613,16.761376213546203,0 
-93.09712797403336,16.761371077040135,0 
-93.0969750881195,16.761371077040135,0 
-93.09673637151718,16.7613941913164,0 
-93.0965593457222,16.76140703257976,0 
-93.0963796377182,16.76141730558985,0 
-93.09622406959534,16.76139932782184,0 
-93.09604972600937,16.761383918305075,0 
-93.09597998857498,16.761376213546203,0 
-93.09585124254227,16.76134539450767,0 
-93.09563666582108,16.761294029432335,0 
-93.09558302164078,16.761283756415594,0 
-93.09525847434998,16.761116819815943,0 
-93.09516459703445,16.761073159450333,0 
-93.09505462646484,16.761304302448504,0 
-93.09489369392395,16.76164074342173,0 
-93.094722032547,16.762023412202353,0 
-93.0944886803627,16.76253192388747,0 
-93.09424459934235,16.763058411826112,0 
-93.09399515390396,16.763597739423023,0 
-93.09374839067459,16.764137065490683,0 
-93.09350430965424,16.76464557152524,0 
-93.09327363967896,16.765164349007964,0 
-93.09304028749466,16.765719079800174,0 
-93.09295177459717,16.76598874001751,0 
-93.09285521507263,16.766355990936606,0 
-93.09282839298248,16.7664561501551,0 
-93.09282034635544,16.7664818319975,0 
-93.0928122997284,16.766517786571026,0 
-93.09279888868332,16.76657942296699,0 
-93.09277474880219,16.766689854793114,0 
-93.09275597333908,16.76679001383576,0 
-93.09271305799484,16.766974922698996,0 
-93.09266209602356,16.76720349035091,0 
-93.09258967638016,16.76753735271951,0 
-93.09250384569168,16.767848101012852,0 
-93.09244483709335,16.76808950842744,0 
-93.09238314628601,16.768343756330598,0 
-93.09231877326965,16.768646798841804,0 
-93.09231340885162,16.768695593777274,0 
-93.09230268001556,16.768754661313977,0 
-93.09228658676147,16.76881116067977,0 
-93.09227049350739,16.768880500787546,0 
-93.09224635362625,16.768967817924327,0 
-93.09221684932709,16.769062839468816,0 
-93.09219539165497,16.7691784061481,0 
-93.0921658873558,16.76927085944095,0 
-93.09215247631073,16.769304245341214,0 
-93.09213370084763,16.76936588083399,0 
-93.09210419654846,16.769486583616125,0 
-93.09204518795013,16.769725420810303,0 
-93.09200763702393,16.769861532195343,0 
-93.09193521738052,16.770126050268743,0 
-93.09190839529037,16.77024418443507,0 
-93.09187889099121,16.770354614132884,0 
-93.09183597564697,16.770490725067503,0 
-93.0917876958847,16.770655085311517,0 
-93.0917340517044,16.770819445413434,0 
-93.09164822101593,16.771117347736013,0 
-93.09155970811844,16.7714152495918,0 
-93.09147924184799,16.77169517418605,0 
-93.09138000011444,16.772034164886037,0 
-93.09136658906937,16.772090663277268,0 
-93.09134781360626,16.77217027461822,0 
-93.0912834405899,16.772429653272024,0 
-93.09120833873749,16.772724984971713,0 
-93.09111446142197,16.773092222880027,0 
-93.09098839759827,16.773580160262078,0 
-93.09084892272949,16.774073232554777,0 
-93.09075504541397,16.774422491321594,0 
-93.09067994356155,16.774689571122032,0 
-93.09059947729111,16.77500030772523,0 
-93.09049755334854,16.77537524542967,0 
-93.09040904045105,16.775714229566915,0 
-93.09031516313553,16.776060917263745,0 
-93.09021323919296,16.776448693123523,0 
-93.0901300907135,16.776754290760216,0 
-93.09001475572586,16.777154905405148,0 
-93.08988332748413,16.77760431185437,0 
-93.0897331237793,16.77814103016408,0 
-93.08964997529984,16.778431216944202,0 
-93.08967143297195,16.778444057056966,0 
-93.08970361948013,16.778449193101842,0 
-93.08974117040634,16.77845689716888,0 
-93.0897867679596,16.77846716925779,0 
-93.08981895446777,16.778469737279917,0 
-93.0899316072464,16.77849028145579,0 
-93.09003353118896,16.77850568958623,0 
-93.0901300907135,16.77852109771541,0 
-93.0902561545372,16.778544209906855,0 
-93.09038758277893,16.77856732209549,0 
-93.09063702821732,16.778605842403625,0 
-93.09095621109009,16.778657202802325,0 
-93.09132367372513,16.778718835262442,0 
</coordinates>
      </LineString>
    </Placemark>
  </Document>
</kml>
