<?xml version="1.0" encoding="UTF-8"?>
<kml xmlns="http://earth.google.com/kml/2.1">
  <Document>
    <name>Ruta</name>
    <description>Ruta</description>
    <Style id="yellowLine">
      <LineStyle>
        <color>ffff0000</color>
        <width>4</width>
      </LineStyle>
    </Style>
    <Style id="redLine">
      <LineStyle>
        <color>ff0000ff</color>
        <width>4</width>
      </LineStyle>
    </Style>
    <Placemark>
      <name>Linea Azul</name>
      <styleUrl>#yellowLine</styleUrl>
      <LineString>
        <altitudeMode>relative</altitudeMode>
        <coordinates>
-93.11385691165924,16.784912795539746,0 
-93.11431288719177,16.7851593171432,0 
-93.11489760875702,16.785508555533756,0 
-93.11513900756836,16.785100254704847,0 
-93.11537504196167,16.78470222475011,0 
-93.11561912298203,16.784822917792226,0 
-93.11566203832626,16.7846585698011,0 
-93.11578273773193,16.784419751373033,0 
-93.11589002609253,16.78423999536893,0 
-93.11603218317032,16.78396779309603,0 
-93.11614215373993,16.783777764863007,0 
-93.11624675989151,16.783580032580886,0 
-93.1164076924324,16.783302693448796,0 
-93.11657130718231,16.782994538382724,0 
-93.11672151088715,16.78273774211251,0 
-93.11684489250183,16.782516897042495,0 
-93.11706215143204,16.782118861674974,0 
-93.11715334653854,16.7819570793195,0 
-93.11735183000565,16.78154106691569,0 
-93.11755567789078,16.781117349642106,0 
-93.11776489019394,16.78068079146283,0 
-93.1179204583168,16.78037263214413,0 
-93.11810821294785,16.779984864291308,0 
-93.1182450056076,16.779717791932466,0 
-93.11841934919357,16.779314614679695,0 
-93.11844617128372,16.77919391813829,0 
-93.11854541301727,16.77889089244116,0 
-93.11861515045166,16.77857245813702,0 
-93.11869829893112,16.77824888724914,0 
-93.11881363391876,16.777660808589946,0 
-93.11887264251709,16.777213970313415,0 
-93.11891555786133,16.776682385478136,0 
-93.11893433332443,16.776312586454903,0 
-93.11895847320557,16.775829792202785,0 
-93.1189826130867,16.775352132852856,0 
-93.11900943517685,16.774856495806723,0 
-93.11905771493912,16.774550895118644,0 
-93.11912208795547,16.77443276362854,0 
-93.11922401189804,16.7743197682215,0 
-93.11934739351273,16.774278678965917,0 
-93.11947613954544,16.774255566255746,0 
-93.11973631381989,16.77427611088715,0 
-93.11992943286896,16.774250430097542,0 
-93.12003135681152,16.774214476986295,0 
-93.12012523412704,16.774152843065437,0 
-93.12020570039749,16.77396794118301,0 
-93.12032103538513,16.773628953931393,0 
-93.12038540840149,16.773415802546964,0 
-93.12042832374573,16.773061405740158,0 
-93.12044441699982,16.772879070893758,0 
-93.1204417347908,16.772442493790248,0 
-93.12044978141785,16.77207525462677,0 
-93.12042832374573,16.771669493047803,0 
-93.12039345502853,16.771515406145355,0 
-93.1203344464302,16.771353614763377,0 
-93.12023788690567,16.771140460827723,0 
-93.12030225992203,16.77094785164419,0 
-93.1198838353157,16.770917034156728,0 
-93.11929374933243,16.770870807916147,0 
-93.11885923147202,16.770845126666515,0 
-93.11888068914413,16.77043936246211,0 
-93.1188753247261,16.770054142479395,0 
-93.11882436275482,16.76969973940597,0 
-93.11878949403763,16.769453197747882,0 
-93.11870634555817,16.769188678738406,0 
-93.11859905719757,16.76878291099898,0 
-93.1185132265091,16.76849014133275,0 
-93.11848372220993,16.76837457423515,0 
-93.11836838722229,16.76809207658978,0 
-93.11835765838623,16.767807010358574,0 
-93.11836302280426,16.76764778398937,0 
-93.1184059381485,16.767208626699475,0 
-93.11843812465668,16.766903013717993,0 
-93.11845690011978,16.766741218411312,0 
-93.11852395534515,16.76646899107673,0 
-93.11857223510742,16.76624299072935,0 
-93.11863392591476,16.765991308208218,0 
-93.11870098114014,16.76571651160579,0 
-93.11873584985733,16.76542116902031,0 
-93.11878681182861,16.765095007545174,0 
-93.11878949403763,16.765046211685828,0 
-93.1187492609024,16.764984574792972,0 
-93.11876267194748,16.76469436748737,0 
-93.11880022287369,16.764291158372,0 
-93.11882972717285,16.76390592593465,0 
-93.11887800693512,16.763456487104968,0 
-93.11891824007034,16.763063548286635,0 
-93.1189477443695,16.762724541595038,0 
-93.1189638376236,16.76257558391828,0 
-93.11900943517685,16.76224171283975,0 
-93.11907917261124,16.76177686059297,0 
-93.11911672353745,16.76149692139912,0 
-93.11915695667267,16.76120157226176,0 
-93.1191998720169,16.760893381368692,0 
-93.11924278736115,16.760546666017216,0 
-93.11929643154144,16.760223064452404,0 
-93.11934739351273,16.759958532605623,0 
-93.11938762664795,16.759745365898375,0 
-93.11944127082825,16.759429467808637,0 
-93.11952441930771,16.758964608690256,0 
-93.119578063488,16.75873346284951,0 
-93.11966389417648,16.75837903868163,0 
-93.11975508928299,16.758014340660292,0 
-93.11985433101654,16.75757516112941,0 
-93.11995089054108,16.757282374212362,0 
-93.12006890773773,16.75692281071543,0 
-93.12012791633606,16.756601771304748,0 
-93.12016546726227,16.75620111336047,0 
-93.12018156051636,16.756000784071993,0 
-93.12021911144257,16.75570799473257,0 
-93.12027543783188,16.75528165155559,0 
-93.1203344464302,16.755017112839088,0 
-93.1204041838646,16.75465754506204,0 
-93.120476603508,16.7542851348625,0 
-93.12052488327026,16.753969227708183,0 
-93.12057852745056,16.75359167944573,0 
-93.12063485383987,16.753280907865,0 
-93.12069654464722,16.75293674700995,0 
-93.12077701091766,16.75255662832741,0 
-93.12079578638077,16.75248471389667,0 
-93.12080651521683,16.752266402065498,0 
-93.12082260847092,16.75189655556833,0 
-93.12083601951599,16.75167567467867,0 
-93.12090575695038,16.75127500636423,0 
-93.12098354101181,16.75083581128147,0 
-93.12104791402817,16.750355520761993,0 
-93.1210908293724,16.750047312303725,0 
-93.12059462070465,16.749977965331844,0 
-93.12014669179916,16.749931734003226,0 
-93.11951905488968,16.749839271312307,0 
-93.11897456645966,16.74976992426465,0 
-93.11841398477554,16.74968773513842,0 
-93.11790704727173,16.749592703916967,0 
-93.11723113059998,16.749482262167604,0 
-93.11681270599365,16.749418051818733,0 
-93.11627089977264,16.749333294125073,0 
-93.11608582735062,16.74930504155214,0 
-93.11616629362106,16.748883820876582,0 
-93.11624139547348,16.748495988820753,0 
</coordinates>
      </LineString>
    </Placemark>
    <Placemark>
      <name>Linea Roja</name>
      <styleUrl>#redLine</styleUrl>
      <LineString>
        <altitudeMode>relative</altitudeMode>
        <coordinates>
-93.11623871326447,16.748501125674327,0 
-93.116335272789,16.748005418664835,0 
-93.11640501022339,16.747643269204737,0 
-93.11608046293259,16.747591900431217,0 
-93.11557084321976,16.747504573484406,0 
-93.11552792787552,16.747725459213562,0 
-93.11546623706818,16.7480644926249,0 
-93.11541259288788,16.74837270429315,0 
-93.11535090208054,16.7487348523658,0 
-93.11530262231827,16.748991694553,0 
-93.11524361371994,16.749343567786934,0 
-93.11515778303146,16.74980331358704,0 
-93.11510413885117,16.750108954035298,0 
-93.1150370836258,16.750458256803867,0 
-93.11497002840042,16.750822969304732,0 
-93.1146588921547,16.750784443369334,0 
-93.1142270565033,16.75072537025326,0 
-93.11351895332336,16.75063804474373,0 
-93.11334997415543,16.75062777115174,0 
-93.11328291893005,16.750923136700266,0 
-93.11323463916779,16.751123471333205,0 
-93.11314344406128,16.751524139966616,0 
-93.11305224895477,16.751973606981167,0 
-93.11299055814743,16.752250991809127,0 
-93.11295837163925,16.752695320367103,0 
-93.11293959617615,16.75313194279517,0 
-93.11285108327866,16.753488945095018,0 
-93.11277329921722,16.753833104951593,0 
-93.11268746852875,16.754202947685823,0 
-93.11258286237717,16.7546318616234,0 
-93.1124272942543,16.75507361628515,0 
-93.11226099729538,16.755535916577305,0 
-93.11217248439789,16.75593400759564,0 
-93.11207860708237,16.756370622593693,0 
-93.11198472976685,16.756763575235425,0 
-93.11187744140625,16.75725669112797,0 
-93.11179429292679,16.757641937029867,0 
-93.11171919107437,16.75807854810912,0 
-93.11161458492279,16.758592206919694,0 
-93.11152070760727,16.75905706694794,0 
-93.11142146587372,16.759283075833103,0 
-93.11133027076721,16.759437172646336,0 
-93.11128467321396,16.75970684176916,0 
-93.11122298240662,16.760066400005037,0 
-93.11116397380829,16.760410547965748,0 
-93.11109691858292,16.760806060524892,0 
-93.1110405921936,16.76114763889151,0 
-93.11052560806274,16.761042340362682,0 
-93.11001598834991,16.760947314811027,0 
-93.1099784374237,16.761098842019553,0 
-93.10991674661636,16.76134025800075,0 
-93.10981750488281,16.76171265439226,0 
-93.1097424030304,16.762002866247112,0 
-93.10964047908783,16.76235214718443,0 
-93.10956537723541,16.762611539230242,0 
-93.10946345329285,16.762955682586657,0 
-93.10937225818634,16.76327414304838,0 
-93.10928642749786,16.76355407962682,0 
-93.10920059680939,16.76391619880977,0 
-93.10914695262909,16.764139633706403,0 
-93.10904771089554,16.76453513851208,0 
-93.10895919799805,16.764899824032696,0 
-93.10886532068253,16.765269645254975,0 
-93.10876071453094,16.76567542049093,0 
-93.10865074396133,16.766016990113375,0 
-93.1085541844368,16.76629178628163,0 
-93.10839861631393,16.766605104792735,0 
-93.10825109481812,16.766877331932474,0 
-93.10805529356003,16.76725999017756,0 
-93.10791850090027,16.76754248905907,0 
-93.10773342847824,16.767958532102234,0 
-93.10753762722015,16.768366869759472,0 
-93.10741692781448,16.7686134128261,0 
-93.10734987258911,16.76897809052602,0 
-93.10726940631866,16.769419811873775,0 
-93.1071862578392,16.769918031232226,0 
-93.10714602470398,16.770185117361088,0 
-93.10711920261383,16.7702955470932,0 
-93.10682415962219,16.770316092152555,0 
-93.10632526874542,16.770339205341692,0 
-93.10583174228668,16.770364886659642,0 
-93.10519605875015,16.770403408630084,0 
-93.10462474822998,16.770441930592707,0 
-93.10399174690247,16.770477884417453,0 
-93.10332655906677,16.770524110753566,0 
-93.10312807559967,16.770521542624078,0 
-93.10312271118164,16.770655085311517,0 
-93.10377985239029,16.770621699648444,0 
-93.10437262058258,16.770596018365175,0 
-93.10510486364365,16.770562632691746,0 
-93.10576736927032,16.770524110753566,0 
-93.10643523931503,16.770490725067503,0 
-93.10708701610565,16.77045733937558,0 
-93.1070226430893,16.77076551477065,0 
-93.10694485902786,16.77113018834287,0 
-93.10687243938446,16.771471748166956,0 
-93.10680270195007,16.771836420384506,0 
-93.10669273138046,16.772162570296352,0 
-93.10660153627396,16.772527241188754,0 
-93.10654252767563,16.772766074563137,0 
-93.10650497674942,16.7730870866904,0 
-93.10649156570435,16.77325401278235,0 
-93.10651570558548,16.773528798491377,0 
-93.10654252767563,16.773821560398513,0 
-93.10658544301987,16.77417081962776,0 
-93.10663372278214,16.774604824687536,0 
-93.1066632270813,16.77510046238992,0 
-93.10669809579849,16.775485672146832,0 
-93.10673028230667,16.775868313065796,0 
-93.1067544221878,16.77613539083462,0 
-93.10723721981049,16.776235544901176,0 
-93.10780584812164,16.77634853916931,0 
-93.10824036598206,16.776415308477986,0 
-93.10875803232193,16.776515462397025,0 
-93.10918718576431,16.776605344074298,0 
-93.10971558094025,16.776718338122578,0 
-93.11020106077194,16.77683390014791,0 
-93.11067312955856,16.77693148580347,0 
-93.11109960079193,16.777026503367313,0 
-93.11158776283264,16.777139497165194,0 
-93.1121027469635,16.777265331088298,0 
-93.11253994703293,16.777352644373735,0 
-93.1130200624466,16.777432253510792,0 
-93.11353504657745,16.777522134754488,0 
-93.11398297548294,16.77760944792194,0 
-93.11433434486389,16.777676216787633,0 
-93.11480641365051,16.777845706879795,0 
-93.11538845300674,16.778081965543944,0 
-93.11582028865814,16.778259159349286,0 
-93.11625480651855,16.778438921011965,0 
-93.11673760414124,16.7786186825046,0 
-93.11672419309616,16.778949956809868,0 
-93.11671078205109,16.779116877752628,0 
-93.116694688797,16.779335158764223,0 
-93.11668395996094,16.779553439525074,0 
-93.11653643846512,16.779460991233442,0 
-93.1162977218628,16.779617639701133,0 
-93.11609655618668,16.77975888001211,0 
-93.11574786901474,16.779977160286226,0 
-93.1154876947403,16.78013894432757,0 
-93.11499148607254,16.7804573760066,0 
-93.11458110809326,16.780729583309128,0 
-93.11435580253601,16.78087852676242,0 
-93.11459720134735,16.781024902111387,0 
-93.11480104923248,16.781145597489736,0 
-93.11454355716705,16.781548770857373,0 
-93.11426997184753,16.781926263617127,0 
-93.1140285730362,16.78230632359711,0 
-93.11378717422485,16.782704358571884,0 
-93.11356455087662,16.78313064026521,0 
-93.11333924531937,16.783518401697634,0 
-93.11308443546295,16.783929273874968,0 
-93.11281085014343,16.784296490131403,0 
-93.11324268579483,16.784537876654557,0 
-93.11351627111435,16.7846739774313,0 
-93.11385154724121,16.784915363474763,0 
</coordinates>
      </LineString>
    </Placemark>
  </Document>
</kml>
