<?xml version="1.0" encoding="UTF-8"?>
<kml xmlns="http://earth.google.com/kml/2.1">
  <Document>
    <name>Ruta</name>
    <description>Ruta</description>
    <Style id="yellowLine">
      <LineStyle>
        <color>ffff0000</color>
        <width>4</width>
      </LineStyle>
    </Style>
    <Style id="redLine">
      <LineStyle>
        <color>ff0000ff</color>
        <width>4</width>
      </LineStyle>
    </Style>
    <Placemark>
      <name>Linea Azul</name>
      <styleUrl>#yellowLine</styleUrl>
      <LineString>
        <altitudeMode>relative</altitudeMode>
        <coordinates>
-93.11114251613617,16.77555500982017,0 
-93.11115592718124,16.77601726032932,0 
-93.1111666560173,16.776279201785474,0 
-93.11164408922195,16.776284337888836,0 
-93.11214566230774,16.77627534970783,0 
-93.11213493347168,16.77573734209971,0 
-93.11212956905365,16.775242990090963,0 
-93.11215907335281,16.774716535888714,0 
-93.11225831508636,16.774020586876173,0 
-93.11233073472977,16.773593000702594,0 
-93.11239913105965,16.773128176203556,0 
-93.1124621629715,16.772686463471686,0 
-93.11253324151039,16.77188906666799,0 
-93.11258018016815,16.771598869899677,0 
-93.11263650655746,16.771240617526058,0 
-93.1128242611885,16.77064994905604,0 
-93.11289936304092,16.770426521808588,0 
-93.11299324035645,16.770020756710803,0 
-93.11310455203056,16.769548219049796,0 
-93.11321184039116,16.76908338466137,0 
-93.11335265636444,16.768359165283492,0 
-93.11336740851402,16.7682821205065,0 
-93.11372011899948,16.76835017672779,0 
-93.11404466629028,16.768407960292787,0 
-93.11470985412598,16.76851453882216,0 
-93.11528116464615,16.76861983321418,0 
-93.1152006983757,16.76906669169259,0 
-93.11627224087715,16.76920151947555,0 
-93.11654314398766,16.76848885725427,0 
-93.11643719673157,16.767968804758453,0 
-93.11637818813324,16.76749369382771,0 
-93.11628833413124,16.767086638383407,0 
-93.11598926782608,16.76621474066703,0 
-93.11569690704346,16.76615824052983,0 
-93.11473801732063,16.765928387525886,0 
-93.11484530568123,16.76546354428902,0 
-93.11493515968323,16.76502823426081,0 
-93.11507731676102,16.764363068340554,0 
-93.11517924070358,16.763881527854018,0 
-93.11527848243713,16.763337064608784,0 
-93.11537504196167,16.762811861558216,0 
-93.11552256345749,16.761982320289643,0 
-93.11562046408653,16.76149692139912,0 
-93.11571702361107,16.761020510172585,0 
-93.11580553650856,16.760541529488734,0 
-93.1158672273159,16.76019866589942,0 
-93.11594769358635,16.75972867211001,0 
-93.11605766415596,16.759134115461677,0 
-93.11614349484444,16.758649993449108,0 
-93.11623200774193,16.758159449463786,0 
-93.11634063720703,16.75759057095468,0 
-93.11645194888115,16.75701655412117,0 
-93.1165324151516,16.756608192098273,0 
-93.11661154031754,16.756212670812985,0 
-93.1166960299015,16.755851821131035,0 
-93.11678856611252,16.755453729940772,0 
-93.11685159802437,16.755049217071868,0 
-93.11691462993622,16.75464341917123,0 
-93.11700850725174,16.75413231805252,0 
-93.11707153916359,16.753757338469423,0 
-93.11716943979263,16.753261645147038,0 
-93.11724856495857,16.752837864858144,0 
-93.1173250079155,16.75243976736365,0 
-93.1173987686634,16.752037816468032,0 
-93.11748325824738,16.75152799254553,0 
-93.1175409257412,16.75118126013046,0 
-93.1176146864891,16.75074848582261,0 
-93.11768040060997,16.75036707856947,0 
-93.1177568435669,16.749936870818075,0 
-93.11782523989677,16.749564451382533,0 
-93.11790838837624,16.74912139972585,0 
-93.11798080801964,16.748751547118506,0 
-93.11812698841095,16.747915523473058,0 
-93.11827048659325,16.747136001958864,0 
-93.11839520931244,16.746279423567106,0 
-93.11852127313614,16.745652719094466,0 
-93.1186231970787,16.745139025365603,0 
-93.11879217624664,16.744342797347358,0 
-93.11894237995148,16.743610778328918,0 
-93.11907514929771,16.74290187301881,0 
-93.11920523643494,16.74221351316368,0 
-93.11933934688568,16.741517445258072,0 
-93.11947479844093,16.740799542299655,0 
-93.11960488557816,16.740084205175854,0 
-93.11973229050636,16.73936886536581,0 
-93.11984091997147,16.73862141587234,0 
-93.11995759606361,16.73791120770878,0 
-93.12005281448364,16.73728832856878,0 
-93.11977118253708,16.73719714402896,0 
-93.11936482787132,16.737096969413773,0 
-93.11914622783661,16.73705587212052,0 
-93.11911404132843,16.737240809870382,0 
-93.1182610988617,16.737174026814746,0 
-93.11751276254654,16.737061009282662,0 
-93.11742424964905,16.737573440510356,0 
-93.11730086803436,16.73826566998032,0 
-93.11665713787079,16.7381809073232,0 
-93.11576530337334,16.73805890040206,0 
-93.11498612165451,16.73794716767944,0 
-93.11424717307091,16.73783928774713,0 
-93.11435580253601,16.737321720079507,0 
-93.11442017555237,16.73700706907326,0 
-93.11456367373466,16.736312266439352,0 
-93.11467498540878,16.735779283034372,0 
-93.1147313117981,16.735517285826106,0 
-93.11483725905418,16.735008701981684,0 
-93.11562180519104,16.735083191619527,0 
-93.11653509736061,16.73516667135143,0 
-93.11691597104073,16.73519492602163,0 
-93.11729952692986,16.73521162196114,0 
-93.1173250079155,16.735081907315642,0 
-93.11735183000565,16.734749272326116,0 
-93.11737328767776,16.734489842317355,0 
-93.11741888523102,16.734050608527028,0 
-93.11745777726173,16.733707697232614,0 
-93.11751544475555,16.733305706802202,0 
-93.11811089515686,16.733355795112946,0 
-93.11810553073883,16.733403314780194,0 
-93.11860576272011,16.733485510933406,0 
-93.11933800578117,16.733616510979314,0 
-93.1197215616703,16.733685863908338,0 
-93.11978057026863,16.733351942166447,0 
-93.11982482671738,16.733059118003577,0 
-93.119847625494,16.732949950985603,0 
-93.11998039484024,16.7323142124033,0 
-93.12012389302254,16.731647647854803,0 
-93.12020570039749,16.731270055342147,0 
-93.12028080224991,16.7307563228312,0 
</coordinates>
      </LineString>
    </Placemark>
    <Placemark>
      <name>Linea Roja</name>
      <styleUrl>#redLine</styleUrl>
      <LineString>
        <altitudeMode>relative</altitudeMode>
        <coordinates>
-93.12027275562286,16.73080384314658,0 
-93.12021374702454,16.731130063370166,0 
-93.12008500099182,16.731746541008302,0 
-93.11996698379517,16.732345036141062,0 
-93.1198301911354,16.733043706193058,0 
-93.1197738647461,16.733390471628066,0 
-93.11972290277481,16.73369613841419,0 
-93.11966925859451,16.734009510576723,0 
-93.1196129322052,16.73431517636993,0 
-93.11955392360687,16.73465680226449,0 
-93.11948418617249,16.734985584501953,0 
-93.11940908432007,16.73537087546457,0 
-93.11861515045166,16.73526556267883,0 
-93.11789095401764,16.73516538704813,0 
-93.11732232570648,16.73508576022718,0 
-93.11731696128845,16.735167955654703,0 
-93.11781048774719,16.735250151046767,0 
-93.11860710382462,16.73535546384102,0 
-93.11938494443893,16.73546077657708,0 
-93.11934471130371,16.735594343865934,0 
-93.11927497386932,16.7360669658285,0 
-93.11922669410706,16.7363623539598,0 
-93.11921864748001,16.73660893848393,0 
-93.1191435456276,16.73705844070161,0 
-93.11911404132843,16.737258789919824,0 
-93.11903089284897,16.73776223061522,0 
-93.11891824007034,16.73847886073906,0 
-93.1187304854393,16.73926227051424,0 
-93.11881899833679,16.739287956026107,0 
-93.11864733695984,16.739932661239276,0 
-93.1185132265091,16.740649283198493,0 
-93.11838448047638,16.741324806089406,0 
-93.11826646327972,16.742036285783332,0 
-93.1181538105011,16.742737488801914,0 
-93.11803579330444,16.743456668703356,0 
-93.11789095401764,16.744186119829195,0 
-93.1177219748497,16.745010601716853,0 
-93.11762005090714,16.745567959724657,0 
-93.11751812696457,16.746127884559918,0 
-93.11736524105072,16.746980610962513,0 
-93.11722308397293,16.747779396387564,0 
-93.11707824468613,16.74859358901515,0 
-93.11693072319031,16.74942832547601,0 
-93.11677783727646,16.75023480584196,0 
-93.11661422252655,16.751036146006314,0 
-93.11655253171921,16.751914534234118,0 
-93.11640232801437,16.752672205034173,0 
-93.1162816286087,16.75361993138245,0 
-93.11609923839569,16.754459782495086,0 
-93.11595171689987,16.755289356561235,0 
-93.11593294143677,16.756059855550777,0 
-93.11576664447784,16.75689455926901,0 
-93.11553597450256,16.75746986062341,0 
-93.1153267621994,16.757996362570744,0 
-93.11522215604782,16.758517726478118,0 
-93.11514437198639,16.758980018402994,0 
-93.11501026153564,16.759683727287904,0 
-93.1149297952652,16.76014087984037,0 
-93.11477959156036,16.760924200480467,0 
-93.11468839645386,16.761425010347043,0 
-93.11461329460144,16.761874453976553,0 
-93.11445504426956,16.762724541595038,0 
-93.11435043811798,16.763302393547463,0 
-93.11427533626556,16.763756969183042,0 
-93.11413586139679,16.764406727951048,0 
-93.1140473484993,16.764799663994562,0 
-93.11395078897476,16.765297895457667,0 
-93.1138676404953,16.765726784383112,0 
-93.11380058526993,16.766140263209923,0 
-93.11366111040115,16.766769468395413,0 
-93.11353504657745,16.767473148463388,0 
-93.11346799135208,16.767747942527492,0 
-93.11334729194641,16.768359165283492,0 
-93.11321586370468,16.769067975767168,0 
-93.11304152011871,16.769789624305957,0 
-93.11289936304092,16.77041368115421,0 
-93.11282157897949,16.77064994905604,0 
-93.11264723539352,16.771248321885274,0 
-93.11255872249603,16.771600153957156,0 
-93.11252385377884,16.771913463721255,0 
-93.11239778995514,16.772673622969936,0 
-93.11230927705765,16.773251444689727,0 
-93.11223953962326,16.773608409230054,0 
-93.11213493347168,16.774232453542762,0 
-93.11206251382828,16.774694707268363,0 
-93.11152875423431,16.77446614862232,0 
-93.11102449893951,16.77427611088715,0 
-93.1110405921936,16.774784589806675,0 
-93.11106204986572,16.775357268981278,0 
-93.11107009649277,16.775876017237465,0 
</coordinates>
      </LineString>
    </Placemark>
  </Document>
</kml>
