<?xml version="1.0" encoding="UTF-8"?>
<kml xmlns="http://earth.google.com/kml/2.1">
  <Document>
    <name>Ruta</name>
    <description>Ruta</description>
    <Style id="yellowLine">
      <LineStyle>
        <color>ffff0000</color>
        <width>4</width>
      </LineStyle>
    </Style>
    <Style id="redLine">
      <LineStyle>
        <color>ff0000ff</color>
        <width>4</width>
      </LineStyle>
    </Style>
    <Placemark>
      <name>Linea Azul</name>
      <styleUrl>#yellowLine</styleUrl>
      <LineString>
        <altitudeMode>relative</altitudeMode>
        <coordinates>
-93.11783194541931,16.749312746799724,0 
-93.11793655157089,16.748727147094833,0 
-93.11881899833679,16.748858136658896,0 
-93.11963975429535,16.748966010349864,0 
-93.12052220106125,16.749076452398725,0 
-93.12127590179443,16.749192031218467,0 
-93.1214314699173,16.748452325559693,0 
-93.12159240245819,16.74762785857414,0 
-93.12175065279007,16.746839346310328,0 
-93.1219732761383,16.745675835279688,0 
-93.122099339962,16.74495666375856,0 
-93.12222272157669,16.744242626489942,0 
-93.1223514676094,16.743603072850604,0 
-93.12248289585114,16.742863345480703,0 
-93.12335193157196,16.742996907579474,0 
-93.12419414520264,16.743143312080147,0 
-93.12502026557922,16.743264031496047,0 
-93.12620043754578,16.74345410020855,0 
-93.12693536281586,16.743597935864894,0 
-93.12757104635239,16.74403457915622,0 
-93.12772125005722,16.744083380403055,0 
-93.12775611877441,16.74404228461708,0 
-93.12778830528259,16.7440987913205,0 
-93.12864392995834,16.744306838584087,0 
-93.12945932149887,16.744455810559117,0 
-93.13021302223206,16.744599645458912,0 
-93.13082724809647,16.744717795473903,0 
-93.13179016113281,16.744864198651655,0 
-93.13277453184128,16.74501573866446,0 
-93.13363015651703,16.745144162309735,0 
-93.13452869653702,16.74528029127917,0 
-93.13535213470459,16.745408714746027,0 
-93.13577592372894,16.74549604265403,0 
-93.13622385263443,16.745534569659533,0 
-93.13728332519531,16.74572977303427,0 
-93.1385949254036,16.745968640049544,0 
-93.1390455365181,16.746097063052193,0 
-93.13956588506699,16.746122747642325,0 
-93.14067095518112,16.746346203430292,0 
-93.14137905836105,16.746490036902248,0 
-93.14206570386887,16.746911262873635,0 
-93.14244657754898,16.74715783374158,0 
-93.14303129911423,16.747535394764327,0 
-93.14376890659332,16.747884702254673,0 
-93.14415514469147,16.747910386603667,0 
-93.14470499753952,16.747799943878405,0 
-93.14502954483032,16.747853881031304,0 
-93.14546406269073,16.747966892159276,0 
-93.14569741487503,16.748108155974897,0 
-93.14659863710403,16.74877337871597,0 
-93.1473845243454,16.749325588878328,0 
-93.14770102500916,16.74946171485831,0 
-93.1478887796402,16.749466851685842,0 
-93.14866125583649,16.749325588878328,0 
-93.14928889274597,16.74927678897501,0 
-93.15086603164673,16.749384662428774,0 
-93.15117716789246,16.749448872788893,0 
-93.15205425024033,16.74949253582141,0 
-93.15279185771942,16.749705714012816,0 
-93.15377354621887,16.75017830095946,0 
-93.15458357334137,16.750604655567734,0 
-93.15526485443115,16.750941115457984,0 
-93.15579324960709,16.75095909421401,0 
-93.15695732831955,16.751318668977905,0 
-93.15786927938461,16.751583212834806,0 
-93.15833866596222,16.751727042350304,0 
-93.15865248441696,16.751788683537967,0 
-93.1588751077652,16.751863166613077,0 
-93.1591647863388,16.75193764965906,0 
-93.15991044044495,16.75204808998393,0 
-93.16072583198547,16.752125141335423,0 
-93.16145271062851,16.752215034539404,0 
-93.16238343715668,16.75231263282711,0 
-93.16312909126282,16.752381978948485,0 
-93.16322833299637,16.75166283275861,0 
-93.16333293914795,16.75083581128147,0 
-93.16346168518066,16.749995944178835,0 
-93.1635770201683,16.74925881006011,0 
-93.16368162631989,16.748534515219255,0 
-93.16381305456161,16.747589331992174,0 
-93.16403299570084,16.74675972436929,0 
-93.16400349140167,16.745968640049544,0 
-93.16397935152054,16.744879609505922,0 
-93.16401422023773,16.744589371541093,0 
-93.16407054662704,16.744311975550687,0 
-93.16440045833588,16.74332824392013,0 
-93.16467136144638,16.74247293265493,0 
-93.16489934921265,16.74177943421481,0 
-93.16501468420029,16.74143782109198,0 
-93.16521048545837,16.741024288597252,0 
-93.16546529531479,16.740238317530093,0 
-93.16555112600327,16.73957563352227,0 
-93.16565841436386,16.738964318323642,0 
-93.16584080457687,16.738376118234505,0 
-93.16599637269974,16.737854699169773,0 
-93.16622704267502,16.736947991683543,0 
-93.16647112369537,16.736174846764314,0 
-93.16668838262558,16.735501874214396,0 
-93.16698342561722,16.73463882196952,0 
-93.16725432872772,16.733873373553028,0 
-93.16615462303162,16.73332368722296,0 
-93.16624045372009,16.73322864783691,0 
-93.16595882177353,16.732904999842386,0 
-93.16554844379425,16.7323321929176,0 
-93.16520243883133,16.73179277675079,0 
-93.16506832838058,16.731589853130945,0 
-93.1648188829422,16.73140490989683,0 
-93.16560477018356,16.730670272500223,0 
-93.16601783037186,16.730207911847756,0 
-93.16636383533478,16.73028754070673,0 
-93.16650331020355,16.73026699132696,0 
-93.16657841205597,16.730233598580092,0 
-93.16680371761322,16.730017829920865,0 
-93.16735088825226,16.72956060505013,0 
-93.16770493984222,16.729285755864087,0 
-93.16807508468628,16.729519506131624,0 
-93.16810190677643,16.729365385108288,0 
-93.16819310188293,16.729026318418363,0 
-93.16847741603851,16.72837900760831,0 
-93.16869735717773,16.727798480964687,0 
-93.16886633634567,16.727554453750475,0 
-93.16897630691528,16.727508216979956,0 
-93.16968977451324,16.727436293092406,0 
-93.17002236843109,16.727384918870392,0 
-93.17029058933258,16.727269326820267,0 
-93.17051589488983,16.727104929117147,0 
-93.17075192928314,16.72681209535732,0 
-93.17084044218063,16.726637422374125,0 
-93.17130982875824,16.726609166435352,0 
-93.1716799736023,16.725029395923084,0 
-93.17209303379059,16.724197121315804,0 
-93.17246317863464,16.72344704355755,0 
-93.17258387804031,16.723190166934717,0 
-93.17320346832275,16.722324490167857,0 
-93.17384719848633,16.72153587319423,0 
-93.17395716905594,16.72133036986419,0 
-93.1740939617157,16.720934775330473,0 
-93.17419052124023,16.72008706999521,0 
-93.17424952983856,16.71939605891944,0 
-93.17432194948196,16.718797523139113,0 
-93.17438900470734,16.71810393855526,0 
-93.17448824644089,16.717361543373073,0 
-93.17455261945724,16.716996766827084,0 
-93.17373722791672,16.716942820940663,0 
-93.17304521799088,16.71694025208854,0 
-93.17301839590073,16.717060988100563,0 
-93.17194551229477,16.717145760148444,0 
-93.17181140184402,16.717186861733857,0 
-93.17150831222534,16.717343561447013,0 
-93.17063391208649,16.717394938374127,0 
-93.17012697458267,16.717459159513563,0 
-93.16989094018936,16.717366681065933,0 
-93.16944569349289,16.717320441825308,0 
-93.1694483757019,16.717472003738852,0 
-93.16930890083313,16.71800889158248,0 
-93.16922307014465,16.718181003633553,0 
-93.16849082708359,16.718812936101223,0 
-93.16767543554306,16.719514224559642,0 
-93.16729992628098,16.71984046409932,0 
-93.16717654466629,16.71998688638845,0 
-93.16692441701889,16.720631656885764,0 
-93.16685199737549,16.720891105753736,0 
-93.16687077283859,16.721052940017405,0 
-93.16690564155579,16.72121734293829,0 
-93.16702902317047,16.721410002430865,0 
-93.16724628210068,16.721648899931363,0 
-93.16764056682587,16.722249995544356,0 
</coordinates>
      </LineString>
    </Placemark>
    <Placemark>
      <name>Linea Roja</name>
      <styleUrl>#redLine</styleUrl>
      <LineString>
        <altitudeMode>relative</altitudeMode>
        <coordinates>
-93.16945910453796,16.717374387604938,0 
-93.16944301128387,16.71747714142872,0 
-93.16930621862411,16.7180114604202,0 
-93.16922843456268,16.71817586596264,0 
-93.16830843687057,16.718969634478622,0 
-93.16758692264557,16.719593857884586,0 
-93.1673213839531,16.719825051220237,0 
-93.16716849803925,16.719981748766173,0 
-93.16692173480988,16.720641932095166,0 
-93.1668546795845,16.720888536954792,0 
-93.16691100597382,16.721209636554548,0 
-93.16702902317047,16.721417708806516,0 
-93.16725701093674,16.72165660629737,0 
-93.16760569810867,16.722178069673358,0 
-93.16778808832169,16.722614762043914,0 
-93.16791146993637,16.72300007801105,0 
-93.16802144050598,16.723562637924925,0 
-93.16802680492401,16.72385804543433,0 
-93.1679704785347,16.724194552561386,0 
-93.16969782114029,16.72445913408397,0 
-93.16992312669754,16.724495096592673,0 
-93.17084580659866,16.72476738393852,0 
-93.17168265581131,16.72503710215248,0 
-93.17152976989746,16.72573579898954,0 
-93.17131519317627,16.726591185381206,0 
-93.17084044218063,16.726645128538536,0 
-93.1707438826561,16.72681466407647,0 
-93.17055881023407,16.727048417373958,0 
-93.17048102617264,16.72712804755271,0 
-93.17026644945145,16.727277032959133,0 
-93.17003846168518,16.727379781447432,0 
-93.16966563463211,16.727436293092406,0 
-93.16919893026352,16.727474823749823,0 
-93.1689602136612,16.727505648270142,0 
-93.16885828971863,16.72756472858685,0 
-93.16870540380478,16.72779334355287,0 
-93.16848009824753,16.728366164117617,0 
-93.168203830719,16.72899806283365,0 
-93.16809922456741,16.72937052247775,0 
-93.1680777668953,16.729527212179512,0 
-93.16806703805923,16.72963509681733,0 
-93.1680965423584,16.73041083693889,0 
-93.16810458898544,16.73087576576354,0 
-93.16791146993637,16.731605265059017,0 
-93.1678256392479,16.7319057974074,0 
-93.16764861345291,16.732614743633782,0 
-93.16754937171936,16.733036000287342,0 
-93.16749572753906,16.73317213790922,0 
-93.16735088825226,16.73363962862512,0 
-93.16725969314575,16.73386823630495,0 
-93.16698610782623,16.73461570444492,0 
-93.16677689552307,16.735227033596324,0 
-93.16656768321991,16.735871752551283,0 
-93.16645503044128,16.736177415357286,0 
-93.16625118255615,16.736886345692128,0 
-93.16615998744965,16.73718173255314,0 
-93.16599369049072,16.737844424888152,0 
-93.16591322422028,16.738160358794588,0 
-93.16583812236786,16.738365843980997,0 
-93.16566109657288,16.738948906990764,0 
-93.16553235054016,16.739678375379917,0 
-93.1654679775238,16.74024345460642,0 
-93.16521316766739,16.741016583014297,0 
-93.16500931978226,16.741445526657888,0 
-93.16480815410614,16.74206453943473,0 
-93.16462844610214,16.742621906064457,0 
-93.16439777612686,16.74331283294032,0 
-93.16420197486877,16.743913860228737,0 
-93.16407591104507,16.74429142768346,0 
-93.16400617361069,16.74461248785539,0 
-93.16398203372955,16.744887314932583,0 
-93.16400617361069,16.74568610913888,0 
-93.16400617361069,16.746063673079828,0 
-93.16402494907379,16.746757155919024,0 
-93.16382110118866,16.7475867635531,0 
-93.1636843085289,16.748519104660794,0 
-93.16286087036133,16.748493420393906,0 
-93.16193282604218,16.748439483422185,0 
-93.16080629825592,16.7483675674361,0 
-93.16072046756744,16.74834958843534,0 
-93.15989971160889,16.748300788281863,0 
-93.15892606973648,16.74825712497602,0 
-93.15842986106873,16.748234009104188,0 
-93.15771907567978,16.748195482644874,0 
-93.15718799829483,16.748172366765548,0 
-93.15634578466415,16.748100450678574,0 
-93.15590590238571,16.74811586127093,0 
-93.15554648637772,16.748231440673806,0 
-93.15547943115234,16.748234009104188,0 
-93.1545701622963,16.74862441011878,0 
-93.15373599529266,16.748978852451863,0 
-93.15294742584229,16.74932045204699,0 
-93.15205156803131,16.749487398994575,0 
-93.15147757530212,16.749469420099558,0 
-93.15115034580231,16.74943859913273,0 
-93.15086871385574,16.749384662428774,0 
-93.15010964870453,16.749330725709537,0 
-93.14929693937302,16.749266515309564,0 
-93.1486451625824,16.749325588878328,0 
-93.14788341522217,16.749471988513235,0 
-93.14771443605423,16.7494642832721,0 
-93.14738988876343,16.749325588878328,0 
-93.1469875574112,16.749058473464906,0 
-93.14636528491974,16.74859358901515,0 
-93.1457108259201,16.74810301911071,0 
-93.14544260501862,16.747964323725295,0 
-93.14499467611313,16.747848744160258,0 
-93.14471036195755,16.74780764918689,0 
-93.14415246248245,16.747894975994686,0 
-93.14376622438431,16.74788983912475,0 
-93.14331829547882,16.747697206402023,0 
-93.14301520586014,16.747525121004912,0 
-93.14243853092194,16.747152696851757,0 
-93.14203888177872,16.746898420632185,0 
-93.14138442277908,16.746490036902248,0 
-93.14067095518112,16.746343634974455,0 
-93.13957661390305,16.746122747642325,0 
-93.13902944326401,16.746102199970487,0 
-93.13865125179291,16.745986619275136,0 
-93.1382167339325,16.745901860053944,0 
-93.13728600740433,16.74572720457011,0 
-93.13622921705246,16.74553200119274,0 
-93.1358215212822,16.745413851682894,0 
-93.13527971506119,16.745305975979463,0 
-93.13459575176239,16.745203237157476,0 
-93.1338769197464,16.74508508744367,0 
-93.13284695148468,16.7449361159609,0 
-93.1319135427475,16.74478971283843,0 
-93.13107132911682,16.744656151996956,0 
-93.13040345907211,16.744530296502923,0 
-93.12949687242508,16.744365913691578,0 
-93.12866806983948,16.74420666770778,0 
-93.12819331884384,16.744106496778766,0 
-93.12781244516373,16.744014031259074,0 
-93.12775611877441,16.74404485310396,0 
-93.12770783901215,16.74407310645739,0 
-93.12762200832367,16.744478926889624,0 
-93.12748789787292,16.745187826329392,0 
-93.12744230031967,16.745421557087944,0 
-93.1273028254509,16.746143295311924,0 
-93.12718212604523,16.746772566620102,0 
-93.12706679105759,16.747360740778838,0 
-93.12699973583221,16.747740869836257,0 
-93.12687635421753,16.748418936000352,0 
-93.12679320573807,16.748924915617657,0 
-93.1266376376152,16.748899231405517,0 
-93.12581956386566,16.749099568168283,0 
-93.12558889389038,16.749055905045655,0 
-93.1254118680954,16.748919778775505,0 
-93.12532067298889,16.748755399753527,0 
-93.12529921531677,16.748603862716905,0 
-93.12533408403397,16.74837784115007,0 
-93.12543869018555,16.748110724406946,0 
-93.1254655122757,16.74794120781789,0 
-93.12545210123062,16.7477742595145,0 
-93.12540113925934,16.74764583764306,0 
-93.12525898218155,16.747440362468563,0 
-93.12428265810013,16.747263139952466,0 
-93.12336802482605,16.74711930706451,0 
-93.12256872653961,16.746970337173163,0 
-93.1217560172081,16.746839346310328,0 
-93.12098354101181,16.74671349225921,0 
-93.12007427215576,16.74656195359747,0 
-93.11922937631607,16.74641812017985,0 
-93.11908185482025,16.74724002395995,0 
-93.11895310878754,16.748043945162607,0 
-93.11881899833679,16.74884786297085,0 
-93.1186231970787,16.749718556064906,0 
-93.11778098344803,16.749569588207294,0 
-93.11794191598892,16.748727147094833,0 
</coordinates>
      </LineString>
    </Placemark>
  </Document>
</kml>
