<?xml version="1.0" encoding="UTF-8"?>
<kml xmlns="http://earth.google.com/kml/2.1">
  <Document>
    <name>Ruta</name>
    <description>Ruta</description>
    <Style id="yellowLine">
      <LineStyle>
        <color>ffff0000</color>
        <width>4</width>
      </LineStyle>
    </Style>
    <Style id="redLine">
      <LineStyle>
        <color>ff0000ff</color>
        <width>4</width>
      </LineStyle>
    </Style>
    <Placemark>
      <name>Linea Azul</name>
      <styleUrl>#yellowLine</styleUrl>
      <LineString>
        <altitudeMode>relative</altitudeMode>
        <coordinates>
-93.10425460338592,16.744091085861932,0 
-93.10427874326706,16.743944682089836,0 
-93.1043028831482,16.743798278205197,0 
-93.10431629419327,16.74365187420801,0 
-93.10441553592682,16.743662148176398,0 
-93.10451209545135,16.74367755912794,0 
-93.10461401939392,16.743692970078243,0 
-93.10512632131576,16.743767456320412,0 
-93.10603559017181,16.743906154762687,0 
-93.1065022945404,16.74397807243373,0 
-93.10661494731903,16.74399348335971,0 
-93.10671418905258,16.74401916823357,0 
-93.10685098171234,16.744047421590803,0 
-93.10747057199478,16.744186119829194,0 
-93.10797482728958,16.744324817966568,0 
-93.10870438814163,16.744535433463493,0 
-93.10919255018234,16.74467413134646,0 
-93.11006158590317,16.74492584206124,0 
-93.11039686203003,16.745023444085625,0 
-93.11063289642334,16.74507738202501,0 
-93.11085015535354,16.74511847758761,0 
-93.1111478805542,16.745172415500075,0 
-93.11141610145569,16.74522378492631,0 
-93.11162263154983,16.745262311986888,0 
-93.11178088188171,16.74530854444931,0 
-93.11185598373413,16.745326523737212,0 
-93.11198472976684,16.745344503023425,0 
-93.11210811138153,16.74535734536968,0 
-93.11230659484863,16.745390735465882,0 
-93.11264455318451,16.74542669402448,0 
-93.11276525259018,16.745442104833227,0 
-93.11291545629501,16.745454947172902,0 
-93.1130576133728,16.7454677895117,0 
-93.11369866132736,16.745555117392616,0 
-93.11445236206054,16.745665561419933,0 
-93.11510682106018,16.74576316306517,0 
-93.11582028865814,16.74587617543402,0 
-93.11676979064941,16.74602514618138,0 
-93.11755836009979,16.746153569145903,0 
-93.11839252710342,16.74629483430685,0 
-93.1192347407341,16.746438667817592,0 
-93.12005817890167,16.74656965895607,0 
-93.12097817659378,16.746710923808322,0 
-93.1217560172081,16.746849620106765,0 
-93.12256067991257,16.746988316304165,0 
-93.123359978199,16.74711930706451,0 
-93.1240439414978,16.747245160847416,0 
-93.12455892562866,16.74731964570014,0 
-93.12519997358322,16.74743522558636,0 
-93.12526434659958,16.747471183758875,0 
-93.12533140182495,16.74756621603925,0 
-93.12538236379623,16.747643269204737,0 
-93.12542796134949,16.74770748015216,0 
-93.1254494190216,16.747771691077922,0 
-93.12546014785766,16.74786415477298,0 
-93.1254494190216,16.74803880829669,0 
-93.12541723251343,16.74815438774635,0 
-93.12537431716919,16.74825969340606,0 
-93.12531530857086,16.748421504428215,0 
-93.12531530857086,16.748472872977903,0 
-93.12529921531677,16.748557631054613,0 
-93.12529116868973,16.74863468381888,0 
-93.12530189752579,16.74871430497585,0 
-93.12531799077987,16.74878108398507,0 
-93.12534213066101,16.748817041903407,0 
-93.12538772821426,16.748896662984116,0 
-93.12542259693146,16.748932620880623,0 
-93.12552183866501,16.749009673493116,0 
-93.12558352947235,16.749053336626367,0 
-93.12567740678787,16.749076452398725,0 
-93.12578737735748,16.749096999749593,0 
-93.12583029270172,16.749091862912074,0 
-93.12597513198852,16.749063610303317,0 
-93.12659472227096,16.748899231405516,0 
-93.12662959098816,16.74889409456268,0 
-93.12676906585693,16.7489223471966,0 
-93.12682539224624,16.74893005245967,0 
-93.12687635421753,16.748950599826326,0 
-93.12694609165191,16.74897114719077,0 
-93.12707751989364,16.749032789270778,0 
-93.12721967697143,16.749099568168283,0 
-93.12730550765991,16.749186894383516,0 
-93.12736451625824,16.749266515309564,0 
-93.12743425369262,16.749430893890235,0 
-93.12748521566391,16.749520788366517,0 
-93.12757641077041,16.749662051029187,0 
-93.12762200832367,16.749731398116143,0 
-93.12772661447525,16.74980331358704,0 
-93.12780439853668,16.749854681763914,0 
-93.12787145376205,16.749888071071456,0 
-93.12797874212265,16.749934302410672,0 
-93.12804311513901,16.74994457604009,0 
-93.12816917896271,16.74994714444734,0 
-93.1282389163971,16.749952281261784,0 
-93.12833547592163,16.74995741807607,0 
-93.12845349311828,16.74994457604009,0 
-93.12848567962646,16.74994714444734,0 
-93.1285285949707,16.74994971285458,0 
-93.12859833240509,16.749954849668935,0 
-93.12887728214264,16.749921460373123,0 
-93.12901139259338,16.74991632355785,0 
-93.12917232513428,16.749911186742455,0 
-93.12949419021606,16.74988550266338,0 
-93.12967658042908,16.749872660622546,0 
-93.13008695840835,16.74984440812965,0 
-93.1304544210434,16.74980845040535,0 
-93.13078701496124,16.749790471540663,0 
-93.13128054141998,16.749762219035577,0 
-93.1317526102066,16.7497365349364,0 
-93.13219517469406,16.749713419244177,0 
-93.13261896371841,16.749685166727655,0 
-93.13309103250503,16.74964920897328,0 
-93.13347458839416,16.74962609327045,0 
-93.13400030136108,16.749597840740964,0 
-93.13454747200012,16.749574725031912,0 
-93.13483715057373,16.749559314557633,0 
-93.13496321439743,16.749577293444165,0 
-93.1352099776268,16.749608114388536,0 
-93.13573032617569,16.749677461495146,0 
-93.13620775938034,16.74975708221602,0 
-93.13674420118332,16.749841839720996,0 
-93.1371921300888,16.749908618334707,0 
-93.13796728849411,16.750021628243015,0 
-93.13881486654281,16.750134638084237,0 
-93.13952833414078,16.750260489873902,0 
-93.13997626304626,16.750378636376254,0 
-93.14013451337814,16.750430004397877,0 
-93.14028203487396,16.75049421440542,0 
-93.14041346311569,16.750563561189242,0 
-93.14052075147629,16.750612360762712,0 
-93.14076751470566,16.75071252826907,0 
-93.1409016251564,16.75077416978524,0 
-93.14097136259079,16.75077673818131,0 
-93.14112693071365,16.75076646459682,0 
-93.14131736755371,16.750751054219023,0 
-93.1415131688118,16.750730507046686,0 
-93.14153462648392,16.75072793864999,0 
-93.14159899950027,16.751041282791355,0 
-93.14163655042648,16.751221070180573,0 
-93.14164191484451,16.75127757475356,0 
-93.14164191484451,16.751472772240223,0 
-93.1416580080986,16.751621738608545,0 
-93.14168214797973,16.751742452649093,0 
-93.14172506332397,16.751976175361054,0 
-93.1417652964592,16.75223301317512,0 
-93.14181089401245,16.75247187203119,0 
-93.14184039831161,16.75267477340463,0 
-93.14186453819275,16.75290849497181,0 
-93.14191550016403,16.753175604982885,0 
-93.14196646213531,16.753512060328756,0 
-93.14204156398773,16.75387676697847,0 
-93.14208716154098,16.75411562377172,0 
-93.14212739467621,16.754344206873813,0 
-93.1421434879303,16.754544537906085,0 
-93.1421622633934,16.75471661695776,0 
-93.14217031002044,16.75482962401153,0 
-93.14219444990158,16.754878422491284,0 
-93.1422159075737,16.754981156091958,0 
-93.14222663640976,16.75500683948345,0 
-93.14228564500809,16.755011976161345,0 
-93.14252436161041,16.75503765954869,0 
-93.14270406961441,16.755045364564225,0 
-93.1427925825119,16.75506077459433,0 
-93.14292669296264,16.755063342932565,0 
-93.14304202795028,16.75507361628515,0 
-93.14324051141739,16.755091594650832,0 
-93.14333975315094,16.755094162988648,0 
-93.14345240592956,16.755094162988648,0 
-93.14357042312622,16.755107004677214,0 
-93.14369648694992,16.755119846364902,0 
-93.14379036426544,16.755114709689934,0 
-93.14399152994156,16.755122414702334,0 
-93.1441980600357,16.755135256388993,0 
-93.14436167478561,16.75515323474885,0 
-93.14457356929779,16.755163508096572,0 
-93.14484179019928,16.755178918117124,0 
-93.14502954483032,16.755194328136433,0 
-93.14512878656387,16.755212306490715,0 
-93.14529776573181,16.755225148171305,0 
-93.14553916454315,16.7552277165073,0 
-93.1457644701004,16.755248263194172,0 
-93.1459790468216,16.755263673207853,0 
-93.14633309841156,16.755279083220305,0 
-93.1464672088623,16.755279083220305,0 
-93.14670324325561,16.75530990324145,0 
-93.1469714641571,16.755338154923102,0 
-93.1471699476242,16.755348428260852,0 
-93.14737111330032,16.7553561332638,0 
-93.14758032560348,16.7553561332638,0 
-93.14773052930832,16.7553561332638,0 
-93.14794510602951,16.75536640660057,0 
-93.14811944961548,16.75537924827075,0 
-93.14836084842682,16.755386953272452,0 
-93.14852446317673,16.755404931608545,0 
-93.14874440431595,16.755422909942933,0 
-93.14899921417236,16.755440888275615,0 
-93.1492406129837,16.755464003272283,0 
-93.14953833818435,16.755487118266146,0 
-93.14991116523742,16.755510233257194,0 
-93.15016865730285,16.755538484909113,0 
-93.15045833587646,16.75554875823605,0 
-93.15066486597061,16.75556930488825,0 
-93.15079361200332,16.75556930488825,0 
-93.15091967582702,16.755571873219615,0 
-93.15109670162201,16.755597556531405,0 
-93.15127372741699,16.755615534847585,0 
-93.1514373421669,16.755612966516807,0 
-93.15159022808075,16.75562837650096,0 
-93.15175920724869,16.755630944831537,0 
-93.15196573734283,16.755654059805117,0 
-93.15212398767471,16.755659196465533,0 
-93.15238416194916,16.7556771747759,0 
-93.15277308225632,16.755695153084563,0 
-93.15314322710037,16.75572854136757,0 
-93.15353482961654,16.755759361315935,0 
-93.15396398305893,16.755772202959605,0 
-93.15433412790298,16.755803022900878,0 
-93.1546238064766,16.755818432869652,0 
-93.15469890832901,16.75582100119766,0 
-93.15481156110763,16.75583127450934,0 
-93.15507978200912,16.75585952611359,0 
-93.15520316362381,16.75586466276847,0 
-93.15534800291061,16.7558749360778,0 
-93.15556794404983,16.75589291436777,0 
-93.15576910972595,16.75589291436777,0 
-93.1559756398201,16.755916029309546,0 
-93.1561553478241,16.755916029309546,0 
-93.15639942884445,16.755936575922092,0 
-93.1565335392952,16.755946849227527,0 
-93.1566247344017,16.75596225918465,0 
-93.1567856669426,16.755975100814627,0 
-93.15697878599167,16.756003352397542,0 
-93.15713703632355,16.75604701392651,0 
-93.1573274731636,16.75607526549875,0 
-93.1574884057045,16.756121495335165,0 
-93.15783441066742,16.75619597671467,0 
-93.15853714942932,16.756355212669636,0 
-93.15954029560089,16.7565760881285,0 
-93.15965831279754,16.756630022794624,0 
-93.15969586372375,16.756822646477424,0 
-93.15971732139587,16.756920242402294,0 
-93.15972805023193,16.75708204606217,0 
-93.15971195697784,16.75723357634905,0 
-93.15970122814178,16.757367128366265,0 
-93.15969049930572,16.75744417756432,0 
-93.1596502661705,16.757534068255957,0 
-93.1596127152443,16.757636800422975,0 
-93.15958052873611,16.757744669138642,0 
-93.15953761339187,16.757898767197812,0 
-93.15947592258453,16.758122209161932,0 
-93.15942227840423,16.758307126451065,0 
-93.15935790538788,16.75850745331147,0 
-93.15931767225265,16.75866668733212,0 
-93.15922647714615,16.758946630690488,0 
-93.15916210412979,16.759172639706843,0 
-93.1590735912323,16.759457718878668,0 
-93.15899580717087,16.759670885908207,0 
-93.15893411636352,16.759812141037176,0 
-93.15885365009308,16.76002530766962,0 
-93.15875440835953,16.760274429816906,0 
-93.15868735313415,16.76044136715574,0 
-93.15859615802765,16.760672510921555,0 
-93.15850228071213,16.76089851788767,0 
-93.1583896279335,16.761183594473376,0 
-93.15827697515487,16.761442988112605,0 
-93.15817773342132,16.761684403657074,0 
-93.15803289413452,16.762025980446594,0 
-93.15798193216324,16.7621620973422,0 
-93.15794438123703,16.76227766821483,0 
-93.15792828798294,16.762372693101952,0 
-93.15790683031082,16.762467717941604,0 
-93.15788000822067,16.762567879207687,0 
-93.15786123275757,16.762614107466557,0 
-93.15781831741333,16.762737382768605,0 
-93.15776735544205,16.762842680359174,0 
-93.15773248672485,16.762937704964052,0 
-93.15768957138061,16.76301988836782,0 
-93.15762251615524,16.76309693527661,0 
-93.15756887197494,16.763135458719294,0 
-93.1574884057045,16.76320223266815,0 
-93.15746158361435,16.763238187861656,0 
-93.15744549036026,16.76331523468203,0 
-93.15744012594223,16.76335889453305,0 
-93.15753132104873,16.763407690825268,0 
-93.15757691860199,16.763435941304504,0 
-93.15760374069214,16.763446214205014,0 
-93.15768152475357,16.763451350655067,0 
-93.15772712230682,16.763441077754834,0 
-93.1577941775322,16.763459055329857,0 
-93.1579202413559,16.763497578699212,0 
-93.15808922052383,16.76352582916512,0 
-93.15819382667541,16.763556647850404,0 
-93.15848350524902,16.76362085342871,0 
-93.15854251384735,16.763641399209188,0 
-93.15867394208908,16.76367992254161,0 
-93.15884560346603,16.76374926452031,0 
-93.15913259983063,16.76382887935356,0 
-93.15932303667068,16.763875107305953,0 
-93.15948396921158,16.76391619880977,0 
-93.15954029560089,16.763931608121417,0 
-93.1595242023468,16.764075428303208,0 
-93.15951347351074,16.764201270873066,0 
-93.15949738025665,16.764355363702364,0 
-93.15948128700256,16.76451972924934,0 
-93.15944105386734,16.764827914267073,0 
-93.15939545631408,16.765087302936624,0 
-93.15936863422394,16.7653158728572,0 
-93.15933376550674,16.76550335135102,0 
-93.15929889678955,16.76571651160579,0 
-93.15925866365433,16.765860330437892,0 
-93.15925061702728,16.765950217152717,0 
-93.15922111272812,16.766068353913308,0 
-93.15918892621994,16.76618649060053,0 
-93.15915942192077,16.766332877263313,0 
-93.15913259983063,16.7664227637548,0 
-93.15911114215851,16.766463854708192,0 
-93.15908163785934,16.76651521838743,0 
-93.1590548157692,16.766561445686893,0 
-93.15900653600693,16.766641059342955,0 
-93.15895289182663,16.766746354772372,0 
-93.15882682800293,16.76695694545629,0 
-93.15864711999893,16.76724971748306,0 
-93.15851300954819,16.76746801212196,0 
-93.1584084033966,16.767660624830537,0 
-93.15836817026138,16.76771198818654,0 
-93.15833866596222,16.767765919695403,0 
-93.15830916166305,16.767832692018537,0 
-93.15830379724502,16.767868646336666,0 
-93.15827965736389,16.767899464318223,0 
-93.1582099199295,16.76787891899773,0 
-93.15814018249512,16.767871214501994,0 
-93.1580463051796,16.767850669178447,0 
-93.1579577922821,16.76783782835012,0 
-93.15784513950348,16.76781985118899,0 
-93.15778881311416,16.767817283022975,0 
-93.15766543149948,16.767794169527285,0 
-93.1575956940651,16.76778132869514,0 
-93.1574884057045,16.767765919695403,0 
-93.15737843513489,16.767753078861354,0 
-93.15719604492187,16.76771455635398,0 
-93.15700829029083,16.76768887467805,0 
-93.15679371356964,16.767650352157662,0 
-93.1565523147583,16.767624670473072,0 
-93.15625727176666,16.767591284277916,0 
-93.15620630979538,16.767686306510267,0 
-93.15615803003311,16.76772226085607,0 
-93.15609633922577,16.76777362419543,0 
-93.15601050853729,16.76782755568683,0 
-93.15595149993896,16.767868646336666,0 
-93.15588444471359,16.767917441471823,0 
-93.15579324960708,16.76798164557795,0 
-93.15569400787353,16.768045849662403,0 
-93.15565377473831,16.768079235777747,0 
-93.15559476613998,16.768128030858864,0 
-93.15552771091461,16.768163985121152,0 
-93.155417740345,16.768256438907233,0 
-93.15532118082046,16.76832321105812,0 
-93.15524339675903,16.7683797105521,0 
-93.15517097711563,16.76844391450214,0 
-93.15514415502548,16.76851325474384,0 
-93.1551119685173,16.768621117291786,0 
-93.15509855747223,16.76870843454768,0 
-93.15508514642715,16.76876750208041,0 
-93.15507709980011,16.76883427405184,0 
-93.15507173538208,16.768919023058718,0 
-93.155058324337,16.76899863572775,0 
-93.15520584583282,16.76902688537648,0 
-93.15547943115234,16.769065407617997,0 
-93.15588176250458,16.769134747633064,0 
-93.15613925457001,16.769188678738405,0 
-93.15638870000839,16.769234905387968,0 
-93.15648257732391,16.769242609828467,0 
-93.15667033195495,16.76907824836344,0 
-93.15681517124176,16.768965249773824,0 
-93.15697073936462,16.768862523724998,0 
-93.15734624862671,16.768598003893803,0 
-93.1575259566307,16.76847473239046,0 
-93.15798193216324,16.768163985121152,0 
-93.1580838561058,16.76809464475208,0 
-93.15816164016723,16.76802787252094,0 
-93.15823674201965,16.767950827609713,0 
-93.15827161073684,16.767922577801105,0 
-93.15830379724502,16.767912305142403,0 
-93.15835744142532,16.76793285045927,0 
-93.1584084033966,16.767955963938103,0 
-93.15851837396621,16.767986781905502,0 
-93.15867394208908,16.76805098598822,0 
-93.1587865948677,16.768097212914352,0 
-93.15889924764633,16.768128030858864,0 
-93.15905213356018,16.76818196224974,0 
-93.15921306610107,16.76824616626656,0 
-93.15930962562561,16.76828468866624,0 
-93.1594169139862,16.768351460807203,0 
-93.15952688455581,16.76842593739831,0 
-93.15959393978119,16.768464459761578,0 
-93.15969854593277,16.768531231839414,0 
-93.1598836183548,16.768664775924744,0 
-93.16003918647766,16.76877007023359,0 
-93.16036641597748,16.76897809052602,0 
-93.16071778535843,16.76921692835892,0 
-93.16103428602218,16.76942751630678,0 
-93.16120862960815,16.769548219049795,0 
-93.16139906644821,16.769666353575143,0 
-93.16162437200546,16.76982557825406,0 
-93.1619730591774,16.770056710615193,0 
-93.16224664449692,16.77025445696781,0 
-93.16258728504181,16.770506133846407,0 
-93.16278845071792,16.770657653439198,0 
-93.16297084093094,16.77079119603103,0 
-93.16313445568085,16.770919602280873,0 
-93.16326588392257,16.771027463463713,0 
-93.16351532936096,16.771222640686645,0 
-93.16372990608215,16.7713715915904,0 
-93.1638291478157,16.771446066998503,0 
-93.16398739814758,16.771551359767095,0 
-93.16413223743439,16.77164124379169,0 
-93.164242208004,16.771718287207534,0 
-93.16436290740967,16.771805603041066,0 
-93.1644594669342,16.771856965277365,0 
-93.16455066204071,16.771928872384855,0 
-93.1646740436554,16.772003347574646,0 
-93.16482961177826,16.77210350381838,0 
-93.16500395536423,16.77221650054283,0 
-93.16512197256088,16.772298679936604,0 
-93.16519170999527,16.772350042039686,0 
-93.16529095172882,16.772403972232982,0 
-93.1655216217041,16.772532377393524,0 
-93.16560477018356,16.77258630753508,0 
-93.165682554245,16.772463038617587,0 
-93.1658086180687,16.772272998879863,0 
-93.16601514816284,16.771941712936893,0 
-93.16616803407669,16.771700310413298,0 
-93.16632360219955,16.771453771349414,0 
-93.16670447587967,16.77171571909418,0 
-93.16679298877716,16.77159244961219,0 
-93.16686004400253,16.771492293099218,0 
-93.16691637039184,16.7713972727689,0 
-93.16695660352707,16.77134591040842,0 
-93.16709607839584,16.771435794530152,0 
-93.16713899374008,16.77146661193355,0 
-93.16722214221954,16.771351046645083,0 
-93.16731333732605,16.77120209572525,0 
-93.16745549440384,16.770999214112223,0 
-93.16763520240783,16.770709015985613,0 
-93.16779613494873,16.77046761189679,0 
-93.1680965423584,16.77001305230183,0 
-93.1682950258255,16.769697171265335,0 
-93.16841036081314,16.769525105764515,0 
-93.16854447126388,16.769322222362007,0 
-93.16860884428024,16.76922206465311,0 
-93.16863030195236,16.769168133557233,0 
-93.16861152648926,16.7691270431882,0 
-93.1685471534729,16.769088520959165,0 
-93.16848546266556,16.769047430572932,0 
-93.16829770803451,16.768934431964993,0 
</coordinates>
      </LineString>
    </Placemark>
    <Placemark>
      <name>Linea Roja</name>
      <styleUrl>#redLine</styleUrl>
      <LineString>
        <altitudeMode>relative</altitudeMode>
        <coordinates>
-93.16820114850998,16.76887022818057,0 
-93.16801071166992,16.76877007023359,0 
-93.16790878772735,16.76892415936096,0 
-93.16767543554306,16.76929140461104,0 
-93.16744208335876,16.76966121729296,0 
-93.16724628210068,16.769984802799623,0 
-93.16713362932205,16.770149163480983,0 
-93.16702634096145,16.770313524020252,0 
-93.16691368818283,16.77048045254754,0 
-93.1668010354042,16.770660221566842,0 
-93.16664814949035,16.770909329784075,0 
-93.16655695438385,16.771076257788237,0 
-93.16652745008468,16.771143028948863,0 
-93.16646575927734,16.771240617526057,0 
-93.1663316488266,16.77145120323248,0 
-93.16611438989639,16.771777353805184,0 
-93.16585153341293,16.77220109190255,0 
-93.16561549901962,16.772578603230084,0 
-93.16559940576553,16.772583739433454,0 
-93.16538482904434,16.772450198100763,0 
-93.1651970744133,16.772360314458634,0 
-93.16500931978225,16.77221906864942,0 
-93.16481351852417,16.77209323138555,0 
-93.16456943750381,16.77193400860577,0 
-93.16431730985641,16.771772217580036,0 
-93.16410809755325,16.771620698875537,0 
-93.1639713048935,16.771535951072895,0 
-93.16382110118866,16.77142809017853,0 
-93.16357433795929,16.771263730602793,0 
-93.16341608762741,16.771137892706566,0 
-93.16316664218902,16.77094528352043,0 
-93.16292256116867,16.77075524226553,0 
-93.16262751817703,16.770526678883016,0 
-93.16231906414032,16.770298115225728,0 
-93.16185235977173,16.769966825841472,0 
-93.1613427400589,16.76963553587996,0 
-93.16083043813705,16.76928370017251,0 
-93.16031277179718,16.768934431964993,0 
-93.15972000360489,16.768546640777117,0 
-93.1593605875969,16.76830523394288,0 
-93.1592720746994,16.768261575227367,0 
-93.15908432006836,16.768189666732912,0 
-93.1586229801178,16.768017599867914,0 
-93.15830111503601,16.7678917598233,0 
-93.15833061933517,16.767758215195083,0 
-93.15845936536789,16.767534784549696,0 
-93.15868198871612,16.767172672256553,0 
-93.15890997648239,16.766813127453495,0 
-93.1590548157692,16.766548604771507,0 
-93.15911918878555,16.766458718339496,0 
-93.15914869308471,16.766314899959912,0 
-93.15923988819122,16.76596562629956,0 
-93.15930426120758,16.765590670038492,0 
-93.15937399864197,16.76517462181512,0 
-93.1594330072403,16.764799663994562,0 
-93.1594866514206,16.76442213722295,0 
-93.1595429778099,16.76393674455835,0 
-93.15956175327301,16.763834015793268,0 
-93.15926134586334,16.76374926452031,0 
-93.15891534090042,16.763667081431663,0 
-93.1585505604744,16.763500146923572,0 
-93.15816700458526,16.76337944034182,0 
-93.15795511007309,16.76328698418484,0 
-93.15790146589279,16.763245892545097,0 
-93.15783441066742,16.76304813890466,0 
-93.15794169902801,16.762701427480436,0 
-93.15797924995422,16.762585856865254,0 
-93.15806776285171,16.76238810253863,0 
-93.15815091133117,16.762208325699667,0 
-93.15826088190079,16.761805111314427,0 
-93.15838694572449,16.76142244209467,0 
-93.15850228071213,16.761106546789634,0 
-93.15872222185135,16.76057491692135,0 
-93.15882682800293,16.76032579516754,0 
-93.15893143415451,16.760066400005037,0 
-93.15905749797821,16.759750502448344,0 
-93.1591460108757,16.759547608619037,0 
-93.15922379493713,16.75929591723897,0 
-93.15933108329773,16.75892094783073,0 
-93.15949469804764,16.75838931185521,0 
-93.159559071064,16.75815302872261,0 
-93.1596690416336,16.757780625363615,0 
-93.1597039103508,16.757657346849726,0 
-93.15976291894913,16.757508385205533,0 
-93.15978705883026,16.757441609258222,0 
-93.15981924533844,16.757159095375662,0 
-93.15981924533844,16.75693822059352,0 
-93.15970122814178,16.75646821875039,0 
-93.15893679857254,16.75629614128254,0 
-93.15805166959762,16.756090675445463,0 
-93.1573086977005,16.755931439269162,0 
-93.1569653749466,16.75585695778612,0 
-93.15641552209854,16.755759361315935,0 
-93.15584152936935,16.75571569972095,0 
-93.15542310476303,16.75568744809534,0 
-93.15519511699676,16.75567203811597,0 
-93.15494567155838,16.755690016425117,0 
-93.15468281507492,16.7556669014559,0 
-93.15423756837845,16.755641218153474,0 
-93.1535992026329,16.75559498820037,0 
-93.15292865037918,16.75554618990438,0 
-93.15228223800659,16.75551793825359,0 
-93.15198719501495,16.755499959928183,0 
-93.15152049064636,16.7554562982737,0 
-93.15120667219162,16.75543831994248,0 
-93.15078556537628,16.755399794941262,0 
-93.15056830644607,16.755399794941262,0 
-93.15006136894226,16.75536383826643,0 
-93.14939349889755,16.755320176580714,0 
-93.14875513315201,16.755276514884983,0 
-93.14808994531631,16.755248263194172,0 
-93.1479263305664,16.75524055818686,0 
-93.14748913049698,16.75520460148194,0 
-93.1471511721611,16.755184054790376,0 
-93.14672470092773,16.755142961400565,0 
-93.14626604318619,16.755122414702334,0 
-93.14570009708404,16.75507361628515,0 
-93.14530044794082,16.755040227887232,0 
-93.14473986625671,16.755019681177906,0 
-93.14417123794555,16.754988861109776,0 
-93.14366966485977,16.754929789298547,0 
-93.14298838376999,16.754883559172626,0 
-93.14270675182342,16.754852739082437,0 
-93.14253509044647,16.75471661695776,0 
-93.1423607468605,16.754554811286684,0 
-93.142269551754,16.75436989035127,0 
-93.14221858978271,16.75405141498579,0 
-93.14217031002044,16.753676435243306,0 
-93.14209520816803,16.753170468255447,0 
-93.14201205968857,16.752625974359883,0 
-93.14187526702881,16.751850324705664,0 
-93.14180821180343,16.751470203853543,0 
-93.14179480075836,16.75132637414398,0 
-93.14178675413132,16.75122620696064,0 
-93.14169824123382,16.750941115457983,0 
-93.14163118600845,16.75070482307815,0 
-93.14147561788559,16.750715096665978,0 
-93.14093917608261,16.750781874973363,0 
-93.14050734043121,16.750599518770915,0 
-93.14014792442322,16.750417162393773,0 
-93.13985288143158,16.750316994732003,0 
-93.13937276601791,16.750214258613898,0 
-93.1388121843338,16.750116659250338,0 
-93.13788682222366,16.74999337577223,0 
-93.13709020614624,16.749875229030777,0 
-93.13639014959335,16.74977249267427,0 
-93.13576519489288,16.749662051029187,0 
-93.13498198986053,16.749569588207293,0 
-93.1348317861557,16.749551609320036,0 
-93.13378572463989,16.74959013550493,0 
-93.13304275274277,16.74965177738453,0 
-93.13224881887436,16.7497082824233,0 
-93.13163191080093,16.749731398116143,0 
-93.13073068857193,16.749790471540663,0 
-93.12998503446579,16.749846976538276,0 
-93.1289067864418,16.749918891965514,0 
-93.12821745872497,16.749954849668935,0 
-93.12801629304886,16.74994971285458,0 
-93.12781512737274,16.74985725017239,0 
-93.12761932611465,16.74972626129576,0 
-93.127501308918,16.749559314557633,0 
-93.12743157148361,16.749430893890235,0 
-93.1273403763771,16.74923055747612,0 
-93.12723577022552,16.749112410261276,0 
-93.12701314687729,16.749009673493116,0 
-93.12687367200851,16.748948031405614,0 
-93.12662422657013,16.748896662984116,0 
-93.12580615282059,16.749096999749593,0 
-93.12557011842727,16.749045631368286,0 
-93.12540650367737,16.748919778775505,0 
-93.12531530857086,16.74876310502336,0 
-93.12529385089874,16.748583315312835,0 
-93.12533676624298,16.748341883148786,0 
-93.12543332576751,16.748110724406945,0 
-93.12546014785766,16.747915523473057,0 
-93.1254494190216,16.7478025123146,0 
-93.12540650367737,16.747663816710272,0 
-93.12526166439056,16.747448067791612,0 
-93.12451601028442,16.747296529714482,0 
-93.12376499176025,16.74717067596553,0 
-93.12311589717865,16.747065369703513,0 
-93.12237024307251,16.746939515801784,0 
-93.12173992395401,16.74684448320861,0 
-93.12124103307724,16.746752019018387,0 
-93.1205677986145,16.746639007169356,0 
-93.12005549669266,16.74656195359747,0 
-93.11919718980789,16.74641041481512,0 
-93.11837911605835,16.746279423567106,0 
-93.11749666929245,16.746133021477398,0 
-93.11667323112488,16.746002030038564,0 
-93.11572641134262,16.74584535388553,0 
-93.11464816331863,16.74567326681479,0 
-93.11351090669632,16.745516590391258,0 
-93.11275452375412,16.74542669402448,0 
-93.11181843280792,16.74523919575148,0 
-93.11155289411545,16.74515700466951,0 
-93.11075627803802,16.744997759347217,0 
-93.11044245958328,16.7449489583347,0 
-93.1097424030304,16.744725500907115,0 
-93.10908526182174,16.744543138904085,0 
-93.1083208322525,16.744324817966568,0 
-93.10761004686355,16.744124476180165,0 
-93.1066820025444,16.743924134183004,0 
-93.10656398534775,16.743903586273937,0 
-93.10647547245025,16.744350502795736,0 
-93.10632795095444,16.745131319949106,0 
-93.1059604883194,16.745054265767134,0 
-93.10553669929504,16.744977211553998,0 
-93.10471057891845,16.744717795473903,0 
-93.10418754816055,16.74453800194372,0 
-93.10425192117691,16.744127044665937,0 
-93.10426533222198,16.74401146277177,0 
</coordinates>
      </LineString>
    </Placemark>
  </Document>
</kml>
