<?xml version="1.0" encoding="UTF-8"?>
<kml xmlns="http://earth.google.com/kml/2.1">
  <Document>
    <name>Ruta</name>
    <description>Ruta</description>
    <Style id="yellowLine">
      <LineStyle>
        <color>ffff0000</color>
        <width>4</width>
      </LineStyle>
    </Style>
    <Style id="redLine">
      <LineStyle>
        <color>ff0000ff</color>
        <width>4</width>
      </LineStyle>
    </Style>
    <Placemark>
      <name>Linea Azul</name>
      <styleUrl>#yellowLine</styleUrl>
      <LineString>
        <altitudeMode>relative</altitudeMode>
        <coordinates>
-93.06197762489319,16.76093704177557,0 
-93.06231558322906,16.761425010347043,0 
-93.06257575750351,16.761869317483935,0 
-93.06272327899933,16.762041389911367,0 
-93.06290298700333,16.762275099973984,0 
-93.06303173303604,16.762331601264698,0 
-93.06310951709747,16.76235214718443,0 
-93.06422531604767,16.762305918861898,0 
-93.06517481803894,16.762228871632733,0 
-93.06616991758347,16.762169802069216,0 
-93.06608140468597,16.76093704177557,0 
-93.06656152009964,16.76092163222135,0 
-93.06650787591934,16.7599020306101,0 
-93.06643545627594,16.7594114898528,0 
-93.06630671024323,16.759383238775897,0 
-93.06623697280884,16.758900401540437,0 
-93.06612432003021,16.75786024269472,0 
-93.06706041097641,16.75780887667846,0 
-93.06795358657837,16.757731827628085,0 
-93.06803941726685,16.75875657744622,0 
-93.06809306144714,16.759339578012437,0 
-93.0690398812294,16.759347282853778,0 
-93.06957632303238,16.759344714573377,0 
-93.06960850954056,16.759678590736126,0 
-93.06968629360199,16.760703330069106,0 
-93.070587515831,16.760636555243092,0 
-93.07153701782227,16.76056978039364,0 
-93.07246506214142,16.76049786899109,0 
-93.07293713092804,16.760433662358714,0 
-93.07385444641113,16.76037202397125,0 
-93.0737766623497,16.759347282853778,0 
-93.07368814945221,16.758307126451065,0 
-93.07359963655472,16.757279805904076,0 
-93.07352185249329,16.756244774844067,0 
-93.07342529296875,16.755227716507314,0 
-93.07337433099747,16.754184969236196,0 
-93.0742809176445,16.754087371908586,0 
-93.07522237300873,16.75401032135143,0 
-93.07568907737732,16.75398463782545,0 
-93.07617723941803,16.75392813405608,0 
-93.07665199041367,16.753930702409605,0 
-93.0768021941185,16.75386135685247,0 
-93.07687193155289,16.753766327714654,0 
-93.07689875364304,16.753653320029528,0 
-93.07693898677826,16.7531961518913,0 
-93.07697653770447,16.752895653134917,0 
-93.07703018188477,16.752764666349044,0 
-93.07705163955688,16.752738982654975,0 
-93.07779461145401,16.753275771140405,0 
-93.07846516370773,16.753750917579726,0 
-93.07929128408432,16.754344206873814,0 
-93.07999670505524,16.754837329035485,0 
-93.08073431253433,16.75535870159804,0 
-93.08115541934967,16.755648923144566,0 
-93.08121174573898,16.75568487976553,0 
-93.08127343654633,16.755556463230878,0 
-93.0815926194191,16.754698638556658,0 
-93.0817374587059,16.7540488466339,0 
-93.08187693357468,16.753440146259006,0 
-93.08213174343109,16.75261056413262,0 
-93.08237582445145,16.751837482797374,0 
-93.0825823545456,16.751185112716318,0 
-93.08258503675461,16.751018167257566,0 
-93.08235704898834,16.75040688878985,0 
-93.0822229385376,16.750108954035298,0 
-93.08230340480804,16.749646640561984,0 
-93.08263063430786,16.74887097876817,0 
-93.08294981718063,16.748105587542824,0 
-93.08331459760666,16.747615016381012,0 
-93.08350503444672,16.747573921357198,0 
-93.08365792036057,16.747568784478613,0 
-93.08457791805267,16.747735732962163,0 
-93.08575004339218,16.74790268129934,0 
-93.0867075920105,16.74812356656663,0 
-93.08721452951431,16.748234009104188,0 
-93.08818280696869,16.748447188704795,0 
-93.08930397033691,16.74868091546246,0 
-93.09019714593887,16.748881252454968,0 
-93.09111982584,16.749079020817707,0 
-93.09200495481491,16.749269083725977,0 
-93.09285789728165,16.74944630437491,0 
-93.09360355138779,16.74960297756482,0 
-93.09446722269058,16.749795608359328,0 
-93.09528797864914,16.74998567055219,0 
-93.09597998857498,16.750147480107398,0 
-93.0969375371933,16.75035295236025,0 
-93.09805601835251,16.75060979236443,0 
-93.09868633747101,16.75076132780436,0 
-93.09960097074509,16.750951389033066,0 
-93.1006845831871,16.751190249497352,0 
-93.10182183980942,16.751441951597748,0 
-93.10291081666946,16.751619170223876,0 
-93.10411512851715,16.75181950412431,0 
-93.10519874095917,16.751994154019325,0 
-93.10613483190536,16.75210716268953,0 
-93.10686975717545,16.752225308045738,0 
-93.10695558786392,16.751667969526743,0 
-93.10703337192535,16.751195386278233,0 
-93.10703873634338,16.751069535106627,0 
-93.10715407133102,16.750463393604505,0 
-93.10724526643753,16.74996769170423,0 
-93.10726672410965,16.749762219035578,0 
-93.1073847413063,16.7489223471966,0 
-93.10838252305984,16.749045631368286,0 
-93.10898333787918,16.749132957608253,0 
-93.10928374528885,16.749220283808178,0 
-93.11081528663635,16.74939493608785,0 
-93.11188012361526,16.74952849360536,0 
-93.1128939986229,16.749692871959848,0 
-93.11400979757309,16.749816155632555,0 
</coordinates>
      </LineString>
    </Placemark>
    <Placemark>
      <name>Linea Roja</name>
      <styleUrl>#redLine</styleUrl>
      <LineString>
        <altitudeMode>relative</altitudeMode>
        <coordinates>
-93.11401516199112,16.749816155632555,0 
-93.1144067645073,16.749859818580838,0 
-93.114532828331,16.749094431330853,0 
-93.11371743679047,16.748973715611164,0 
-93.11358600854874,16.74898142087216,0 
-93.11252385377884,16.748806768213136,0 
-93.11196595430374,16.748747694483384,0 
-93.11161458492279,16.748745126059937,0 
-93.11092257499695,16.74865266279271,0 
-93.1100669503212,16.74854222049802,0 
-93.10974508523941,16.748519104660794,0 
-93.10954660177231,16.748601294291525,0 
-93.1094017624855,16.748799062945082,0 
-93.10928106307983,16.749217715391104,0 
-93.10899674892426,16.749138094444653,0 
-93.10838252305984,16.749048199787676,0 
-93.10738205909729,16.748917210354374,0 
-93.10673832893372,16.748835020860025,0 
-93.10566008090973,16.748683483886786,0 
-93.10452282428741,16.748521673087293,0 
-93.10348212718964,16.748352156864115,0 
-93.10245215892792,16.748169798334327,0 
-93.10195326805115,16.748051650461235,0 
-93.1008991599083,16.74765354295779,0 
-93.10026079416275,16.74741981493892,0 
-93.10009449720383,16.74834445157768,0 
-93.09989333152771,16.749387230843585,0 
-93.09972703456879,16.75029644751281,0 
-93.09962511062622,16.750779306577357,0 
-93.09887677431107,16.750612360762712,0 
-93.09803456068039,16.750424867596347,0 
-93.09677124023438,16.750150048511927,0 
-93.09571444988251,16.74991375515018,0 
-93.09431165456772,16.749605545976692,0 
-93.09331119060516,16.749379525599014,0 
-93.09223562479019,16.74916121020673,0 
-93.09116542339325,16.748924915617657,0 
-93.09014081954956,16.748683483886786,0 
-93.08882117271423,16.7484112307166,0 
-93.08767318725586,16.748177503627865,0 
-93.08663785457611,16.747964323725295,0 
-93.08554083108902,16.747738301399224,0 
-93.08422923088074,16.74747375219951,0 
-93.0835747718811,16.74737101454712,0 
-93.08349967002869,16.747245160847417,0 
-93.0833387374878,16.74720663418802,0 
-93.08320194482803,16.7472220448527,0 
-93.08311879634857,16.747304235043348,0 
-93.08307856321335,16.747494299723325,0 
-93.08299273252487,16.747843607289063,0 
-93.08264940977097,16.748588452164068,0 
-93.0823141336441,16.749387230843585,0 
-93.08221489191055,16.74962352485886,0 
-93.08213710784912,16.749975396925,0 
-93.08214783668518,16.75013206967949,0 
-93.08227121829987,16.75042743599714,0 
-93.08244556188583,16.751010462078998,0 
-93.08245092630386,16.75114401846313,0 
-93.08220952749252,16.751983880500514,0 
-93.08197885751724,16.752774939825706,0 
-93.08176964521408,16.75344271461911,0 
-93.0815926194191,16.754256883024517,0 
-93.0814853310585,16.75471918530064,0 
-93.08126002550125,16.75529192489639,0 
-93.08119028806686,16.755605261524252,0 
-93.08114737272263,16.755510233257194,0 
-93.08025151491165,16.754863012446393,0 
-93.07963460683823,16.754431530683032,0 
-93.07886481285095,16.753869061915623,0 
-93.07807087898254,16.75326292932828,0 
-93.07715892791748,16.752584880417764,0 
-93.07696849107742,16.752679910145464,0 
-93.07704895734787,16.752736414285383,0 
-93.07698994874954,16.752859695987,0 
-93.07693362236023,16.7531910151644,0 
-93.07689875364304,16.75365075167226,0 
-93.07686656713486,16.75378430620382,0 
-93.07674318552017,16.753899882165108,0 
-93.07664930820465,16.75393327076308,0 
-93.07617455720901,16.75393327076308,0 
-93.07569175958633,16.753987206178188,0 
-93.0747503042221,16.754046278281976,0 
-93.07380348443985,16.75414644398127,0 
-93.07287812232971,16.754223494483323,0 
-93.07295054197311,16.75524569485844,0 
-93.07304173707962,16.756273026386946,0 
-93.07314902544022,16.757315762216884,0 
-93.07318925857544,16.75833280939367,0 
-93.07274132966995,16.758373902094636,0 
-93.07283788919449,16.759419194691212,0 
-93.07293713092804,16.76043879889011,0 
-93.07244896888733,16.76049786899109,0 
-93.07153970003128,16.76056464386578,0 
-93.07059288024902,16.760633986980082,0 
-93.06968361139297,16.760700761806998,0 
-93.0696165561676,16.759681159012032,0 
-93.06957364082336,16.759347282853778,0 
-93.06904256343842,16.759349851134164,0 
-93.06809574365616,16.759339578012437,0 
-93.06803941726685,16.758761714022885,0 
-93.0679589509964,16.757731827628085,0 
-93.06706845760345,16.757806308377283,0 
-93.06611895561218,16.75785767439423,0 
-93.06624501943588,16.758902969826842,0 
-93.06630671024323,16.759390943615468,0 
-93.06643009185791,16.75940892157325,0 
-93.06650787591934,16.759907167155834,0 
-93.06656420230865,16.760911359184508,0 
-93.06607872247696,16.760939610034484,0 
-93.06616187095642,16.762159529099776,0 
-93.06567639112473,16.762195484490388,0 
-93.06471347808838,16.762254554045917,0 
-93.06372910737991,16.762326464784415,0 
-93.06309878826141,16.76235214718443,0 
-93.06291908025742,16.762290509418563,0 
-93.06274205446243,16.762069640593534,0 
-93.06258648633957,16.76190013643761,0 
-93.06231826543808,16.761425010347043,0 
-93.06198567152023,16.76094217829337,0 
</coordinates>
      </LineString>
    </Placemark>
  </Document>
</kml>
