{
"inicio":[	{
		"latitud":-93.11488687992096,
		"longitud":16.749148368117034
	},
	{
		"latitud":-93.11453014612198,
		"longitud":16.749091862912074
	},
	{
		"latitud":-93.11468034982681,
		"longitud":16.748249419685727
	},
	{
		"latitud":-93.11484396457672,
		"longitud":16.747386425198517
	},
	{
		"latitud":-93.11496198177338,
		"longitud":16.746587638124893
	},
	{
		"latitud":-93.11511486768723,
		"longitud":16.745755457673955
	},
	{
		"latitud":-93.11429411172867,
		"longitud":16.74562189750981
	},
	{
		"latitud":-93.1137415766716,
		"longitud":16.745544843526346
	},
	{
		"latitud":-93.11408221721649,
		"longitud":16.744437831189
	},
	{
		"latitud":-93.11410903930664,
		"longitud":16.74422207861525
	},
	{
		"latitud":-93.11401784420013,
		"longitud":16.7434643741876
	},
	{
		"latitud":-93.11400175094604,
		"longitud":16.742750331323965
	},
	{
		"latitud":-93.11398565769196,
		"longitud":16.741966935893966
	},
	{
		"latitud":-93.11396956443787,
		"longitud":16.741204085444398
	},
	{
		"latitud":-93.11395347118378,
		"longitud":16.740500308246148
	},
	{
		"latitud":-93.1139400601387,
		"longitud":16.739984032078745
	},
	{
		"latitud":-93.11384350061417,
		"longitud":16.73948830289972
	},
	{
		"latitud":-93.1137415766716,
		"longitud":16.739244290653886
	},
	{
		"latitud":-93.11366647481918,
		"longitud":16.739059354848845
	},
	{
		"latitud":-93.113272190094,
		"longitud":16.738440332306343
	},
	{
		"latitud":-93.11258018016815,
		"longitud":16.737574724797398
	},
	{
		"latitud":-93.11213225126266,
		"longitud":16.737035323470575
	},
	{
		"latitud":-93.11220735311508,
		"longitud":16.736680858910017
	},
	{
		"latitud":-93.11237901449203,
		"longitud":16.736131180678605
	},
	{
		"latitud":-93.11258286237717,
		"longitud":16.735422247534064
	},
	{
		"latitud":-93.11275720596313,
		"longitud":16.734852016786398
	},
	{
		"latitud":-93.1128054857254,
		"longitud":16.734764683998687
	},
	{
		"latitud":-93.11223685741425,
		"longitud":16.734721017589834
	},
	{
		"latitud":-93.11157435178757,
		"longitud":16.734631116128305
	},
	{
		"latitud":-93.11077237129211,
		"longitud":16.734335725313237
	},
	{
		"latitud":-93.11018496751785,
		"longitud":16.733999236087765
	},
	{
		"latitud":-93.1096538901329,
		"longitud":16.733490648191815
	},
	{
		"latitud":-93.10928642749786,
		"longitud":16.733133608403456
	},
	{
		"latitud":-93.10868829488754,
		"longitud":16.732488880184672
	},
	{
		"latitud":-93.10834228992462,
		"longitud":16.732149819051074
	},
	{
		"latitud":-93.10791850090027,
		"longitud":16.73179277675079
	},
	{
		"latitud":-93.10751616954803,
		"longitud":16.731499950192326
	},
	{
		"latitud":-93.10720503330231,
		"longitud":16.731315006870975
	},
	{
		"latitud":-93.10664981603622,
		"longitud":16.73103245422795
	},
	{
		"latitud":-93.10585856437683,
		"longitud":16.730688253169607
	},
	{
		"latitud":-93.10502976179123,
		"longitud":16.730264422654336
	},
	{
		"latitud":-93.10427606105804,
		"longitud":16.72994333830323
	},
	{
		"latitud":-93.1032782793045,
		"longitud":16.72958372318789
	},
	{
		"latitud":-93.10273110866547,
		"longitud":16.729465563787628
	},
	{
		"latitud":-93.10195058584213,
		"longitud":16.729421896164656
	},
	{
		"latitud":-93.10106813907623,
		"longitud":16.72943217090037
	},
	{
		"latitud":-93.10074895620346,
		"longitud":16.72946813247103
	},
	{
		"latitud":-93.10047268867493,
		"longitud":16.729527212179512
	},
	{
		"latitud":-93.09949368238449,
		"longitud":16.729796923659578
	},
	{
		"latitud":-93.09865683317184,
		"longitud":16.730143695001765
	},
	{
		"latitud":-93.09801578521729,
		"longitud":16.730595781137566
	},
	{
		"latitud":-93.09745520353317,
		"longitud":16.730975943649074
	},
	{
		"latitud":-93.09685438871384,
		"longitud":16.73139206661001
	},
	{
		"latitud":-93.09614896774292,
		"longitud":16.731882679551283
	},
	{
		"latitud":-93.09563934803009,
		"longitud":16.732262839495974
	},
	{
		"latitud":-93.09480249881744,
		"longitud":16.732840783905115
	},
	{
		"latitud":-93.0947756767273,
		"longitud":16.732917843027263
	},
	{
		"latitud":-93.09470593929291,
		"longitud":16.732904999842386
	},
	{
		"latitud":-93.09408098459244,
		"longitud":16.733336530379603
	},
	{
		"latitud":-93.09359282255173,
		"longitud":16.733665314894953
	},
	{
		"latitud":-93.09300005435944,
		"longitud":16.734081431983935
	},
	{
		"latitud":-93.09265941381454,
		"longitud":16.73429462742442
	},
	{
		"latitud":-93.09187889099121,
		"longitud":16.734746703713895
	},
	{
		"latitud":-93.09107422828674,
		"longitud":16.735191073112293
	},
	{
		"latitud":-93.09049218893051,
		"longitud":16.735478756794496
	},
	{
		"latitud":-93.08991014957428,
		"longitud":16.73575359704949
	},
	{
		"latitud":-93.08943808078766,
		"longitud":16.73597963359763
	},
	{
		"latitud":-93.0888319015503,
		"longitud":16.73627245327266
	},
	{
		"latitud":-93.08845907449722,
		"longitud":16.736452254604526
	},
	{
		"latitud":-93.08773756027222,
		"longitud":16.736781033743988
	},
	{
		"latitud":-93.08725208044052,
		"longitud":16.73700706907326
	},
	{
		"latitud":-93.08643937110901,
		"longitud":16.737412904559697
	},
	{
		"latitud":-93.08570712804794,
		"longitud":16.737785347758066
	},
	{
		"latitud":-93.08509826660156,
		"longitud":16.738080733225274
	},
	{
		"latitud":-93.08500170707703,
		"longitud":16.73817833875725
	},
	{
		"latitud":-93.08508217334747,
		"longitud":16.738052478983008
	},
	{
		"latitud":-93.08509826660156,
		"longitud":16.737913776278344
	},
	{
		"latitud":-93.08509021997452,
		"longitud":16.73770829060434
	},
	{
		"latitud":-93.08515727519989,
		"longitud":16.737209986924547
	},
	{
		"latitud":-93.08518409729004,
		"longitud":16.73694028593571
	},
	{
		"latitud":-93.08517068624496,
		"longitud":16.736598664135133
	},
	{
		"latitud":-93.08514922857285,
		"longitud":16.736498489205285
	},
	{
		"latitud":-93.08493733406067,
		"longitud":16.73588973272991
	},
	{
		"latitud":-93.08482736349106,
		"longitud":16.735594343865934
	},
	{
		"latitud":-93.08451622724533,
		"longitud":16.734893114555003
	},
	{
		"latitud":-93.08440893888474,
		"longitud":16.734649096424
	},
	{
		"latitud":-93.08442771434784,
		"longitud":16.734399940746773
	},
	{
		"latitud":-93.08466106653214,
		"longitud":16.734014647820985
	},
	{
		"latitud":-93.08504462242126,
		"longitud":16.733572844307353
	},
	{
		"latitud":-93.085358440876,
		"longitud":16.733123333867276
	},
	{
		"latitud":-93.0854281783104,
		"longitud":16.732935823484592
	},
	{
		"latitud":-93.08536380529404,
		"longitud":16.732237153037115
	},
	{
		"latitud":-93.08525383472443,
		"longitud":16.731566735236495
	},
	{
		"latitud":-93.08519214391708,
		"longitud":16.731330418821273
	},
	{
		"latitud":-93.08502048254013,
		"longitud":16.730996492952425
	},
	{
		"latitud":-93.08493733406067,
		"longitud":16.730837235793544
	},
	{
		"latitud":-93.08493465185165,
		"longitud":16.730767881827926
	},
	{
		"latitud":-93.08502048254013,
		"longitud":16.730485328373824
	},
	{
		"latitud":-93.08540135622025,
		"longitud":16.73021818654111
	},
	{
		"latitud":-93.08565884828568,
		"longitud":16.730084615484355
	},
	{
		"latitud":-93.08612287044525,
		"longitud":16.72990994549967
	},
	{
		"latitud":-93.08657884597778,
		"longitud":16.729740412714403
	},
	{
		"latitud":-93.08671563863754,
		"longitud":16.72970445119512
	},
	{
		"latitud":-93.08725208044052,
		"longitud":16.729157321529144
	},
	{
		"latitud":-93.08785825967789,
		"longitud":16.728461205928255
	},
	{
		"latitud":-93.08802992105484,
		"longitud":16.728188923857715
	},
	{
		"latitud":-93.08809965848923,
		"longitud":16.727975721587605
	},
	{
		"latitud":-93.0881318449974,
		"longitud":16.727554453750475
	},
	{
		"latitud":-93.08817476034164,
		"longitud":16.72696364972777
	}],"final":[	{
		"latitud":-93.08817744255066,
		"longitud":16.726961081010632
	},
	{
		"latitud":-93.08810770511627,
		"longitud":16.727903797876433
	},
	{
		"latitud":-93.08807283639908,
		"longitud":16.728083607103482
	},
	{
		"latitud":-93.08799773454666,
		"longitud":16.728240297863056
	},
	{
		"latitud":-93.08785289525986,
		"longitud":16.72847148071575
	},
	{
		"latitud":-93.08727622032166,
		"longitud":16.72914190940314
	},
	{
		"latitud":-93.08671563863754,
		"longitud":16.72969417647407
	},
	{
		"latitud":-93.08657348155975,
		"longitud":16.729748118753374
	},
	{
		"latitud":-93.08564007282257,
		"longitud":16.730087184159398
	},
	{
		"latitud":-93.08540672063828,
		"longitud":16.730210480521144
	},
	{
		"latitud":-93.08500975370407,
		"longitud":16.730485328373824
	},
	{
		"latitud":-93.08493465185165,
		"longitud":16.730801274481184
	},
	{
		"latitud":-93.08495879173279,
		"longitud":16.73088860908514
	},
	{
		"latitud":-93.08520019054413,
		"longitud":16.731335556137772
	},
	{
		"latitud":-93.08529675006866,
		"longitud":16.731849287087474
	},
	{
		"latitud":-93.08539867401123,
		"longitud":16.732599331787334
	},
	{
		"latitud":-93.08542281389236,
		"longitud":16.732848489818732
	},
	{
		"latitud":-93.08542549610138,
		"longitud":16.73292554893775
	},
	{
		"latitud":-93.08590561151505,
		"longitud":16.73297949030253
	},
	{
		"latitud":-93.08685779571533,
		"longitud":16.73313617703742
	},
	{
		"latitud":-93.08686047792435,
		"longitud":16.733703844293213
	},
	{
		"latitud":-93.08592438697815,
		"longitud":16.733806589317165
	},
	{
		"latitud":-93.08479249477386,
		"longitud":16.733878510800967
	},
	{
		"latitud":-93.0846557021141,
		"longitud":16.734019785065133
	},
	{
		"latitud":-93.08442771434784,
		"longitud":16.734407646597337
	},
	{
		"latitud":-93.08441162109375,
		"longitud":16.73464652781043
	},
	{
		"latitud":-93.08467447757721,
		"longitud":16.73526299407357
	},
	{
		"latitud":-93.0848354101181,
		"longitud":16.735620029872276
	},
	{
		"latitud":-93.08514654636383,
		"longitud":16.736467666139355
	},
	{
		"latitud":-93.08517336845398,
		"longitud":16.736578115435872
	},
	{
		"latitud":-93.08518141508102,
		"longitud":16.736814425343603
	},
	{
		"latitud":-93.08518141508102,
		"longitud":16.7369582660135
	},
	{
		"latitud":-93.08513045310974,
		"longitud":16.73742061028841
	},
	{
		"latitud":-93.08508485555649,
		"longitud":16.737741682041456
	},
	{
		"latitud":-93.08500170707703,
		"longitud":16.737898364860484
	},
	{
		"latitud":-93.08494806289673,
		"longitud":16.738144947396673
	},
	{
		"latitud":-93.08496952056885,
		"longitud":16.738198887283932
	},
	{
		"latitud":-93.08502584695816,
		"longitud":16.7382014558496
	},
	{
		"latitud":-93.08509021997452,
		"longitud":16.7382014558496
	},
	{
		"latitud":-93.08567494153976,
		"longitud":16.737931756264267
	},
	{
		"latitud":-93.08622479438782,
		"longitud":16.73766205629716
	},
	{
		"latitud":-93.086978495121,
		"longitud":16.737292181435716
	},
	{
		"latitud":-93.08783680200577,
		"longitud":16.73688120852528
	},
	{
		"latitud":-93.08855295181274,
		"longitud":16.73653701803069
	},
	{
		"latitud":-93.08931469917297,
		"longitud":16.736149160832767
	},
	{
		"latitud":-93.09010058641434,
		"longitud":16.73578442023094
	},
	{
		"latitud":-93.09094816446304,
		"longitud":16.735373444068372
	},
	{
		"latitud":-93.0916240811348,
		"longitud":16.735029250850197
	},
	{
		"latitud":-93.0922383069992,
		"longitud":16.734677351170955
	},
	{
		"latitud":-93.09294909238815,
		"longitud":16.734232980574582
	},
	{
		"latitud":-93.09362769126892,
		"longitud":16.73380915794206
	},
	{
		"latitud":-93.09376984834671,
		"longitud":16.733719256050353
	},
	{
		"latitud":-93.09473007917404,
		"longitud":16.733025725745893
	},
	{
		"latitud":-93.0947756767273,
		"longitud":16.732928117574513
	},
	{
		"latitud":-93.09484541416168,
		"longitud":16.732956372576638
	},
	{
		"latitud":-93.09550523757935,
		"longitud":16.732499154755065
	},
	{
		"latitud":-93.09628307819366,
		"longitud":16.731957170410983
	},
	{
		"latitud":-93.09692412614822,
		"longitud":16.73152306809488
	},
	{
		"latitud":-93.09762686491013,
		"longitud":16.731040160214672
	},
	{
		"latitud":-93.0982893705368,
		"longitud":16.730559819779646
	},
	{
		"latitud":-93.09894114732742,
		"longitud":16.730192499806687
	},
	{
		"latitud":-93.09957683086395,
		"longitud":16.729920220209078
	},
	{
		"latitud":-93.10027956962585,
		"longitud":16.729717294595638
	},
	{
		"latitud":-93.1008642911911,
		"longitud":16.72958886055146
	},
	{
		"latitud":-93.10121029615402,
		"longitud":16.729555467685795
	},
	{
		"latitud":-93.10177892446518,
		"longitud":16.729534918227095
	},
	{
		"latitud":-93.10231536626816,
		"longitud":16.729570879778375
	},
	{
		"latitud":-93.10278743505478,
		"longitud":16.729632528136193
	},
	{
		"latitud":-93.10339897871017,
		"longitud":16.729804629696257
	},
	{
		"latitud":-93.10386031866074,
		"longitud":16.729938200949213
	},
	{
		"latitud":-93.10413926839828,
		"longitud":16.730030673300277
	},
	{
		"latitud":-93.10491174459457,
		"longitud":16.73034405148971
	},
	{
		"latitud":-93.10548305511475,
		"longitud":16.730618899149782
	},
	{
		"latitud":-93.10636550188065,
		"longitud":16.731009336265885
	},
	{
		"latitud":-93.10660690069199,
		"longitud":16.731114651403658
	},
	{
		"latitud":-93.10739010572433,
		"longitud":16.73152820540619
	},
	{
		"latitud":-93.10770124197006,
		"longitud":16.731741403702898
	},
	{
		"latitud":-93.10828596353531,
		"longitud":16.732229447098778
	},
	{
		"latitud":-93.10874730348587,
		"longitud":16.73267895964722
	},
	{
		"latitud":-93.10915499925613,
		"longitud":16.73311819659897
	},
	{
		"latitud":-93.10948222875595,
		"longitud":16.73345211875045
	},
	{
		"latitud":-93.10997307300568,
		"longitud":16.733935020519198
	},
	{
		"latitud":-93.11013668775558,
		"longitud":16.734073726120176
	},
	{
		"latitud":-93.11060607433319,
		"longitud":16.734353705636792
	},
	{
		"latitud":-93.11075359582901,
		"longitud":16.73442819553066
	},
	{
		"latitud":-93.11151266098022,
		"longitud":16.734715880364593
	},
	{
		"latitud":-93.11224222183228,
		"longitud":16.734810919008936
	},
	{
		"latitud":-93.11275720596313,
		"longitud":16.734849448175577
	},
	{
		"latitud":-93.11263918876648,
		"longitud":16.735250151046767
	},
	{
		"latitud":-93.11248362064362,
		"longitud":16.735789557427353
	},
	{
		"latitud":-93.11236828565598,
		"longitud":16.736141455052618
	},
	{
		"latitud":-93.11220467090607,
		"longitud":16.736675721737637
	},
	{
		"latitud":-93.11212956905365,
		"longitud":16.737030186307734
	},
	{
		"latitud":-93.11256676912308,
		"longitud":16.73757215622327
	},
	{
		"latitud":-93.11326950788498,
		"longitud":16.73843776374389
	},
	{
		"latitud":-93.11365574598312,
		"longitud":16.739033669306163
	},
	{
		"latitud":-93.11383545398712,
		"longitud":16.739462617414873
	},
	{
		"latitud":-93.11394274234772,
		"longitud":16.73998916916192
	},
	{
		"latitud":-93.11396688222885,
		"longitud":16.740505445315403
	},
	{
		"latitud":-93.11396420001984,
		"longitud":16.741209222494682
	},
	{
		"latitud":-93.11398297548294,
		"longitud":16.741964367379072
	},
	{
		"latitud":-93.11400443315506,
		"longitud":16.74274519431524
	},
	{
		"latitud":-93.11402052640915,
		"longitud":16.743461805692892
	},
	{
		"latitud":-93.11410903930664,
		"longitud":16.744219510130762
	},
	{
		"latitud":-93.1140848994255,
		"longitud":16.744414714853505
	},
	{
		"latitud":-93.11391323804855,
		"longitud":16.744930979011148
	},
	{
		"latitud":-93.11374694108963,
		"longitud":16.745539706593004
	},
	{
		"latitud":-93.11428606510162,
		"longitud":16.745616760578553
	},
	{
		"latitud":-93.11511218547821,
		"longitud":16.745750320746296
	},
	{
		"latitud":-93.11586052179337,
		"longitud":16.74586590158508
	},
	{
		"latitud":-93.11573714017868,
		"longitud":16.746695513102257
	},
	{
		"latitud":-93.11557352542877,
		"longitud":16.74750971036475
	},
	{
		"latitud":-93.11540722846985,
		"longitud":16.74837784115007
	},
	{
		"latitud":-93.11525970697403,
		"longitud":16.749217715391104
	},
	{
		"latitud":-93.11491638422012,
		"longitud":16.749153504953014
	}]}