{
"inicio":[	{
		"latitud":-93.09131294488907,
		"longitud":16.778711131206027
	},
	{
		"latitud":-93.0913719534874,
		"longitud":16.778721403281185
	},
	{
		"latitud":-93.09140145778656,
		"longitud":16.77872653931855
	},
	{
		"latitud":-93.09143632650375,
		"longitud":16.778731675355782
	},
	{
		"latitud":-93.09146046638489,
		"longitud":16.778734243374345
	},
	{
		"latitud":-93.09148997068405,
		"longitud":16.77873937941137
	},
	{
		"latitud":-93.09151947498322,
		"longitud":16.778747083466655
	},
	{
		"latitud":-93.09155434370041,
		"longitud":16.77875478752162
	},
	{
		"latitud":-93.09155434370041,
		"longitud":16.77875478752162
	},
	{
		"latitud":-93.09162676334381,
		"longitud":16.778762491576266
	},
	{
		"latitud":-93.09162676334381,
		"longitud":16.778762491576266
	},
	{
		"latitud":-93.09172064065933,
		"longitud":16.77877533166667
	},
	{
		"latitud":-93.09175550937653,
		"longitud":16.778780467702575
	},
	{
		"latitud":-93.09179306030273,
		"longitud":16.77879330779175
	},
	{
		"latitud":-93.0919674038887,
		"longitud":16.778813851932625
	},
	{
		"latitud":-93.0921819806099,
		"longitud":16.778844668139794
	},
	{
		"latitud":-93.092380464077,
		"longitud":16.778878052358575
	},
	{
		"latitud":-93.09243142604828,
		"longitud":16.778883188391706
	},
	{
		"latitud":-93.09251457452774,
		"longitud":16.77873937941137
	},
	{
		"latitud":-93.09256553649902,
		"longitud":16.77867517893859
	},
	{
		"latitud":-93.09261918067932,
		"longitud":16.778603274383318
	},
	{
		"latitud":-93.09267282485962,
		"longitud":16.778528801779533
	},
	{
		"latitud":-93.09271842241287,
		"longitud":16.778464601235616
	},
	{
		"latitud":-93.09276401996613,
		"longitud":16.778426080898843
	},
	{
		"latitud":-93.09282302856445,
		"longitud":16.77840040066999
	},
	{
		"latitud":-93.09289008378983,
		"longitud":16.778382424507733
	},
	{
		"latitud":-93.0929571390152,
		"longitud":16.778374720437665
	},
	{
		"latitud":-93.09304028749466,
		"longitud":16.778377288461062
	},
	{
		"latitud":-93.09309393167496,
		"longitud":16.778384992531013
	},
	{
		"latitud":-93.09314757585526,
		"longitud":16.77838756055426
	},
	{
		"latitud":-93.09326022863388,
		"longitud":16.77840040066999
	},
	{
		"latitud":-93.09324413537979,
		"longitud":16.778313087865946
	},
	{
		"latitud":-93.09321194887161,
		"longitud":16.778182118584652
	},
	{
		"latitud":-93.09318512678146,
		"longitud":16.778087101598587
	},
	{
		"latitud":-93.09318780899048,
		"longitud":16.77795613216156
	},
	{
		"latitud":-93.09319585561752,
		"longitud":16.777838002787973
	},
	{
		"latitud":-93.0932468175888,
		"longitud":16.77763769629106
	},
	{
		"latitud":-93.09334337711334,
		"longitud":16.777201130117536
	},
	{
		"latitud":-93.0934077501297,
		"longitud":16.77695973427336
	},
	{
		"latitud":-93.09345066547394,
		"longitud":16.776977710570193
	},
	{
		"latitud":-93.09348553419113,
		"longitud":16.77699055078119
	},
	{
		"latitud":-93.09352040290833,
		"longitud":16.777011095116954
	},
	{
		"latitud":-93.09352040290833,
		"longitud":16.777011095116954
	},
	{
		"latitud":-93.09355795383453,
		"longitud":16.777023935325673
	},
	{
		"latitud":-93.09365719556808,
		"longitud":16.776910941459104
	},
	{
		"latitud":-93.09383690357208,
		"longitud":16.77669265766296
	},
	{
		"latitud":-93.09402465820312,
		"longitud":16.77645126117295
	},
	{
		"latitud":-93.0941453576088,
		"longitud":16.776299746198124
	},
	{
		"latitud":-93.09430629014969,
		"longitud":16.776086597808717
	},
	{
		"latitud":-93.09448331594467,
		"longitud":16.775873449180278
	},
	{
		"latitud":-93.09459328651428,
		"longitud":16.77575275045335
	},
	{
		"latitud":-93.09467107057571,
		"longitud":16.775657732252693
	},
	{
		"latitud":-93.09477299451828,
		"longitud":16.77563205164977
	},
	{
		"latitud":-93.09496879577637,
		"longitud":16.775416334448202
	},
	{
		"latitud":-93.09509485960007,
		"longitud":16.7752417060581
	},
	{
		"latitud":-93.09520751237869,
		"longitud":16.775085053983393
	},
	{
		"latitud":-93.09548377990723,
		"longitud":16.774743500651585
	},
	{
		"latitud":-93.09571713209152,
		"longitud":16.774448172087936
	},
	{
		"latitud":-93.09595316648483,
		"longitud":16.7741759557881
	},
	{
		"latitud":-93.09602826833725,
		"longitud":16.774086072961975
	},
	{
		"latitud":-93.09608995914459,
		"longitud":16.774009030505756
	},
	{
		"latitud":-93.09618651866913,
		"longitud":16.77387549017433
	},
	{
		"latitud":-93.09626430273056,
		"longitud":16.773775334864208
	},
	{
		"latitud":-93.09633672237396,
		"longitud":16.77367774758819
	},
	{
		"latitud":-93.0964145064354,
		"longitud":16.77357245599736
	},
	{
		"latitud":-93.09646278619766,
		"longitud":16.773505685690026
	},
	{
		"latitud":-93.09635281562805,
		"longitud":16.773462028168698
	},
	{
		"latitud":-93.09630185365677,
		"longitud":16.773444051539354
	},
	{
		"latitud":-93.09618383646011,
		"longitud":16.773436347269115
	},
	{
		"latitud":-93.09607923030853,
		"longitud":16.773436347269115
	},
	{
		"latitud":-93.09596925973892,
		"longitud":16.773436347269115
	},
	{
		"latitud":-93.09582442045212,
		"longitud":16.773423506818027
	},
	{
		"latitud":-93.09583514928818,
		"longitud":16.773256580874918
	},
	{
		"latitud":-93.09584051370621,
		"longitud":16.77307424621571
	},
	{
		"latitud":-93.09586197137833,
		"longitud":16.77289704757652
	},
	{
		"latitud":-93.09593170881271,
		"longitud":16.772730121171126
	},
	{
		"latitud":-93.09605240821838,
		"longitud":16.772709576372627
	},
	{
		"latitud":-93.09613555669785,
		"longitud":16.77269159967214
	},
	{
		"latitud":-93.09619724750519,
		"longitud":16.77267105486948
	},
	{
		"latitud":-93.09623748064041,
		"longitud":16.772640237661346
	},
	{
		"latitud":-93.09627503156662,
		"longitud":16.772596579941258
	},
	{
		"latitud":-93.0961999297142,
		"longitud":16.77250926447102
	},
	{
		"latitud":-93.09614092111588,
		"longitud":16.772437357583062
	},
	{
		"latitud":-93.09612214565277,
		"longitud":16.77240654033704
	},
	{
		"latitud":-93.09606581926346,
		"longitud":16.77238599550358
	},
	{
		"latitud":-93.09597194194794,
		"longitud":16.77236288256329
	},
	{
		"latitud":-93.09583783149719,
		"longitud":16.772337201515217
	},
	{
		"latitud":-93.0956581234932,
		"longitud":16.772301248042098
	},
	{
		"latitud":-93.09550255537033,
		"longitud":16.7722755669857
	},
	{
		"latitud":-93.09543013572693,
		"longitud":16.772265294562175
	},
	{
		"latitud":-93.09536844491959,
		"longitud":16.772247317819666
	},
	{
		"latitud":-93.09529066085815,
		"longitud":16.772224204862507
	},
	{
		"latitud":-93.0951726436615,
		"longitud":16.77219338758193
	},
	{
		"latitud":-93.09505194425583,
		"longitud":16.77216513840368
	},
	{
		"latitud":-93.09468984603882,
		"longitud":16.77207782273528
	},
	{
		"latitud":-93.09475153684616,
		"longitud":16.771867237722955
	},
	{
		"latitud":-93.09479713439941,
		"longitud":16.77169517418605
	},
	{
		"latitud":-93.09486955404282,
		"longitud":16.771453771349414
	},
	{
		"latitud":-93.09488832950592,
		"longitud":16.7713715915904
	},
	{
		"latitud":-93.0949392914772,
		"longitud":16.771112211493026
	},
	{
		"latitud":-93.09484541416168,
		"longitud":16.77108396215412
	},
	{
		"latitud":-93.09472739696503,
		"longitud":16.771053144688704
	},
	{
		"latitud":-93.094542324543,
		"longitud":16.771006918481227
	},
	{
		"latitud":-93.09431970119476,
		"longitud":16.770950419767917
	},
	{
		"latitud":-93.09396833181381,
		"longitud":16.770870807916147
	},
	{
		"latitud":-93.09346944093704,
		"longitud":16.770726992873584
	},
	{
		"latitud":-93.0930107831955,
		"longitud":16.770601154622103
	},
	{
		"latitud":-93.09273183345795,
		"longitud":16.770531815141826
	},
	{
		"latitud":-93.0922919511795,
		"longitud":16.77041881741606
	},
	{
		"latitud":-93.0919861793518,
		"longitud":16.770336637209695
	},
	{
		"latitud":-93.09208542108536,
		"longitud":16.770025892983266
	},
	{
		"latitud":-93.0921283364296,
		"longitud":16.769833282670614
	},
	{
		"latitud":-93.09219270944595,
		"longitud":16.769548219049796
	},
	{
		"latitud":-93.0922731757164,
		"longitud":16.769255450561936
	},
	{
		"latitud":-93.09235095977783,
		"longitud":16.76895754532209
	},
	{
		"latitud":-93.09239387512207,
		"longitud":16.768780342845968
	},
	{
		"latitud":-93.09240996837616,
		"longitud":16.76869045746887
	},
	{
		"latitud":-93.09243947267532,
		"longitud":16.768520959213575
	},
	{
		"latitud":-93.0924716591835,
		"longitud":16.76838741502724
	},
	{
		"latitud":-93.0925440788269,
		"longitud":16.76811262188723
	},
	{
		"latitud":-93.09264332056046,
		"longitud":16.767719692688743
	},
	{
		"latitud":-93.09275329113007,
		"longitud":16.76724458113559
	},
	{
		"latitud":-93.09282839298248,
		"longitud":16.766908150074677
	},
	{
		"latitud":-93.09287399053574,
		"longitud":16.766712968423025
	},
	{
		"latitud":-93.09290885925293,
		"longitud":16.766538332038575
	},
	{
		"latitud":-93.09294909238815,
		"longitud":16.766379104607104
	},
	{
		"latitud":-93.09301882982254,
		"longitud":16.766109444943286
	},
	{
		"latitud":-93.0930832028389,
		"longitud":16.76589628512892
	},
	{
		"latitud":-93.09313148260117,
		"longitud":16.76574989813008
	},
	{
		"latitud":-93.09328973293304,
		"longitud":16.765374941443692
	},
	{
		"latitud":-93.09345334768295,
		"longitud":16.764987142997242
	},
	{
		"latitud":-93.09354990720749,
		"longitud":16.76475857268163
	},
	{
		"latitud":-93.0936598777771,
		"longitud":16.764553115983713
	},
	{
		"latitud":-93.09372156858444,
		"longitud":16.76444781934001
	},
	{
		"latitud":-93.09383422136307,
		"longitud":16.764198702658188
	},
	{
		"latitud":-93.09402465820312,
		"longitud":16.76377494672822
	},
	{
		"latitud":-93.0942177772522,
		"longitud":16.763351189854184
	},
	{
		"latitud":-93.09438407421112,
		"longitud":16.76298650136432
	},
	{
		"latitud":-93.09453964233398,
		"longitud":16.76264749453541
	},
	{
		"latitud":-93.09468448162079,
		"longitud":16.762334169504793
	},
	{
		"latitud":-93.09488832950592,
		"longitud":16.7618847269614
	},
	{
		"latitud":-93.09502512216568,
		"longitud":16.761584241925803
	},
	{
		"latitud":-93.09505730867386,
		"longitud":16.76152003566008
	},
	{
		"latitud":-93.09516459703445,
		"longitud":16.761538013416676
	},
	{
		"latitud":-93.09520751237869,
		"longitud":16.76154571816897
	},
	{
		"latitud":-93.09532552957535,
		"longitud":16.761561127672646
	},
	{
		"latitud":-93.09544622898102,
		"longitud":16.7615714006744
	},
	{
		"latitud":-93.0955320596695,
		"longitud":16.761576537175074
	},
	{
		"latitud":-93.09561520814896,
		"longitud":16.761579105425348
	},
	{
		"latitud":-93.09569031000137,
		"longitud":16.761584241925803
	},
	{
		"latitud":-93.09576272964478,
		"longitud":16.761581673675593
	},
	{
		"latitud":-93.09581100940704,
		"longitud":16.761584241925803
	},
	{
		"latitud":-93.09588611125946,
		"longitud":16.761579105425348
	},
	{
		"latitud":-93.09593170881271,
		"longitud":16.761576537175074
	},
	{
		"latitud":-93.09600681066513,
		"longitud":16.76156883242401
	},
	{
		"latitud":-93.0960738658905,
		"longitud":16.761563695923133
	},
	{
		"latitud":-93.09617310762405,
		"longitud":16.761550854670332
	},
	{
		"latitud":-93.09622943401337,
		"longitud":16.76152517216214
	},
	{
		"latitud":-93.09625893831253,
		"longitud":16.76152774041311
	},
	{
		"latitud":-93.09629917144775,
		"longitud":16.761532876914956
	},
	{
		"latitud":-93.09634208679199,
		"longitud":16.76153544516583
	},
	{
		"latitud":-93.09639036655426,
		"longitud":16.761532876914956
	},
	{
		"latitud":-93.09645473957062,
		"longitud":16.76153544516583
	},
	{
		"latitud":-93.09652179479599,
		"longitud":16.76153030866406
	},
	{
		"latitud":-93.0966505408287,
		"longitud":16.76152003566008
	},
	{
		"latitud":-93.09687852859497,
		"longitud":16.761499489650475
	},
	{
		"latitud":-93.09706091880798,
		"longitud":16.76149435314773
	},
	{
		"latitud":-93.09728354215622,
		"longitud":16.76149692139912
	},
	{
		"latitud":-93.09752225875854,
		"longitud":16.76149692139912
	},
	{
		"latitud":-93.09772074222565,
		"longitud":16.761499489650475
	},
	{
		"latitud":-93.0978199839592,
		"longitud":16.761507194404338
	},
	{
		"latitud":-93.09799164533615,
		"longitud":16.76152260391113
	},
	{
		"latitud":-93.09814453125,
		"longitud":16.761538013416676
	},
	{
		"latitud":-93.09831351041794,
		"longitud":16.761550854670332
	},
	{
		"latitud":-93.09856563806534,
		"longitud":16.76155599117155
	},
	{
		"latitud":-93.09871315956116,
		"longitud":16.761558559422117
	},
	{
		"latitud":-93.09875339269638,
		"longitud":16.761553422920972
	},
	{
		"latitud":-93.09882044792175,
		"longitud":16.76153030866406
	},
	{
		"latitud":-93.0989009141922,
		"longitud":16.761507194404338
	},
	{
		"latitud":-93.0990082025528,
		"longitud":16.761453261120735
	},
	{
		"latitud":-93.09910207986832,
		"longitud":16.76140703257976
	},
	{
		"latitud":-93.0991879105568,
		"longitud":16.76135053101444
	},
	{
		"latitud":-93.09928447008133,
		"longitud":16.761278619907017
	},
	{
		"latitud":-93.09934616088867,
		"longitud":16.761232391323603
	},
	{
		"latitud":-93.09943467378616,
		"longitud":16.761163048427438
	},
	{
		"latitud":-93.09964925050735,
		"longitud":16.760990975205516
	},
	{
		"latitud":-93.09979140758514,
		"longitud":16.760888244849582
	},
	{
		"latitud":-93.10012400150299,
		"longitud":16.760641691769006
	},
	{
		"latitud":-93.10019373893738,
		"longitud":16.760592894767257
	},
	{
		"latitud":-93.10044050216675,
		"longitud":16.760456776748864
	},
	{
		"latitud":-93.10052901506424,
		"longitud":16.760413116231774
	},
	{
		"latitud":-93.10060679912567,
		"longitud":16.76036945570467
	},
	{
		"latitud":-93.10081869363785,
		"longitud":16.76025902020901
	},
	{
		"latitud":-93.10117810964584,
		"longitud":16.760058695192818
	},
	{
		"latitud":-93.10134708881378,
		"longitud":16.759976510509784
	},
	{
		"latitud":-93.10157775878906,
		"longitud":16.75986093823917
	},
	{
		"latitud":-93.10167968273163,
		"longitud":16.75983011895515
	},
	{
		"latitud":-93.1016394495964,
		"longitud":16.75971711487105
	},
	{
		"latitud":-93.10161262750626,
		"longitud":16.75959640588888
	},
	{
		"latitud":-93.10161799192429,
		"longitud":16.759383238775897
	},
	{
		"latitud":-93.10163140296936,
		"longitud":16.75905449866361
	},
	{
		"latitud":-93.10168236494064,
		"longitud":16.758869582100825
	},
	{
		"latitud":-93.10177356004715,
		"longitud":16.758548545974726
	},
	{
		"latitud":-93.10179501771927,
		"longitud":16.75840472161454
	},
	{
		"latitud":-93.10182988643646,
		"longitud":16.758278875210188
	},
	{
		"latitud":-93.10187011957169,
		"longitud":16.758060570025627
	},
	{
		"latitud":-93.10193717479706,
		"longitud":16.75772155441901
	},
	{
		"latitud":-93.10203105211258,
		"longitud":16.75723357634905
	},
	{
		"latitud":-93.10209542512894,
		"longitud":16.756879149387398
	},
	{
		"latitud":-93.10213029384613,
		"longitud":16.756671115863313
	},
	{
		"latitud":-93.10217320919037,
		"longitud":16.756434830597144
	},
	{
		"latitud":-93.10222148895264,
		"longitud":16.756183135099604
	},
	{
		"latitud":-93.10224294662476,
		"longitud":16.756039308951536
	},
	{
		"latitud":-93.10233414173126,
		"longitud":16.75552821158163
	},
	{
		"latitud":-93.10238778591156,
		"longitud":16.755230284843297
	},
	{
		"latitud":-93.10243606567383,
		"longitud":16.75523542151515
	},
	{
		"latitud":-93.10269087553024,
		"longitud":16.755268809878814
	},
	{
		"latitud":-93.1028464436531,
		"longitud":16.75528678822605
	},
	{
		"latitud":-93.10294032096863,
		"longitud":16.755299629901614
	},
	{
		"latitud":-93.10339093208313,
		"longitud":16.7553561332638
	},
	{
		"latitud":-93.10362428426743,
		"longitud":16.755386953272453
	},
	{
		"latitud":-93.10415267944336,
		"longitud":16.755453729940772
	},
	{
		"latitud":-93.10431092977524,
		"longitud":16.75537411160279
	},
	{
		"latitud":-93.10439139604568,
		"longitud":16.75537667993679
	},
	{
		"latitud":-93.1046462059021,
		"longitud":16.75539208994008
	},
	{
		"latitud":-93.10498148202896,
		"longitud":16.75542804660958
	},
	{
		"latitud":-93.10541331768036,
		"longitud":16.755481981601076
	},
	{
		"latitud":-93.10544282197952,
		"longitud":16.755487118266146
	},
	{
		"latitud":-93.10583174228668,
		"longitud":16.75555132656769
	},
	{
		"latitud":-93.10623675584793,
		"longitud":16.755636081492575
	},
	{
		"latitud":-93.1063386797905,
		"longitud":16.755656628135352
	},
	{
		"latitud":-93.10635477304459,
		"longitud":16.755489686598615
	},
	{
		"latitud":-93.10638964176178,
		"longitud":16.75524569485844
	},
	{
		"latitud":-93.10641914606094,
		"longitud":16.755053069579436
	},
	{
		"latitud":-93.10644060373306,
		"longitud":16.754868149128157
	},
	{
		"latitud":-93.10645937919617,
		"longitud":16.75474486872749
	},
	{
		"latitud":-93.10647815465927,
		"longitud":16.754624156591127
	},
	{
		"latitud":-93.10652107000351,
		"longitud":16.754398142172473
	},
	{
		"latitud":-93.10663640499115,
		"longitud":16.753797147980766
	},
	{
		"latitud":-93.10668736696243,
		"longitud":16.75350692361039
	},
	{
		"latitud":-93.10675173997879,
		"longitud":16.75310112242134
	},
	{
		"latitud":-93.10681074857712,
		"longitud":16.752744119394077
	},
	{
		"latitud":-93.10684829950333,
		"longitud":16.75254635483897
	},
	{
		"latitud":-93.1069153547287,
		"longitud":16.752225308045738
	},
	{
		"latitud":-93.10692340135574,
		"longitud":16.7521354148466
	},
	{
		"latitud":-93.10689926147461,
		"longitud":16.752040384847053
	},
	{
		"latitud":-93.10692876577377,
		"longitud":16.751860598231666
	},
	{
		"latitud":-93.10697972774506,
		"longitud":16.75153184512438
	},
	{
		"latitud":-93.10703605413437,
		"longitud":16.751185112716318
	},
	{
		"latitud":-93.10704678297043,
		"longitud":16.751061829930144
	},
	{
		"latitud":-93.10706824064255,
		"longitud":16.750938547064127
	},
	{
		"latitud":-93.10708701610565,
		"longitud":16.75081269572273
	},
	{
		"latitud":-93.107148706913,
		"longitud":16.750465962004775
	},
	{
		"latitud":-93.10725063085556,
		"longitud":16.750481372405645
	},
	{
		"latitud":-93.1072935461998,
		"longitud":16.75048907760561
	},
	{
		"latitud":-93.10739278793335,
		"longitud":16.750504488004626
	},
	{
		"latitud":-93.10761541128159,
		"longitud":16.75054044559744
	},
	{
		"latitud":-93.10805529356003,
		"longitud":16.75061749755919
	},
	{
		"latitud":-93.10819208621979,
		"longitud":16.75063547634579
	},
	{
		"latitud":-93.10844153165817,
		"longitud":16.750674002311328
	},
	{
		"latitud":-93.10863196849823,
		"longitud":16.75070482307815
	},
	{
		"latitud":-93.10892432928085,
		"longitud":16.750751054219023
	},
	{
		"latitud":-93.10945004224777,
		"longitud":16.75081012732713
	},
	{
		"latitud":-93.10976922512054,
		"longitud":16.750851221652404
	},
	{
		"latitud":-93.11014741659164,
		"longitud":16.750905157940842
	},
	{
		"latitud":-93.11049073934555,
		"longitud":16.750961662607587
	},
	{
		"latitud":-93.1107696890831,
		"longitud":16.751000188507124
	},
	{
		"latitud":-93.11110496520996,
		"longitud":16.75105155636103
	},
	{
		"latitud":-93.11153948307037,
		"longitud":16.751105492592714
	},
	{
		"latitud":-93.111831843853,
		"longitud":16.751151723636287
	},
	{
		"latitud":-93.1119954586029,
		"longitud":16.751182544325758
	},
	{
		"latitud":-93.1122288107872,
		"longitud":16.751215933400395
	},
	{
		"latitud":-93.11244338750839,
		"longitud":16.751249322469164
	},
	{
		"latitud":-93.1126418709755,
		"longitud":16.75130069025585
	},
	{
		"latitud":-93.1128591299057,
		"longitud":16.751352058028665
	},
	{
		"latitud":-93.11317026615143,
		"longitud":16.751429109661903
	},
	{
		"latitud":-93.11344385147095,
		"longitud":16.751467635466824
	},
	{
		"latitud":-93.11365574598312,
		"longitud":16.75150102449145
	},
	{
		"latitud":-93.11405003070831,
		"longitud":16.751570370908503
	},
	{
		"latitud":-93.1144630908966,
		"longitud":16.751626875377784
	},
	{
		"latitud":-93.11481714248657,
		"longitud":16.751685948214107
	},
	{
		"latitud":-93.1152006983757,
		"longitud":16.751729610733523
	},
	{
		"latitud":-93.11575323343277,
		"longitud":16.751811798978196
	},
	{
		"latitud":-93.11575591564178,
		"longitud":16.751583212834806
	},
	{
		"latitud":-93.11576664447784,
		"longitud":16.75131610058914
	},
	{
		"latitud":-93.11578541994095,
		"longitud":16.750938547064127
	},
	{
		"latitud":-93.11564058065414,
		"longitud":16.750912863123656
	},
	{
		"latitud":-93.11462134122849,
		"longitud":16.750779306577357
	}],"final":[	{
		"latitud":-93.11460793018341,
		"longitud":16.750781874973363
	},
	{
		"latitud":-93.1145516037941,
		"longitud":16.750771601389136
	},
	{
		"latitud":-93.11446040868759,
		"longitud":16.750758759408072
	},
	{
		"latitud":-93.11437726020813,
		"longitud":16.750745917426144
	},
	{
		"latitud":-93.11432361602783,
		"longitud":16.750740780633127
	},
	{
		"latitud":-93.11422973871231,
		"longitud":16.75072793864999
	},
	{
		"latitud":-93.11426192522049,
		"longitud":16.750573834784692
	},
	{
		"latitud":-93.11431556940079,
		"longitud":16.750324699938623
	},
	{
		"latitud":-93.114353120327,
		"longitud":16.750147480107398
	},
	{
		"latitud":-93.11441212892532,
		"longitud":16.749864955397634
	},
	{
		"latitud":-93.11454892158508,
		"longitud":16.749882934255286
	},
	{
		"latitud":-93.11472058296204,
		"longitud":16.74990604992692
	},
	{
		"latitud":-93.11513096094131,
		"longitud":16.749972828518114
	},
	{
		"latitud":-93.11507999897003,
		"longitud":16.750239942648616
	},
	{
		"latitud":-93.11497271060944,
		"longitud":16.750822969304732
	},
	{
		"latitud":-93.114894926548,
		"longitud":16.751246754079457
	},
	{
		"latitud":-93.11477959156036,
		"longitud":16.751876008519638
	},
	{
		"latitud":-93.11466962099075,
		"longitud":16.75247187203119
	},
	{
		"latitud":-93.1146588921547,
		"longitud":16.752590017161015
	},
	{
		"latitud":-93.1146427989006,
		"longitud":16.752877674561798
	},
	{
		"latitud":-93.11461865901947,
		"longitud":16.753301454762045
	},
	{
		"latitud":-93.11460793018341,
		"longitud":16.753406757574535
	},
	{
		"latitud":-93.11459720134735,
		"longitud":16.753463261498684
	},
	{
		"latitud":-93.11456233263016,
		"longitud":16.753632773170477
	},
	{
		"latitud":-93.11449259519577,
		"longitud":16.753976932766967
	},
	{
		"latitud":-93.11444967985153,
		"longitud":16.754184969236196
	},
	{
		"latitud":-93.11439871788025,
		"longitud":16.754431530683032
	},
	{
		"latitud":-93.11435043811798,
		"longitud":16.754672955123564
	},
	{
		"latitud":-93.1142994761467,
		"longitud":16.754911810917584
	},
	{
		"latitud":-93.11425656080246,
		"longitud":16.7551275513771
	},
	{
		"latitud":-93.11421632766724,
		"longitud":16.755340723257596
	},
	{
		"latitud":-93.11419486999512,
		"longitud":16.75544602494178
	},
	{
		"latitud":-93.11417609453201,
		"longitud":16.75555132656769
	},
	{
		"latitud":-93.11413586139679,
		"longitud":16.755759361315935
	},
	{
		"latitud":-93.11409026384354,
		"longitud":16.756011057373964
	},
	{
		"latitud":-93.11404466629028,
		"longitud":16.756244774844067
	},
	{
		"latitud":-93.1139749288559,
		"longitud":16.75661204457428
	},
	{
		"latitud":-93.1139400601387,
		"longitud":16.7567455970277
	},
	{
		"latitud":-93.11387032270432,
		"longitud":16.75698188190799
	},
	{
		"latitud":-93.11375230550766,
		"longitud":16.757377401594464
	},
	{
		"latitud":-93.11366647481918,
		"longitud":16.757693303091187
	},
	{
		"latitud":-93.11363160610199,
		"longitud":16.757793466870886
	},
	{
		"latitud":-93.11359405517578,
		"longitud":16.757973247881683
	},
	{
		"latitud":-93.11355650424957,
		"longitud":16.75815302872261
	},
	{
		"latitud":-93.1135082244873,
		"longitud":16.758407289907634
	},
	{
		"latitud":-93.11343848705292,
		"longitud":16.758771987175805
	},
	{
		"latitud":-93.11341166496277,
		"longitud":16.758918379544568
	},
	{
		"latitud":-93.11337411403656,
		"longitud":16.75905193037924
	},
	{
		"latitud":-93.11333388090134,
		"longitud":16.759200890815002
	},
	{
		"latitud":-93.11326682567596,
		"longitud":16.75949624305831
	},
	{
		"latitud":-93.11317294836044,
		"longitud":16.759920008519575
	},
	{
		"latitud":-93.11309784650803,
		"longitud":16.76027186154901
	},
	{
		"latitud":-93.11302542686462,
		"longitud":16.76058775824003
	},
	{
		"latitud":-93.11296105384827,
		"longitud":16.760875403551182
	},
	{
		"latitud":-93.11287254095078,
		"longitud":16.761281188161323
	},
	{
		"latitud":-93.11285644769669,
		"longitud":16.761358235774328
	},
	{
		"latitud":-93.11285108327866,
		"longitud":16.761517467409004
	},
	{
		"latitud":-93.1127142906189,
		"longitud":16.761486648393333
	},
	{
		"latitud":-93.11200350522995,
		"longitud":16.76134796276107
	},
	{
		"latitud":-93.1110405921936,
		"longitud":16.761152775403634
	},
	{
		"latitud":-93.11001867055893,
		"longitud":16.760952451328546
	},
	{
		"latitud":-93.1090047955513,
		"longitud":16.76077267313285
	},
	{
		"latitud":-93.1081411242485,
		"longitud":16.76056978039364
	},
	{
		"latitud":-93.1076180934906,
		"longitud":16.76044907195246
	},
	{
		"latitud":-93.10716480016708,
		"longitud":16.760346341303904
	},
	{
		"latitud":-93.10689389705658,
		"longitud":16.76031809036583
	},
	{
		"latitud":-93.10675173997879,
		"longitud":16.760300112493958
	},
	{
		"latitud":-93.10669809579849,
		"longitud":16.76027186154901
	},
	{
		"latitud":-93.1065022945404,
		"longitud":16.7603643191714
	},
	{
		"latitud":-93.10644596815109,
		"longitud":16.760395138368896
	},
	{
		"latitud":-93.10633599758148,
		"longitud":16.76044650368692
	},
	{
		"latitud":-93.10595780611038,
		"longitud":16.760636555243092
	},
	{
		"latitud":-93.10573786497116,
		"longitud":16.760759831826647
	},
	{
		"latitud":-93.10548841953278,
		"longitud":16.76089851788767
	},
	{
		"latitud":-93.10512900352478,
		"longitud":16.761121956328882
	},
	{
		"latitud":-93.10498684644699,
		"longitud":16.76121441353814
	},
	{
		"latitud":-93.10486882925034,
		"longitud":16.761168184939127
	},
	{
		"latitud":-93.10479909181595,
		"longitud":16.761155343659635
	},
	{
		"latitud":-93.10464084148407,
		"longitud":16.761124524585313
	},
	{
		"latitud":-93.10449868440628,
		"longitud":16.761093705505992
	},
	{
		"latitud":-93.10436457395554,
		"longitud":16.761062886421673
	},
	{
		"latitud":-93.10419827699661,
		"longitud":16.761024362559255
	},
	{
		"latitud":-93.10395956039429,
		"longitud":16.760972997397232
	},
	{
		"latitud":-93.103728890419,
		"longitud":16.760924200480467
	},
	{
		"latitud":-93.10335606336594,
		"longitud":16.760839447911074
	},
	{
		"latitud":-93.1028464436531,
		"longitud":16.760721307902873
	},
	{
		"latitud":-93.10245484113693,
		"longitud":16.76062114566452
	},
	{
		"latitud":-93.10221880674362,
		"longitud":16.760554370809665
	},
	{
		"latitud":-93.10206860303879,
		"longitud":16.760500437255946
	},
	{
		"latitud":-93.10200154781342,
		"longitud":16.760464481544965
	},
	{
		"latitud":-93.10196936130524,
		"longitud":16.760443935421357
	},
	{
		"latitud":-93.10193181037903,
		"longitud":16.760397706635125
	},
	{
		"latitud":-93.10186743736267,
		"longitud":16.760246178868154
	},
	{
		"latitud":-93.10181111097336,
		"longitud":16.76011519714182
	},
	{
		"latitud":-93.10172259807587,
		"longitud":16.75992514506484
	},
	{
		"latitud":-93.10164481401443,
		"longitud":16.75972995624763
	},
	{
		"latitud":-93.10155093669891,
		"longitud":16.75975563899818
	},
	{
		"latitud":-93.10142487287521,
		"longitud":16.759804436214665
	},
	{
		"latitud":-93.10125589370728,
		"longitud":16.759886620972036
	},
	{
		"latitud":-93.10106813907623,
		"longitud":16.759979078781658
	},
	{
		"latitud":-93.10077846050262,
		"longitud":16.76013317503117
	},
	{
		"latitud":-93.10039222240448,
		"longitud":16.760346341303904
	},
	{
		"latitud":-93.10013204813004,
		"longitud":16.760492732461312
	},
	{
		"latitud":-93.09997379779816,
		"longitud":16.760600599557833
	},
	{
		"latitud":-93.09983968734741,
		"longitud":16.760698193544854
	},
	{
		"latitud":-93.0996760725975,
		"longitud":16.760818901827964
	},
	{
		"latitud":-93.0994588136673,
		"longitud":16.760983270430753
	},
	{
		"latitud":-93.09908330440521,
		"longitud":16.761270915143896
	},
	{
		"latitud":-93.0989921092987,
		"longitud":16.76132741673287
	},
	{
		"latitud":-93.09893846511841,
		"longitud":16.761358235774328
	},
	{
		"latitud":-93.09888482093811,
		"longitud":16.7613787817992
	},
	{
		"latitud":-93.09883654117584,
		"longitud":16.761396759569138
	},
	{
		"latitud":-93.09876143932343,
		"longitud":16.76142244209467
	},
	{
		"latitud":-93.0987024307251,
		"longitud":16.76143785160833
	},
	{
		"latitud":-93.09860318899155,
		"longitud":16.761442988112606
	},
	{
		"latitud":-93.09829205274582,
		"longitud":16.761430146851662
	},
	{
		"latitud":-93.09798628091812,
		"longitud":16.76140189607452
	},
	{
		"latitud":-93.0977126955986,
		"longitud":16.761376213546203
	},
	{
		"latitud":-93.09744715690613,
		"longitud":16.761376213546203
	},
	{
		"latitud":-93.09712797403336,
		"longitud":16.761371077040135
	},
	{
		"latitud":-93.0969750881195,
		"longitud":16.761371077040135
	},
	{
		"latitud":-93.09673637151718,
		"longitud":16.7613941913164
	},
	{
		"latitud":-93.0965593457222,
		"longitud":16.76140703257976
	},
	{
		"latitud":-93.0963796377182,
		"longitud":16.76141730558985
	},
	{
		"latitud":-93.09622406959534,
		"longitud":16.76139932782184
	},
	{
		"latitud":-93.09604972600937,
		"longitud":16.761383918305075
	},
	{
		"latitud":-93.09597998857498,
		"longitud":16.761376213546203
	},
	{
		"latitud":-93.09585124254227,
		"longitud":16.76134539450767
	},
	{
		"latitud":-93.09563666582108,
		"longitud":16.761294029432335
	},
	{
		"latitud":-93.09558302164078,
		"longitud":16.761283756415594
	},
	{
		"latitud":-93.09525847434998,
		"longitud":16.761116819815943
	},
	{
		"latitud":-93.09516459703445,
		"longitud":16.761073159450333
	},
	{
		"latitud":-93.09505462646484,
		"longitud":16.761304302448504
	},
	{
		"latitud":-93.09489369392395,
		"longitud":16.76164074342173
	},
	{
		"latitud":-93.094722032547,
		"longitud":16.762023412202353
	},
	{
		"latitud":-93.0944886803627,
		"longitud":16.76253192388747
	},
	{
		"latitud":-93.09424459934235,
		"longitud":16.763058411826112
	},
	{
		"latitud":-93.09399515390396,
		"longitud":16.763597739423023
	},
	{
		"latitud":-93.09374839067459,
		"longitud":16.764137065490683
	},
	{
		"latitud":-93.09350430965424,
		"longitud":16.76464557152524
	},
	{
		"latitud":-93.09327363967896,
		"longitud":16.765164349007964
	},
	{
		"latitud":-93.09304028749466,
		"longitud":16.765719079800174
	},
	{
		"latitud":-93.09295177459717,
		"longitud":16.76598874001751
	},
	{
		"latitud":-93.09285521507263,
		"longitud":16.766355990936606
	},
	{
		"latitud":-93.09282839298248,
		"longitud":16.7664561501551
	},
	{
		"latitud":-93.09282034635544,
		"longitud":16.7664818319975
	},
	{
		"latitud":-93.0928122997284,
		"longitud":16.766517786571026
	},
	{
		"latitud":-93.09279888868332,
		"longitud":16.76657942296699
	},
	{
		"latitud":-93.09277474880219,
		"longitud":16.766689854793114
	},
	{
		"latitud":-93.09275597333908,
		"longitud":16.76679001383576
	},
	{
		"latitud":-93.09271305799484,
		"longitud":16.766974922698996
	},
	{
		"latitud":-93.09266209602356,
		"longitud":16.76720349035091
	},
	{
		"latitud":-93.09258967638016,
		"longitud":16.76753735271951
	},
	{
		"latitud":-93.09250384569168,
		"longitud":16.767848101012852
	},
	{
		"latitud":-93.09244483709335,
		"longitud":16.76808950842744
	},
	{
		"latitud":-93.09238314628601,
		"longitud":16.768343756330598
	},
	{
		"latitud":-93.09231877326965,
		"longitud":16.768646798841804
	},
	{
		"latitud":-93.09231340885162,
		"longitud":16.768695593777274
	},
	{
		"latitud":-93.09230268001556,
		"longitud":16.768754661313977
	},
	{
		"latitud":-93.09228658676147,
		"longitud":16.76881116067977
	},
	{
		"latitud":-93.09227049350739,
		"longitud":16.768880500787546
	},
	{
		"latitud":-93.09224635362625,
		"longitud":16.768967817924327
	},
	{
		"latitud":-93.09221684932709,
		"longitud":16.769062839468816
	},
	{
		"latitud":-93.09219539165497,
		"longitud":16.7691784061481
	},
	{
		"latitud":-93.0921658873558,
		"longitud":16.76927085944095
	},
	{
		"latitud":-93.09215247631073,
		"longitud":16.769304245341214
	},
	{
		"latitud":-93.09213370084763,
		"longitud":16.76936588083399
	},
	{
		"latitud":-93.09210419654846,
		"longitud":16.769486583616125
	},
	{
		"latitud":-93.09204518795013,
		"longitud":16.769725420810303
	},
	{
		"latitud":-93.09200763702393,
		"longitud":16.769861532195343
	},
	{
		"latitud":-93.09193521738052,
		"longitud":16.770126050268743
	},
	{
		"latitud":-93.09190839529037,
		"longitud":16.77024418443507
	},
	{
		"latitud":-93.09187889099121,
		"longitud":16.770354614132884
	},
	{
		"latitud":-93.09183597564697,
		"longitud":16.770490725067503
	},
	{
		"latitud":-93.0917876958847,
		"longitud":16.770655085311517
	},
	{
		"latitud":-93.0917340517044,
		"longitud":16.770819445413434
	},
	{
		"latitud":-93.09164822101593,
		"longitud":16.771117347736013
	},
	{
		"latitud":-93.09155970811844,
		"longitud":16.7714152495918
	},
	{
		"latitud":-93.09147924184799,
		"longitud":16.77169517418605
	},
	{
		"latitud":-93.09138000011444,
		"longitud":16.772034164886037
	},
	{
		"latitud":-93.09136658906937,
		"longitud":16.772090663277268
	},
	{
		"latitud":-93.09134781360626,
		"longitud":16.77217027461822
	},
	{
		"latitud":-93.0912834405899,
		"longitud":16.772429653272024
	},
	{
		"latitud":-93.09120833873749,
		"longitud":16.772724984971713
	},
	{
		"latitud":-93.09111446142197,
		"longitud":16.773092222880027
	},
	{
		"latitud":-93.09098839759827,
		"longitud":16.773580160262078
	},
	{
		"latitud":-93.09084892272949,
		"longitud":16.774073232554777
	},
	{
		"latitud":-93.09075504541397,
		"longitud":16.774422491321594
	},
	{
		"latitud":-93.09067994356155,
		"longitud":16.774689571122032
	},
	{
		"latitud":-93.09059947729111,
		"longitud":16.77500030772523
	},
	{
		"latitud":-93.09049755334854,
		"longitud":16.77537524542967
	},
	{
		"latitud":-93.09040904045105,
		"longitud":16.775714229566915
	},
	{
		"latitud":-93.09031516313553,
		"longitud":16.776060917263745
	},
	{
		"latitud":-93.09021323919296,
		"longitud":16.776448693123523
	},
	{
		"latitud":-93.0901300907135,
		"longitud":16.776754290760216
	},
	{
		"latitud":-93.09001475572586,
		"longitud":16.777154905405148
	},
	{
		"latitud":-93.08988332748413,
		"longitud":16.77760431185437
	},
	{
		"latitud":-93.0897331237793,
		"longitud":16.77814103016408
	},
	{
		"latitud":-93.08964997529984,
		"longitud":16.778431216944202
	},
	{
		"latitud":-93.08967143297195,
		"longitud":16.778444057056966
	},
	{
		"latitud":-93.08970361948013,
		"longitud":16.778449193101842
	},
	{
		"latitud":-93.08974117040634,
		"longitud":16.77845689716888
	},
	{
		"latitud":-93.0897867679596,
		"longitud":16.77846716925779
	},
	{
		"latitud":-93.08981895446777,
		"longitud":16.778469737279917
	},
	{
		"latitud":-93.0899316072464,
		"longitud":16.77849028145579
	},
	{
		"latitud":-93.09003353118896,
		"longitud":16.77850568958623
	},
	{
		"latitud":-93.0901300907135,
		"longitud":16.77852109771541
	},
	{
		"latitud":-93.0902561545372,
		"longitud":16.778544209906855
	},
	{
		"latitud":-93.09038758277893,
		"longitud":16.77856732209549
	},
	{
		"latitud":-93.09063702821732,
		"longitud":16.778605842403625
	},
	{
		"latitud":-93.09095621109009,
		"longitud":16.778657202802325
	},
	{
		"latitud":-93.09132367372513,
		"longitud":16.778718835262442
	}]}