{
"inicio":[	{
		"latitud":-93.09416681528091,
		"longitud":16.759221437072867
	},
	{
		"latitud":-93.09431433677673,
		"longitud":16.759093022924905
	},
	{
		"latitud":-93.09462279081345,
		"longitud":16.758936357547007
	},
	{
		"latitud":-93.0947595834732,
		"longitud":16.758890128394466
	},
	{
		"latitud":-93.09420973062515,
		"longitud":16.758576797175568
	},
	{
		"latitud":-93.09332191944122,
		"longitud":16.758101662785393
	},
	{
		"latitud":-93.09354990720749,
		"longitud":16.75775237404457
	},
	{
		"latitud":-93.09369206428528,
		"longitud":16.75747756554046
	},
	{
		"latitud":-93.09364646673203,
		"longitud":16.7572695326706
	},
	{
		"latitud":-93.09339433908463,
		"longitud":16.756730187134014
	},
	{
		"latitud":-93.09316366910934,
		"longitud":16.756357780990392
	},
	{
		"latitud":-93.09297859668732,
		"longitud":16.755936575922092
	},
	{
		"latitud":-93.0930483341217,
		"longitud":16.755489686598615
	},
	{
		"latitud":-93.09313416481018,
		"longitud":16.755114709689934
	},
	{
		"latitud":-93.0932092666626,
		"longitud":16.754852739082438
	},
	{
		"latitud":-93.09325754642487,
		"longitud":16.754575358046186
	},
	{
		"latitud":-93.09340506792068,
		"longitud":16.75405398333765
	},
	{
		"latitud":-93.09357941150665,
		"longitud":16.753386210688866
	},
	{
		"latitud":-93.09388250112534,
		"longitud":16.75226897044143
	},
	{
		"latitud":-93.09394150972366,
		"longitud":16.7520249745724
	},
	{
		"latitud":-93.0940729379654,
		"longitud":16.751444519984812
	},
	{
		"latitud":-93.09413999319077,
		"longitud":16.751161997199993
	},
	{
		"latitud":-93.09349626302719,
		"longitud":16.751087513850514
	},
	{
		"latitud":-93.09328705072403,
		"longitud":16.75095909421401
	},
	{
		"latitud":-93.09342384338379,
		"longitud":16.75036322596706
	},
	{
		"latitud":-93.09359550476074,
		"longitud":16.749605545976692
	},
	{
		"latitud":-93.09450209140778,
		"longitud":16.74980845040535
	},
	{
		"latitud":-93.09455305337906,
		"longitud":16.74965434579575
	},
	{
		"latitud":-93.09367328882217,
		"longitud":16.7494642832721
	},
	{
		"latitud":-93.0938395857811,
		"longitud":16.74880933663576
	},
	{
		"latitud":-93.09392809867859,
		"longitud":16.74837013586464
	},
	{
		"latitud":-93.0940568447113,
		"longitud":16.74793350251481
	},
	{
		"latitud":-93.09417217969894,
		"longitud":16.74751484724494
	},
	{
		"latitud":-93.09426337480545,
		"longitud":16.74713985462658
	},
	{
		"latitud":-93.09438407421112,
		"longitud":16.746708355357395
	},
	{
		"latitud":-93.09447795152664,
		"longitud":16.746382161808476
	},
	{
		"latitud":-93.09475421905518,
		"longitud":16.746451510090058
	},
	{
		"latitud":-93.09492319822311,
		"longitud":16.745960934666634
	},
	{
		"latitud":-93.09504926204681,
		"longitud":16.745514021924237
	},
	{
		"latitud":-93.09606850147247,
		"longitud":16.74588388082035
	},
	{
		"latitud":-93.09701263904572,
		"longitud":16.746235759797745
	},
	{
		"latitud":-93.09799432754517,
		"longitud":16.746595343482447
	},
	{
		"latitud":-93.0989196896553,
		"longitud":16.746936947353948
	},
	{
		"latitud":-93.10005158185959,
		"longitud":16.747347898567696
	},
	{
		"latitud":-93.10029566287994,
		"longitud":16.747432657145204
	},
	{
		"latitud":-93.10146778821945,
		"longitud":16.747869291643603
	},
	{
		"latitud":-93.10198813676834,
		"longitud":16.74805935575954
	},
	{
		"latitud":-93.10245752334595,
		"longitud":16.74817493519672
	},
	{
		"latitud":-93.10343384742737,
		"longitud":16.74834958843534
	},
	{
		"latitud":-93.10356795787811,
		"longitud":16.748359862150274
	},
	{
		"latitud":-93.10455769300461,
		"longitud":16.74853194679293
	},
	{
		"latitud":-93.10569226741791,
		"longitud":16.7486937575837
	},
	{
		"latitud":-93.10676246881485,
		"longitud":16.74883758928225
	},
	{
		"latitud":-93.10738742351532,
		"longitud":16.74893005245967
	},
	{
		"latitud":-93.10837984085083,
		"longitud":16.749053336626368
	},
	{
		"latitud":-93.10899138450623,
		"longitud":16.749143231280915
	},
	{
		"latitud":-93.10928374528885,
		"longitud":16.749220283808178
	},
	{
		"latitud":-93.10994356870651,
		"longitud":16.74930504155214
	},
	{
		"latitud":-93.11081528663635,
		"longitud":16.74939493608785
	},
	{
		"latitud":-93.11187744140625,
		"longitud":16.74953106201824
	},
	{
		"latitud":-93.11289131641388,
		"longitud":16.74969544037051
	},
	{
		"latitud":-93.1135430932045,
		"longitud":16.74975708221602
	},
	{
		"latitud":-93.1144067645073,
		"longitud":16.749862386989246
	},
	{
		"latitud":-93.11450064182281,
		"longitud":16.74929219947215
	},
	{
		"latitud":-93.11453014612198,
		"longitud":16.749094431330853
	},
	{
		"latitud":-93.1146776676178,
		"longitud":16.748249419685727
	},
	{
		"latitud":-93.11540991067886,
		"longitud":16.748382978006827
	},
	{
		"latitud":-93.11623603105545,
		"longitud":16.748501125674327
	},
	{
		"latitud":-93.11708360910416,
		"longitud":16.748603862716905
	},
	{
		"latitud":-93.11794191598892,
		"longitud":16.7487348523658
	},
	{
		"latitud":-93.11881095170975,
		"longitud":16.74886584192457
	},
	{
		"latitud":-93.11963438987732,
		"longitud":16.748966010349864
	},
	{
		"latitud":-93.12052756547928,
		"longitud":16.749079020817707
	},
	{
		"latitud":-93.12127590179443,
		"longitud":16.74919716805328
	},
	{
		"latitud":-93.12216371297836,
		"longitud":16.749335862540597
	},
	{
		"latitud":-93.1229442358017,
		"longitud":16.74945400961677
	},
	{
		"latitud":-93.1238454580307,
		"longitud":16.74958499868073
	},
	{
		"latitud":-93.1242960691452,
		"longitud":16.749636366916498
	},
	{
		"latitud":-93.12475740909576,
		"longitud":16.7497082824233
	},
	{
		"latitud":-93.12569350004196,
		"longitud":16.749834134494826
	},
	{
		"latitud":-93.12659472227097,
		"longitud":16.74994714444734
	},
	{
		"latitud":-93.1270506978035,
		"longitud":16.750021628243015
	},
	{
		"latitud":-93.12740206718445,
		"longitud":16.750201416595228
	},
	{
		"latitud":-93.12804043292999,
		"longitud":16.75044798320217
	},
	{
		"latitud":-93.12844008207321,
		"longitud":16.75047109880521
	},
	{
		"latitud":-93.12894433736801,
		"longitud":16.750450551602658
	},
	{
		"latitud":-93.1289067864418,
		"longitud":16.749924028780704
	},
	{
		"latitud":-93.12884777784348,
		"longitud":16.748986557712655
	},
	{
		"latitud":-93.12883973121643,
		"longitud":16.748031102997558
	},
	{
		"latitud":-93.12898188829422,
		"longitud":16.74705766436499
	},
	{
		"latitud":-93.12910258769989,
		"longitud":16.746536269066574
	},
	{
		"latitud":-93.1291589140892,
		"longitud":16.74627171819678
	},
	{
		"latitud":-93.12924206256866,
		"longitud":16.745768299992484
	},
	{
		"latitud":-93.12945663928986,
		"longitud":16.745822237720887
	}],"final":[	{
		"latitud":-93.12949687242508,
		"longitud":16.745824806183773
	},
	{
		"latitud":-93.130022585392,
		"longitud":16.745927544670412
	},
	{
		"latitud":-93.13117861747742,
		"longitud":16.746133021477398
	},
	{
		"latitud":-93.13117861747742,
		"longitud":16.7464027094501
	},
	{
		"latitud":-93.1311571598053,
		"longitud":16.746726334513127
	},
	{
		"latitud":-93.13116520643234,
		"longitud":16.746900989080544
	},
	{
		"latitud":-93.13111692667007,
		"longitud":16.74724002395995
	},
	{
		"latitud":-93.13101500272751,
		"longitud":16.747876996949305
	},
	{
		"latitud":-93.13095062971115,
		"longitud":16.74833160943288
	},
	{
		"latitud":-93.13079237937927,
		"longitud":16.74886841034638
	},
	{
		"latitud":-93.13066899776459,
		"longitud":16.749335862540597
	},
	{
		"latitud":-93.13053220510483,
		"longitud":16.749798176768593
	},
	{
		"latitud":-93.12999576330185,
		"longitud":16.749841839720997
	},
	{
		"latitud":-93.12890946865082,
		"longitud":16.749921460373123
	},
	{
		"latitud":-93.128941655159,
		"longitud":16.7504556884035
	},
	{
		"latitud":-93.12897652387619,
		"longitud":16.750938547064127
	},
	{
		"latitud":-93.12902212142944,
		"longitud":16.751549823824607
	},
	{
		"latitud":-93.12906235456467,
		"longitud":16.752145688357217
	},
	{
		"latitud":-93.12910258769989,
		"longitud":16.75272870917638
	},
	{
		"latitud":-93.12914282083511,
		"longitud":16.75332713838022
	},
	{
		"latitud":-93.12918305397034,
		"longitud":16.75383567330639
	},
	{
		"latitud":-93.12922328710556,
		"longitud":16.754467487534015
	},
	{
		"latitud":-93.12856882810593,
		"longitud":16.75439557382527
	},
	{
		"latitud":-93.12822818756104,
		"longitud":16.754349343569583
	},
	{
		"latitud":-93.12757909297943,
		"longitud":16.754241472929312
	},
	{
		"latitud":-93.1272840499878,
		"longitud":16.754192674286244
	},
	{
		"latitud":-93.12666714191437,
		"longitud":16.754120760473658
	},
	{
		"latitud":-93.12605559825897,
		"longitud":16.754038573226
	},
	{
		"latitud":-93.12588930130005,
		"longitud":16.753994911236248
	},
	{
		"latitud":-93.12506049871445,
		"longitud":16.753869061915623
	},
	{
		"latitud":-93.1241512298584,
		"longitud":16.753750917579726
	},
	{
		"latitud":-93.12329024076462,
		"longitud":16.75363020481293
	},
	{
		"latitud":-93.12236219644547,
		"longitud":16.753509491969595
	},
	{
		"latitud":-93.12149852514267,
		"longitud":16.753388779049697
	},
	{
		"latitud":-93.12062948942184,
		"longitud":16.753283476227256
	},
	{
		"latitud":-93.11983823776245,
		"longitud":16.75320385698137
	},
	{
		"latitud":-93.1190013885498,
		"longitud":16.75307800713768
	},
	{
		"latitud":-93.11905235052109,
		"longitud":16.752769803087457
	},
	{
		"latitud":-93.11913818120956,
		"longitud":16.752266402065498
	},
	{
		"latitud":-93.11915695667267,
		"longitud":16.75141883611261
	},
	{
		"latitud":-93.1182986497879,
		"longitud":16.751285279921298
	},
	{
		"latitud":-93.11746716499329,
		"longitud":16.7511568604182
	},
	{
		"latitud":-93.11660885810852,
		"longitud":16.751043851183827
	},
	{
		"latitud":-93.11578005552292,
		"longitud":16.750935978670235
	},
	{
		"latitud":-93.1149673461914,
		"longitud":16.75083067449088
	},
	{
		"latitud":-93.1142270565033,
		"longitud":16.750735643839985
	},
	{
		"latitud":-93.11334997415543,
		"longitud":16.75062520275366
	},
	{
		"latitud":-93.11325877904892,
		"longitud":16.751000188507124
	},
	{
		"latitud":-93.11316758394241,
		"longitud":16.75142140449999
	},
	{
		"latitud":-93.1130388379097,
		"longitud":16.752019837813897
	},
	{
		"latitud":-93.11299055814743,
		"longitud":16.752248423432942
	},
	{
		"latitud":-93.1129503250122,
		"longitud":16.752851990882984
	},
	{
		"latitud":-93.11293423175812,
		"longitud":16.753134511159438
	},
	{
		"latitud":-93.11277329921722,
		"longitud":16.753830536596755
	},
	{
		"latitud":-93.11193913221359,
		"longitud":16.753681571957102
	},
	{
		"latitud":-93.11103254556656,
		"longitud":16.753558290787822
	},
	{
		"latitud":-93.11013400554657,
		"longitud":16.753370800523165
	},
	{
		"latitud":-93.10933470726013,
		"longitud":16.75323981406429
	},
	{
		"latitud":-93.10837984085083,
		"longitud":16.753054891851225
	},
	{
		"latitud":-93.10755103826523,
		"longitud":16.752887948032367
	},
	{
		"latitud":-93.10671418905258,
		"longitud":16.75273384591576
	},
	{
		"latitud":-93.10663908720016,
		"longitud":16.753216698797477
	},
	{
		"latitud":-93.10656666755676,
		"longitud":16.75364818331497
	},
	{
		"latitud":-93.1064647436142,
		"longitud":16.754184969236196
	},
	{
		"latitud":-93.10637086629868,
		"longitud":16.754701206899764
	},
	{
		"latitud":-93.10580760240555,
		"longitud":16.754626724935253
	},
	{
		"latitud":-93.10559570789337,
		"longitud":16.754683228497214
	},
	{
		"latitud":-93.10547769069672,
		"longitud":16.754791098887097
	},
	{
		"latitud":-93.10468643903732,
		"longitud":16.75518148645377
	},
	{
		"latitud":-93.10457110404968,
		"longitud":16.755220011499173
	},
	{
		"latitud":-93.10416609048843,
		"longitud":16.755453729940772
	},
	{
		"latitud":-93.10338288545609,
		"longitud":16.75535356492952
	},
	{
		"latitud":-93.10237973928452,
		"longitud":16.755227716507314
	},
	{
		"latitud":-93.10220807790756,
		"longitud":16.75519689647286
	},
	{
		"latitud":-93.10128271579742,
		"longitud":16.755065911270762
	},
	{
		"latitud":-93.10069262981415,
		"longitud":16.754978587752614
	},
	{
		"latitud":-93.09979945421219,
		"longitud":16.75484503405912
	},
	{
		"latitud":-93.09903234243393,
		"longitud":16.754737163699808
	},
	{
		"latitud":-93.0978012084961,
		"longitud":16.75479366722897
	},
	{
		"latitud":-93.09685170650482,
		"longitud":16.754852739082438
	},
	{
		"latitud":-93.0959102511406,
		"longitud":16.75464984003081
	},
	{
		"latitud":-93.09518605470657,
		"longitud":16.75446491918775
	},
	{
		"latitud":-93.09478104114532,
		"longitud":16.754382732088704
	},
	{
		"latitud":-93.09405952692032,
		"longitud":16.754208084385407
	},
	{
		"latitud":-93.09340506792068,
		"longitud":16.75405655168947
	},
	{
		"latitud":-93.09325754642487,
		"longitud":16.754575358046186
	},
	{
		"latitud":-93.09261113405228,
		"longitud":16.754444372416316
	},
	{
		"latitud":-93.0924341082573,
		"longitud":16.755004271144465
	},
	{
		"latitud":-93.0923080444336,
		"longitud":16.755399794941262
	},
	{
		"latitud":-93.09200763702393,
		"longitud":16.756329529460107
	},
	{
		"latitud":-93.09210687875748,
		"longitud":16.756362917631822
	},
	{
		"latitud":-93.09216320514679,
		"longitud":16.756434830597144
	},
	{
		"latitud":-93.09216856956482,
		"longitud":16.75656581485702
	},
	{
		"latitud":-93.09204518795013,
		"longitud":16.75686630781842
	},
	{
		"latitud":-93.0923992395401,
		"longitud":16.757053794639415
	},
	{
		"latitud":-93.09281498193741,
		"longitud":16.757279805904076
	},
	{
		"latitud":-93.09254944324493,
		"longitud":16.757641937029867
	},
	{
		"latitud":-93.09221684932709,
		"longitud":16.75746215570604
	},
	{
		"latitud":-93.09201031923294,
		"longitud":16.757801171774833
	},
	{
		"latitud":-93.09177428483963,
		"longitud":16.75809395789361
	},
	{
		"latitud":-93.09214979410172,
		"longitud":16.758330241099557
	},
	{
		"latitud":-93.09272646903992,
		"longitud":16.758651277594012
	},
	{
		"latitud":-93.09303224086761,
		"longitud":16.7588310577943
	},
	{
		"latitud":-93.0937135219574,
		"longitud":16.759195754250207
	},
	{
		"latitud":-93.09388518333435,
		"longitud":16.75929591723897
	},
	{
		"latitud":-93.0939844250679,
		"longitud":16.759337009731926
	},
	{
		"latitud":-93.09408903121948,
		"longitud":16.759303622082076
	},
	{
		"latitud":-93.09420704841614,
		"longitud":16.759195754250207
	}]}