{
"inicio":[	{
		"latitud":-93.07404488325119,
		"longitud":16.737071283606536
	},
	{
		"latitud":-93.07390540838242,
		"longitud":16.73705844070161
	},
	{
		"latitud":-93.07389736175537,
		"longitud":16.73740263025426
	},
	{
		"latitud":-93.07386249303818,
		"longitud":16.73779305347173
	},
	{
		"latitud":-93.07383030653,
		"longitud":16.738160358794588
	},
	{
		"latitud":-93.0737954378128,
		"longitud":16.73854050621519
	},
	{
		"latitud":-93.07344406843185,
		"longitud":16.73849684067165
	},
	{
		"latitud":-93.07265281677246,
		"longitud":16.738445469431156
	},
	{
		"latitud":-93.07187229394913,
		"longitud":16.738383823924263
	},
	{
		"latitud":-93.07146728038788,
		"longitud":16.73836327541754
	},
	{
		"latitud":-93.07065188884735,
		"longitud":16.73827851280386
	},
	{
		"latitud":-93.07024419307709,
		"longitud":16.738242552895752
	},
	{
		"latitud":-93.07028710842133,
		"longitud":16.737769936329812
	},
	{
		"latitud":-93.06914716959,
		"longitud":16.738442900868765
	},
	{
		"latitud":-93.06841224431992,
		"longitud":16.738892398759535
	},
	{
		"latitud":-93.06805819272995,
		"longitud":16.73915695987943
	},
	{
		"latitud":-93.06849271059036,
		"longitud":16.7394574803175
	},
	{
		"latitud":-93.06838274002075,
		"longitud":16.739601318991877
	},
	{
		"latitud":-93.0690398812294,
		"longitud":16.74000714895198
	},
	{
		"latitud":-93.06992501020432,
		"longitud":16.740564521601964
	},
	{
		"latitud":-93.07048559188843,
		"longitud":16.740924115994503
	},
	{
		"latitud":-93.07054728269577,
		"longitud":16.740762298601872
	},
	{
		"latitud":-93.07042390108109,
		"longitud":16.74067239999101
	},
	{
		"latitud":-93.07045608758926,
		"longitud":16.740446369010535
	},
	{
		"latitud":-93.07050973176956,
		"longitud":16.740055951230715
	},
	{
		"latitud":-93.07057946920395,
		"longitud":16.73918007685303
	},
	{
		"latitud":-93.07102471590042,
		"longitud":16.73922117368808
	},
	{
		"latitud":-93.07176768779755,
		"longitud":16.739275113270605
	},
	{
		"latitud":-93.07294249534607,
		"longitud":16.73937271819066
	},
	{
		"latitud":-93.07371228933334,
		"longitud":16.739449774671165
	},
	{
		"latitud":-93.0736318230629,
		"longitud":16.74032821634581
	},
	{
		"latitud":-93.07360231876373,
		"longitud":16.74073147622578
	},
	{
		"latitud":-93.07351380586624,
		"longitud":16.74149176004684
	},
	{
		"latitud":-93.07353794574738,
		"longitud":16.74167412497158
	},
	{
		"latitud":-93.07442843914032,
		"longitud":16.741424978481422
	},
	{
		"latitud":-93.07449012994766,
		"longitud":16.74143268404785
	},
	{
		"latitud":-93.07502388954163,
		"longitud":16.741684399046658
	},
	{
		"latitud":-93.07515263557434,
		"longitud":16.741692104602603
	},
	{
		"latitud":-93.07605117559433,
		"longitud":16.74154313046584
	},
	{
		"latitud":-93.07609409093857,
		"longitud":16.741561110109217
	},
	{
		"latitud":-93.07611554861069,
		"longitud":16.741617617548783
	},
	{
		"latitud":-93.07605385780334,
		"longitud":16.741782002732197
	},
	{
		"latitud":-93.07562202215195,
		"longitud":16.74187446933553
	},
	{
		"latitud":-93.07559788227081,
		"longitud":16.741930976682134
	},
	{
		"latitud":-93.07427555322647,
		"longitud":16.742339370188706
	},
	{
		"latitud":-93.07427555322647,
		"longitud":16.742339370188706
	},
	{
		"latitud":-93.07379812002182,
		"longitud":16.742475501162982
	},
	{
		"latitud":-93.07358890771866,
		"longitud":16.742534576838523
	},
	{
		"latitud":-93.07362645864487,
		"longitud":16.742698961230552
	},
	{
		"latitud":-93.07454645633698,
		"longitud":16.74244211055565
	},
	{
		"latitud":-93.07507485151291,
		"longitud":16.742285431473885
	},
	{
		"latitud":-93.07579100131989,
		"longitud":16.742038854297274
	},
	{
		"latitud":-93.07652592658997,
		"longitud":16.74179998235303
	},
	{
		"latitud":-93.07747811079025,
		"longitud":16.74152515082076
	},
	{
		"latitud":-93.07837933301926,
		"longitud":16.74126573003865
	},
	{
		"latitud":-93.07904452085495,
		"longitud":16.741024288597252
	},
	{
		"latitud":-93.08032661676407,
		"longitud":16.740490034107204
	},
	{
		"latitud":-93.08127075433731,
		"longitud":16.740037971445272
	},
	{
		"latitud":-93.08212101459503,
		"longitud":16.739629573004443
	},
	{
		"latitud":-93.08300882577896,
		"longitud":16.739203193823847
	},
	{
		"latitud":-93.08398514986038,
		"longitud":16.73873314819954
	},
	{
		"latitud":-93.08493196964264,
		"longitud":16.73827337567454
	},
	{
		"latitud":-93.08522701263428,
		"longitud":16.738132104564126
	},
	{
		"latitud":-93.08619797229767,
		"longitud":16.737672330588605
	},
	{
		"latitud":-93.08719038963318,
		"longitud":16.737194575449745
	},
	{
		"latitud":-93.08825254440308,
		"longitud":16.736662878806044
	},
	{
		"latitud":-93.08934956789017,
		"longitud":16.736144023646034
	},
	{
		"latitud":-93.09030711650848,
		"longitud":16.73567910767375
	},
	{
		"latitud":-93.09125930070877,
		"longitud":16.73521162196114
	},
	{
		"latitud":-93.09158653020859,
		"longitud":16.7350420938919
	},
	{
		"latitud":-93.09226512908936,
		"longitud":16.734674782557768
	},
	{
		"latitud":-93.09297055006027,
		"longitud":16.73421756885901
	},
	{
		"latitud":-93.09369206428528,
		"longitud":16.73376035406325
	},
	{
		"latitud":-93.0947408080101,
		"longitud":16.733012882568307
	},
	{
		"latitud":-93.09484273195267,
		"longitud":16.732946098030887
	},
	{
		"latitud":-93.09588611125946,
		"longitud":16.7322268784526
	},
	{
		"latitud":-93.09711456298828,
		"longitud":16.731399772582215
	},
	{
		"latitud":-93.09824913740158,
		"longitud":16.730598349805724
	},
	{
		"latitud":-93.09834033250809,
		"longitud":16.730521289745784
	},
	{
		"latitud":-93.0989545583725,
		"longitud":16.730197637153857
	},
	{
		"latitud":-93.09957414865494,
		"longitud":16.729920220209078
	},
	{
		"latitud":-93.1004324555397,
		"longitud":16.729676195710923
	},
	{
		"latitud":-93.10120224952698,
		"longitud":16.729552899003576
	},
	{
		"latitud":-93.10233682394028,
		"longitud":16.72956831109636
	},
	{
		"latitud":-93.10281962156296,
		"longitud":16.72963766549844
	},
	{
		"latitud":-93.10364842414856,
		"longitud":16.729856003266168
	},
	{
		"latitud":-93.10421973466873,
		"longitud":16.73006149740733
	},
	{
		"latitud":-93.10492783784866,
		"longitud":16.730351757504263
	},
	{
		"latitud":-93.10585051774979,
		"longitud":16.7307858624881
	},
	{
		"latitud":-93.10661226511002,
		"longitud":16.731122357387072
	},
	{
		"latitud":-93.10756981372833,
		"longitud":16.731633520257258
	},
	{
		"latitud":-93.10797214508057,
		"longitud":16.731964876360326
	},
	{
		"latitud":-93.10840934515,
		"longitud":16.7323321929176
	},
	{
		"latitud":-93.108591735363,
		"longitud":16.732501723397576
	},
	{
		"latitud":-93.109130859375,
		"longitud":16.733082235717003
	},
	{
		"latitud":-93.10957878828049,
		"longitud":16.733547158025054
	},
	{
		"latitud":-93.1101393699646,
		"longitud":16.734081431983935
	},
	{
		"latitud":-93.11074286699295,
		"longitud":16.734420489680932
	},
	{
		"latitud":-93.11152070760727,
		"longitud":16.734708174526492
	},
	{
		"latitud":-93.11224490404129,
		"longitud":16.734810919008936
	},
	{
		"latitud":-93.112912774086,
		"longitud":16.734862291229387
	},
	{
		"latitud":-93.11483323574066,
		"longitud":16.735013839199024
	},
	{
		"latitud":-93.11562180519104,
		"longitud":16.735075485796248
	},
	{
		"latitud":-93.11545550823212,
		"longitud":16.735751028450807
	},
	{
		"latitud":-93.11522752046585,
		"longitud":16.736799013836816
	},
	{
		"latitud":-93.11514973640442,
		"longitud":16.737161183916754
	},
	{
		"latitud":-93.1149834394455,
		"longitud":16.73795744195552
	},
	{
		"latitud":-93.1148412823677,
		"longitud":16.73864838575043
	},
	{
		"latitud":-93.114715218544,
		"longitud":16.739349601240427
	},
	{
		"latitud":-93.11457842588425,
		"longitud":16.740058519771363
	},
	{
		"latitud":-93.1153804063797,
		"longitud":16.740171535525224
	},
	{
		"latitud":-93.11693340539932,
		"longitud":16.74041040951164
	},
	{
		"latitud":-93.11681538820267,
		"longitud":16.741024288597252
	},
	{
		"latitud":-93.11668127775192,
		"longitud":16.74175374903891
	},
	{
		"latitud":-93.11653643846512,
		"longitud":16.742452384589303
	},
	{
		"latitud":-93.11638623476028,
		"longitud":16.743197250552022
	},
	{
		"latitud":-93.11621457338333,
		"longitud":16.743895880807454
	},
	{
		"latitud":-93.11607509851456,
		"longitud":16.74473577481758
	},
	{
		"latitud":-93.11594367027283,
		"longitud":16.7457220676417
	},
	{
		"latitud":-93.11586052179337,
		"longitud":16.74586847004737
	},
	{
		"latitud":-93.11574250459671,
		"longitud":16.746703218455437
	},
	{
		"latitud":-93.11655253171921,
		"longitud":16.746847051657706
	},
	{
		"latitud":-93.11655253171921,
		"longitud":16.746847051657706
	},
	{
		"latitud":-93.11735987663269,
		"longitud":16.746983179409764
	},
	{
		"latitud":-93.11723113059998,
		"longitud":16.747781964824043
	}],"final":[	{
		"latitud":-93.11722308397293,
		"longitud":16.74778453326048
	},
	{
		"latitud":-93.11707824468613,
		"longitud":16.748598725866106
	},
	{
		"latitud":-93.11793923377991,
		"longitud":16.748724578671105
	},
	{
		"latitud":-93.11810284852982,
		"longitud":16.747912955038373
	},
	{
		"latitud":-93.11825305223465,
		"longitud":16.747111601728164
	},
	{
		"latitud":-93.11839789152145,
		"longitud":16.746274286653584
	},
	{
		"latitud":-93.11862587928772,
		"longitud":16.745141593837673
	},
	{
		"latitud":-93.11878949403763,
		"longitud":16.744329954932685
	},
	{
		"latitud":-93.11788827180862,
		"longitud":16.74418868831414
	},
	{
		"latitud":-93.11706483364105,
		"longitud":16.744062832511176
	},
	{
		"latitud":-93.11620652675629,
		"longitud":16.743895880807454
	},
	{
		"latitud":-93.11597853899002,
		"longitud":16.743867627427743
	},
	{
		"latitud":-93.11557620763779,
		"longitud":16.74305598309329
	},
	{
		"latitud":-93.11525166034698,
		"longitud":16.74222635572106
	},
	{
		"latitud":-93.11511486768723,
		"longitud":16.741943819258573
	},
	{
		"latitud":-93.11508536338806,
		"longitud":16.741792276801462
	},
	{
		"latitud":-93.11519265174866,
		"longitud":16.74100374037533
	},
	{
		"latitud":-93.1153079867363,
		"longitud":16.74039756683181
	},
	{
		"latitud":-93.11540454626083,
		"longitud":16.740014854575776
	},
	{
		"latitud":-93.11547964811325,
		"longitud":16.739668101196635
	},
	{
		"latitud":-93.11564058065414,
		"longitud":16.73875112810815
	},
	{
		"latitud":-93.11576128005981,
		"longitud":16.7380678903884
	},
	{
		"latitud":-93.11423778533936,
		"longitud":16.737846993458604
	},
	{
		"latitud":-93.11442285776138,
		"longitud":16.73700193190967
	},
	{
		"latitud":-93.11471790075302,
		"longitud":16.735576363659423
	},
	{
		"latitud":-93.11483860015869,
		"longitud":16.735011270590366
	},
	{
		"latitud":-93.11562716960907,
		"longitud":16.73507291718843
	},
	{
		"latitud":-93.11691462993622,
		"longitud":16.735124289338238
	},
	{
		"latitud":-93.11731696128845,
		"longitud":16.735167955654703
	},
	{
		"latitud":-93.1173250079155,
		"longitud":16.735078054404028
	},
	{
		"latitud":-93.1169119477272,
		"longitud":16.735029250850197
	},
	{
		"latitud":-93.11595976352692,
		"longitud":16.734988153110955
	},
	{
		"latitud":-93.11559498310089,
		"longitud":16.73498044728386
	},
	{
		"latitud":-93.11420559883118,
		"longitud":16.734875134282337
	},
	{
		"latitud":-93.11266601085663,
		"longitud":16.734751840938298
	},
	{
		"latitud":-93.11225831508636,
		"longitud":16.734731292039875
	},
	{
		"latitud":-93.11156094074249,
		"longitud":16.734625978900645
	},
	{
		"latitud":-93.11078578233719,
		"longitud":16.73434599978405
	},
	{
		"latitud":-93.11019569635391,
		"longitud":16.73400694195454
	},
	{
		"latitud":-93.10943931341171,
		"longitud":16.733292863643495
	},
	{
		"latitud":-93.10858905315399,
		"longitud":16.732380997162146
	},
	{
		"latitud":-93.10814917087555,
		"longitud":16.73198028825808
	},
	{
		"latitud":-93.10774683952332,
		"longitud":16.731656638143615
	},
	{
		"latitud":-93.10748934745789,
		"longitud":16.73147426363065
	},
	{
		"latitud":-93.1066632270813,
		"longitud":16.73104529753898
	},
	{
		"latitud":-93.10585588216782,
		"longitud":16.730693390503408
	},
	{
		"latitud":-93.10500293970108,
		"longitud":16.730254147963475
	},
	{
		"latitud":-93.1041955947876,
		"longitud":16.729894533434504
	},
	{
		"latitud":-93.10326486825943,
		"longitud":16.729586291869687
	},
	{
		"latitud":-93.10269892215729,
		"longitud":16.72947070115438
	},
	{
		"latitud":-93.10168772935867,
		"longitud":16.729424464848627
	},
	{
		"latitud":-93.10076236724854,
		"longitud":16.729465563787628
	},
	{
		"latitud":-93.09949368238449,
		"longitud":16.729809767053872
	},
	{
		"latitud":-93.09865683317184,
		"longitud":16.730133420304405
	},
	{
		"latitud":-93.09748470783234,
		"longitud":16.730960531670114
	},
	{
		"latitud":-93.09596121311188,
		"longitud":16.732029092592736
	},
	{
		"latitud":-93.09471130371094,
		"longitud":16.732899862568214
	},
	{
		"latitud":-93.0941104888916,
		"longitud":16.73331341269703
	},
	{
		"latitud":-93.09359282255173,
		"longitud":16.733667883521754
	},
	{
		"latitud":-93.09303760528564,
		"longitud":16.734058314391717
	},
	{
		"latitud":-93.09260308742523,
		"longitud":16.734328019459756
	},
	{
		"latitud":-93.09208273887634,
		"longitud":16.734631116128305
	},
	{
		"latitud":-93.09107154607773,
		"longitud":16.73518593589975
	},
	{
		"latitud":-93.08977335691452,
		"longitud":16.735820380602984
	},
	{
		"latitud":-93.08845907449722,
		"longitud":16.736459960372095
	},
	{
		"latitud":-93.08727085590363,
		"longitud":16.73700193190967
	},
	{
		"latitud":-93.08560788631439,
		"longitud":16.73782387632324
	},
	{
		"latitud":-93.08416217565536,
		"longitud":16.73852252628671
	},
	{
		"latitud":-93.08252334594727,
		"longitud":16.739308504433097
	},
	{
		"latitud":-93.08178842067719,
		"longitud":16.739670669742523
	},
	{
		"latitud":-93.08040171861649,
		"longitud":16.74030253097423
	},
	{
		"latitud":-93.07900428771973,
		"longitud":16.740895862173954
	},
	{
		"latitud":-93.07834982872009,
		"longitud":16.74112446114732
	},
	{
		"latitud":-93.07676464319229,
		"longitud":16.741586795311097
	},
	{
		"latitud":-93.07660639286041,
		"longitud":16.741509739695065
	},
	{
		"latitud":-93.0762791633606,
		"longitud":16.741427547003607
	},
	{
		"latitud":-93.07614237070084,
		"longitud":16.74141213587
	},
	{
		"latitud":-93.07513386011124,
		"longitud":16.741584226791073
	},
	{
		"latitud":-93.07506412267685,
		"longitud":16.741576521230762
	},
	{
		"latitud":-93.0749461054802,
		"longitud":16.741522582299897
	},
	{
		"latitud":-93.07453840970993,
		"longitud":16.741237476268758
	},
	{
		"latitud":-93.07443380355835,
		"longitud":16.741227202169572
	},
	{
		"latitud":-93.07434260845184,
		"longitud":16.741232339219234
	},
	{
		"latitud":-93.07362645864487,
		"longitud":16.741458369267058
	},
	{
		"latitud":-93.07369619607925,
		"longitud":16.74074688741445
	},
	{
		"latitud":-93.07372570037842,
		"longitud":16.740377018542294
	},
	{
		"latitud":-93.0741012096405,
		"longitud":16.740420683654868
	},
	{
		"latitud":-93.07489782571793,
		"longitud":16.740454074616554
	},
	{
		"latitud":-93.07497829198837,
		"longitud":16.739557653691495
	},
	{
		"latitud":-93.07575345039368,
		"longitud":16.739624435911562
	},
	{
		"latitud":-93.07586073875427,
		"longitud":16.73869975693621
	},
	{
		"latitud":-93.07625770568848,
		"longitud":16.73874085387486
	},
	{
		"latitud":-93.07652056217194,
		"longitud":16.73878965647801
	},
	{
		"latitud":-93.07657152414322,
		"longitud":16.738391529613715
	},
	{
		"latitud":-93.07668149471283,
		"longitud":16.73760811625791
	},
	{
		"latitud":-93.076710999012,
		"longitud":16.737256221341433
	},
	{
		"latitud":-93.07560592889786,
		"longitud":16.737143203858114
	},
	{
		"latitud":-93.07519555091858,
		"longitud":16.737125223797754
	},
	{
		"latitud":-93.0748039484024,
		"longitud":16.737081557929848
	},
	{
		"latitud":-93.07405024766922,
		"longitud":16.737071283606536
	}]}