{
"inicio":[	{
		"latitud":-93.0811956524849,
		"longitud":16.777840570818622
	},
	{
		"latitud":-93.08165699243546,
		"longitud":16.778038309073775
	},
	{
		"latitud":-93.08234632015228,
		"longitud":16.776957166230815
	},
	{
		"latitud":-93.0828908085823,
		"longitud":16.776096870025743
	},
	{
		"latitud":-93.08334141969681,
		"longitud":16.7754060621944
	},
	{
		"latitud":-93.08335483074188,
		"longitud":16.77524684218951
	},
	{
		"latitud":-93.0834487080574,
		"longitud":16.77491556142928
	},
	{
		"latitud":-93.08380007743835,
		"longitud":16.77377790294974
	},
	{
		"latitud":-93.08289349079132,
		"longitud":16.773539070846613
	},
	{
		"latitud":-93.08126270771027,
		"longitud":16.77307681431071
	},
	{
		"latitud":-93.08124929666519,
		"longitud":16.772676191070357
	},
	{
		"latitud":-93.08134585618973,
		"longitud":16.772244749713447
	},
	{
		"latitud":-93.08145046234131,
		"longitud":16.771836420384506
	},
	{
		"latitud":-93.08154970407486,
		"longitud":16.771410113356854
	},
	{
		"latitud":-93.0816113948822,
		"longitud":16.77100178223525
	},
	{
		"latitud":-93.08171331882477,
		"longitud":16.770590882108106
	},
	{
		"latitud":-93.08183938264847,
		"longitud":16.770192821763075
	},
	{
		"latitud":-93.0819171667099,
		"longitud":16.769692034983994
	},
	{
		"latitud":-93.0820244550705,
		"longitud":16.76923233724106
	},
	{
		"latitud":-93.08221757411957,
		"longitud":16.768423369240487
	},
	{
		"latitud":-93.0822765827179,
		"longitud":16.768156280636955
	},
	{
		"latitud":-93.08233290910721,
		"longitud":16.76809978107659
	},
	{
		"latitud":-93.08235436677933,
		"longitud":16.767979077414125
	},
	{
		"latitud":-93.08235168457031,
		"longitud":16.767596420616012
	},
	{
		"latitud":-93.08238387107849,
		"longitud":16.767262558351106
	},
	{
		"latitud":-93.0823865532875,
		"longitud":16.766859354680545
	},
	{
		"latitud":-93.08248847723007,
		"longitud":16.7658218075471
	},
	{
		"latitud":-93.08248847723007,
		"longitud":16.7658218075471
	},
	{
		"latitud":-93.08253139257431,
		"longitud":16.76548537396921
	},
	{
		"latitud":-93.08253139257431,
		"longitud":16.765300463657702
	},
	{
		"latitud":-93.0825662612915,
		"longitud":16.765208008434534
	},
	{
		"latitud":-93.08266818523407,
		"longitud":16.765125825976206
	},
	{
		"latitud":-93.08379203081131,
		"longitud":16.76512325777381
	},
	{
		"latitud":-93.08424800634384,
		"longitud":16.765156644402243
	},
	{
		"latitud":-93.08471202850342,
		"longitud":16.765215713038184
	},
	{
		"latitud":-93.08573126792908,
		"longitud":16.765441714606325
	},
	{
		"latitud":-93.08583050966263,
		"longitud":16.765464828387923
	},
	{
		"latitud":-93.08701604604721,
		"longitud":16.765744761742113
	},
	{
		"latitud":-93.08721721172333,
		"longitud":16.765734488965755
	},
	{
		"latitud":-93.08765441179276,
		"longitud":16.765654874930178
	},
	{
		"latitud":-93.0881667137146,
		"longitud":16.76550335135102
	},
	{
		"latitud":-93.0882579088211,
		"longitud":16.765462260190105
	},
	{
		"latitud":-93.08835983276367,
		"longitud":16.76544941920051
	},
	{
		"latitud":-93.08868169784546,
		"longitud":16.76554187430633
	},
	{
		"latitud":-93.08930933475494,
		"longitud":16.76572935257737
	},
	{
		"latitud":-93.09019714593887,
		"longitud":16.765960489917433
	},
	{
		"latitud":-93.09028834104538,
		"longitud":16.765983603635977
	},
	{
		"latitud":-93.09032052755356,
		"longitud":16.765898853320877
	},
	{
		"latitud":-93.09044659137726,
		"longitud":16.765570124468578
	},
	{
		"latitud":-93.09052437543869,
		"longitud":16.765279918056443
	},
	{
		"latitud":-93.09072285890579,
		"longitud":16.764727754191078
	},
	{
		"latitud":-93.09134781360626,
		"longitud":16.76307382120725
	},
	{
		"latitud":-93.09218466281891,
		"longitud":16.763667081431663
	},
	{
		"latitud":-93.09286057949066,
		"longitud":16.764116519763743
	},
	{
		"latitud":-93.09351772069931,
		"longitud":16.76459163913147
	},
	{
		"latitud":-93.09447258710861,
		"longitud":16.765208008434534
	},
	{
		"latitud":-93.09456378221512,
		"longitud":16.76527221345539
	},
	{
		"latitud":-93.09529334306717,
		"longitud":16.765629192976103
	},
	{
		"latitud":-93.0966317653656,
		"longitud":16.76668215024917
	},
	{
		"latitud":-93.09759199619293,
		"longitud":16.767432057728083
	},
	{
		"latitud":-93.09837251901627,
		"longitud":16.767961100266355
	},
	{
		"latitud":-93.09908598661423,
		"longitud":16.76837200607663
	},
	{
		"latitud":-93.09992551803589,
		"longitud":16.768841978508572
	},
	{
		"latitud":-93.10049951076508,
		"longitud":16.769201519475526
	},
	{
		"latitud":-93.10128271579742,
		"longitud":16.76986410033375
	},
	{
		"latitud":-93.10193717479706,
		"longitud":16.770341773473646
	},
	{
		"latitud":-93.10219466686249,
		"longitud":16.77046247563626
	},
	{
		"latitud":-93.1024307012558,
		"longitud":16.770531815141826
	},
	{
		"latitud":-93.10299128293991,
		"longitud":16.77064224467256
	},
	{
		"latitud":-93.10312539339066,
		"longitud":16.77064481280042
	},
	{
		"latitud":-93.10528188943863,
		"longitud":16.77055236017565
	},
	{
		"latitud":-93.10708701610565,
		"longitud":16.77046247563626
	},
	{
		"latitud":-93.10815989971161,
		"longitud":16.77040084049897
	},
	{
		"latitud":-93.10932397842407,
		"longitud":16.7703931361054
	},
	{
		"latitud":-93.11011791229248,
		"longitud":16.77038029544876
	},
	{
		"latitud":-93.11147779226303,
		"longitud":16.770313524020253
	},
	{
		"latitud":-93.11166018247604,
		"longitud":16.770316092152555
	},
	{
		"latitud":-93.11166018247604,
		"longitud":16.770316092152555
	},
	{
		"latitud":-93.11283499002457,
		"longitud":16.770660221566843
	},
	{
		"latitud":-93.11533212661743,
		"longitud":16.771720855320854
	},
	{
		"latitud":-93.11777025461197,
		"longitud":16.77277377886054
	},
	{
		"latitud":-93.1181725859642,
		"longitud":16.77295611380794
	},
	{
		"latitud":-93.119036257267,
		"longitud":16.7732231956687
	},
	{
		"latitud":-93.1203505396843,
		"longitud":16.773587864526487
	},
	{
		"latitud":-93.12184989452362,
		"longitud":16.773973077348835
	},
	{
		"latitud":-93.12292009592056,
		"longitud":16.774283815123344
	},
	{
		"latitud":-93.1239715218544,
		"longitud":16.77447898900298
	},
	{
		"latitud":-93.1249612569809,
		"longitud":16.77449696553445
	},
	{
		"latitud":-93.1259348988533,
		"longitud":16.77432490437781
	},
	{
		"latitud":-93.12658131122589,
		"longitud":16.7741066176117
	},
	{
		"latitud":-93.12779635190964,
		"longitud":16.773698292282052
	},
	{
		"latitud":-93.12966048717499,
		"longitud":16.773079382405697
	},
	{
		"latitud":-93.13000917434692,
		"longitud":16.772920160451864
	},
	{
		"latitud":-93.1300601363182,
		"longitud":16.77292529664601
	},
	{
		"latitud":-93.13043028116226,
		"longitud":16.77284825371934
	},
	{
		"latitud":-93.13058316707611,
		"longitud":16.77286109420929
	},
	{
		"latitud":-93.13091039657593,
		"longitud":16.772863662307177
	},
	{
		"latitud":-93.131283223629,
		"longitud":16.77293300093696
	},
	{
		"latitud":-93.1313019990921,
		"longitud":16.772961250001103
	},
	{
		"latitud":-93.13127785921097,
		"longitud":16.773015180020998
	},
	{
		"latitud":-93.13127517700195,
		"longitud":16.773094790974785
	},
	{
		"latitud":-93.13130468130112,
		"longitud":16.773153857144766
	},
	{
		"latitud":-93.13132613897324,
		"longitud":16.773194946643486
	},
	{
		"latitud":-93.13135296106339,
		"longitud":16.77331307890284
	},
	{
		"latitud":-93.13132613897324,
		"longitud":16.773431211088788
	},
	{
		"latitud":-93.1312483549118,
		"longitud":16.77357502408563
	},
	{
		"latitud":-93.13114374876022,
		"longitud":16.773636658193833
	},
	{
		"latitud":-93.13105523586273,
		"longitud":16.77364949863052
	},
	{
		"latitud":-93.13095062971115,
		"longitud":16.77364949863052
	},
	{
		"latitud":-93.13085675239563,
		"longitud":16.773618681581006
	},
	{
		"latitud":-93.13073337078094,
		"longitud":16.77354420702404
	},
	{
		"latitud":-93.1306716799736,
		"longitud":16.773433779178966
	},
	{
		"latitud":-93.13065826892853,
		"longitud":16.773274557521983
	},
	{
		"latitud":-93.13073068857193,
		"longitud":16.773125608109247
	},
	{
		"latitud":-93.13079506158829,
		"longitud":16.773002339541463
	},
	{
		"latitud":-93.13090771436691,
		"longitud":16.772884207089
	},
	{
		"latitud":-93.13104182481766,
		"longitud":16.7724964239573
	},
	{
		"latitud":-93.13127785921097,
		"longitud":16.772424517064483
	},
	{
		"latitud":-93.13154608011246,
		"longitud":16.77236801877247
	},
	{
		"latitud":-93.1318411231041,
		"longitud":16.77221906864942
	},
	{
		"latitud":-93.1320396065712,
		"longitud":16.772072686518236
	},
	{
		"latitud":-93.13229978084564,
		"longitud":16.771826147937247
	},
	{
		"latitud":-93.13252240419388,
		"longitud":16.771559064113717
	},
	{
		"latitud":-93.13252240419388,
		"longitud":16.771559064113717
	},
	{
		"latitud":-93.13316613435745,
		"longitud":16.769918031232226
	},
	{
		"latitud":-93.13356041908264,
		"longitud":16.768908750453832
	},
	{
		"latitud":-93.13378572463989,
		"longitud":16.768338620012692
	},
	{
		"latitud":-93.13433021306992,
		"longitud":16.767547625398493
	},
	{
		"latitud":-93.13489347696304,
		"longitud":16.767067377063185
	},
	{
		"latitud":-93.13489347696304,
		"longitud":16.767067377063185
	},
	{
		"latitud":-93.13666641712189,
		"longitud":16.76610687675417
	},
	{
		"latitud":-93.1378385424614,
		"longitud":16.765482805771683
	},
	{
		"latitud":-93.13997089862823,
		"longitud":16.764332249785923
	},
	{
		"latitud":-93.14180552959442,
		"longitud":16.76331523468203
	},
	{
		"latitud":-93.14411222934723,
		"longitud":16.762103027757956
	},
	{
		"latitud":-93.14505636692047,
		"longitud":16.76159708317636
	},
	{
		"latitud":-93.14607560634613,
		"longitud":16.76112709284168
	},
	{
		"latitud":-93.14635187387466,
		"longitud":16.760939610034484
	},
	{
		"latitud":-93.1464484333992,
		"longitud":16.760903654406512
	},
	{
		"latitud":-93.14653694629669,
		"longitud":16.76085742573198
	},
	{
		"latitud":-93.14655303955078,
		"longitud":16.760816333567412
	},
	{
		"latitud":-93.14654231071472,
		"longitud":16.760734149211668
	},
	{
		"latitud":-93.14652621746063,
		"longitud":16.76065453308317
	},
	{
		"latitud":-93.14646989107132,
		"longitud":16.760554370809665
	},
	{
		"latitud":-93.14643770456314,
		"longitud":16.76043109409297
	},
	{
		"latitud":-93.14643234014511,
		"longitud":16.7603643191714
	},
	{
		"latitud":-93.14636796712875,
		"longitud":16.76023076925797
	},
	{
		"latitud":-93.14623653888702,
		"longitud":16.76004585383844
	},
	{
		"latitud":-93.14576178789139,
		"longitud":16.7596914321153
	},
	{
		"latitud":-93.14541846513748,
		"longitud":16.75945515059974
	},
	{
		"latitud":-93.1449893116951,
		"longitud":16.759077613221315
	},
	{
		"latitud":-93.14377695322037,
		"longitud":16.75791160869711
	},
	{
		"latitud":-93.14289182424545,
		"longitud":16.7568277831063
	},
	{
		"latitud":-93.14289182424545,
		"longitud":16.7568277831063
	},
	{
		"latitud":-93.14267456531525,
		"longitud":16.75636034931113
	},
	{
		"latitud":-93.14250022172928,
		"longitud":16.755399794941262
	},
	{
		"latitud":-93.14250022172928,
		"longitud":16.755225148171306
	},
	{
		"latitud":-93.14255118370056,
		"longitud":16.755045364564225
	},
	{
		"latitud":-93.14438313245773,
		"longitud":16.755145529737682
	},
	{
		"latitud":-93.14527899026871,
		"longitud":16.75521744316305
	},
	{
		"latitud":-93.14645916223526,
		"longitud":16.75526110487233
	},
	{
		"latitud":-93.14721018075943,
		"longitud":16.755340723257596
	},
	{
		"latitud":-93.14846009016037,
		"longitud":16.75539208994008
	},
	{
		"latitud":-93.15074533224106,
		"longitud":16.755564168225405
	},
	{
		"latitud":-93.15298765897751,
		"longitud":16.75570285807348
	},
	{
		"latitud":-93.15494567155838,
		"longitud":16.755841547820463
	},
	{
		"latitud":-93.15529972314835,
		"longitud":16.7558697994232
	},
	{
		"latitud":-93.15642088651657,
		"longitud":16.755926302616086
	},
	{
		"latitud":-93.15704047679901,
		"longitud":16.756003352397542
	},
	{
		"latitud":-93.15966367721558,
		"longitud":16.756627454477535
	},
	{
		"latitud":-93.16074460744858,
		"longitud":16.756884286014746
	},
	{
		"latitud":-93.16105842590332,
		"longitud":16.75691253746268
	},
	{
		"latitud":-93.16268920898438,
		"longitud":16.757274669287415
	},
	{
		"latitud":-93.16573083400726,
		"longitud":16.757957838087407
	},
	{
		"latitud":-93.16761642694473,
		"longitud":16.758361060626534
	},
	{
		"latitud":-93.1680080294609,
		"longitud":16.75843810942213
	},
	{
		"latitud":-93.1688180565834,
		"longitud":16.758656414173526
	},
	{
		"latitud":-93.17030936479568,
		"longitud":16.75898258668833
	},
	{
		"latitud":-93.17181676626205,
		"longitud":16.75932416832883
	},
	{
		"latitud":-93.17215204238892,
		"longitud":16.759429467808637
	},
	{
		"latitud":-93.17327320575714,
		"longitud":16.759678590736126
	},
	{
		"latitud":-93.17454993724823,
		"longitud":16.759968805693916
	},
	{
		"latitud":-93.17570865154266,
		"longitud":16.760181972150818
	},
	{
		"latitud":-93.17688345909119,
		"longitud":16.760423389295536
	},
	{
		"latitud":-93.17701756954193,
		"longitud":16.760397706635125
	}],"final":[	{
		"latitud":-93.17702293395996,
		"longitud":16.760382297037204
	},
	{
		"latitud":-93.17689418792725,
		"longitud":16.76031809036583
	},
	{
		"latitud":-93.17467868328094,
		"longitud":16.759750502448345
	},
	{
		"latitud":-93.17332953214645,
		"longitud":16.759519357562354
	},
	{
		"latitud":-93.17025035619736,
		"longitud":16.758820784644573
	},
	{
		"latitud":-93.1690165400505,
		"longitud":16.758535704518405
	},
	{
		"latitud":-93.16765397787094,
		"longitud":16.758248055669902
	},
	{
		"latitud":-93.16614389419556,
		"longitud":16.75788592569765
	},
	{
		"latitud":-93.16503882408142,
		"longitud":16.757652210243243
	},
	{
		"latitud":-93.16269993782043,
		"longitud":16.757105160859496
	},
	{
		"latitud":-93.16108256578445,
		"longitud":16.756776416811334
	},
	{
		"latitud":-93.1597226858139,
		"longitud":16.756488765303317
	},
	{
		"latitud":-93.15716654062271,
		"longitud":16.755895482694772
	},
	{
		"latitud":-93.15641552209854,
		"longitud":16.75575422465822
	},
	{
		"latitud":-93.15524071455002,
		"longitud":16.75567203811597
	},
	{
		"latitud":-93.15494030714035,
		"longitud":16.75568744809534
	},
	{
		"latitud":-93.15295279026031,
		"longitud":16.75555132656769
	},
	{
		"latitud":-93.15079629421234,
		"longitud":16.755399794941262
	},
	{
		"latitud":-93.15052002668381,
		"longitud":16.755404931608545
	},
	{
		"latitud":-93.14891070127487,
		"longitud":16.75528678822605
	},
	{
		"latitud":-93.14797729253769,
		"longitud":16.75524055818686
	},
	{
		"latitud":-93.14649671316147,
		"longitud":16.75513011971443
	},
	{
		"latitud":-93.14532190561295,
		"longitud":16.75503765954869
	},
	{
		"latitud":-93.14418733119965,
		"longitud":16.754996566127268
	},
	{
		"latitud":-93.14272284507751,
		"longitud":16.754857875764493
	},
	{
		"latitud":-93.14218640327454,
		"longitud":16.754837329035485
	},
	{
		"latitud":-93.14218640327454,
		"longitud":16.754837329035485
	},
	{
		"latitud":-93.14223736524582,
		"longitud":16.75501454450024
	},
	{
		"latitud":-93.14240634441376,
		"longitud":16.755417773276132
	},
	{
		"latitud":-93.14258337020874,
		"longitud":16.756378327555243
	},
	{
		"latitud":-93.142811357975,
		"longitud":16.756876581073666
	},
	{
		"latitud":-93.14370453357697,
		"longitud":16.757975816180604
	},
	{
		"latitud":-93.14528435468674,
		"longitud":16.7594628554364
	},
	{
		"latitud":-93.14607560634613,
		"longitud":16.760063831734332
	},
	{
		"latitud":-93.14622581005096,
		"longitud":16.76029497595882
	},
	{
		"latitud":-93.14626067876816,
		"longitud":16.760390001836317
	},
	{
		"latitud":-93.14628481864929,
		"longitud":16.760572348657515
	},
	{
		"latitud":-93.14621776342392,
		"longitud":16.76078808269913
	},
	{
		"latitud":-93.14595758914948,
		"longitud":16.760983270430753
	},
	{
		"latitud":-93.14527630805969,
		"longitud":16.761383918305075
	},
	{
		"latitud":-93.14480692148209,
		"longitud":16.76163817517227
	},
	{
		"latitud":-93.14329147338867,
		"longitud":16.762429194363683
	},
	{
		"latitud":-93.14225614070892,
		"longitud":16.762976228438987
	},
	{
		"latitud":-93.1416580080986,
		"longitud":16.76328184773036
	},
	{
		"latitud":-93.1412073969841,
		"longitud":16.763510419820598
	},
	{
		"latitud":-93.13991457223892,
		"longitud":16.764221816590847
	},
	{
		"latitud":-93.13829988241196,
		"longitud":16.76506675731234
	},
	{
		"latitud":-93.13677102327347,
		"longitud":16.76586546682273
	},
	{
		"latitud":-93.13560158014297,
		"longitud":16.7664766956293
	},
	{
		"latitud":-93.13474863767624,
		"longitud":16.766926127322
	},
	{
		"latitud":-93.13413977622986,
		"longitud":16.76746544395119
	},
	{
		"latitud":-93.13395202159882,
		"longitud":16.76773766985934
	},
	{
		"latitud":-93.13361406326294,
		"longitud":16.768338620012692
	},
	{
		"latitud":-93.13323050737381,
		"longitud":16.769296540903223
	},
	{
		"latitud":-93.13269942998886,
		"longitud":16.77059858649366
	},
	{
		"latitud":-93.13226222991943,
		"longitud":16.77162840321935
	},
	{
		"latitud":-93.13213884830475,
		"longitud":16.771805603041066
	},
	{
		"latitud":-93.13209593296051,
		"longitud":16.771867237722955
	},
	{
		"latitud":-93.13194841146469,
		"longitud":16.772011051902975
	},
	{
		"latitud":-93.13174456357956,
		"longitud":16.77215229786673
	},
	{
		"latitud":-93.13110083341599,
		"longitud":16.772365450667905
	},
	{
		"latitud":-93.12978386878967,
		"longitud":16.772863662307177
	},
	{
		"latitud":-93.12963366508484,
		"longitud":16.77292529664601
	},
	{
		"latitud":-93.12723308801651,
		"longitud":16.773736813577035
	},
	{
		"latitud":-93.12569350004196,
		"longitud":16.77424015778074
	},
	{
		"latitud":-93.12487542629242,
		"longitud":16.774365993623405
	},
	{
		"latitud":-93.12401980161667,
		"longitud":16.774353153235115
	},
	{
		"latitud":-93.12297910451889,
		"longitud":16.77412459417837
	},
	{
		"latitud":-93.12232464551926,
		"longitud":16.774003894340897
	},
	{
		"latitud":-93.12037736177444,
		"longitud":16.773510821868342
	},
	{
		"latitud":-93.1191086769104,
		"longitud":16.77314615286276
	},
	{
		"latitud":-93.11821550130844,
		"longitud":16.772863662307177
	},
	{
		"latitud":-93.11674296855927,
		"longitud":16.772226772969006
	},
	{
		"latitud":-93.11477422714233,
		"longitud":16.771379295944325
	},
	{
		"latitud":-93.11289668083191,
		"longitud":16.770426521808588
	},
	{
		"latitud":-93.11212956905365,
		"longitud":16.770233911901787
	},
	{
		"latitud":-93.11169236898422,
		"longitud":16.770074687564843
	},
	{
		"latitud":-93.11128735542297,
		"longitud":16.770059278750967
	},
	{
		"latitud":-93.10932666063309,
		"longitud":16.77022363936794
	},
	{
		"latitud":-93.10809820890427,
		"longitud":16.77024418443507
	},
	{
		"latitud":-93.10712456703186,
		"longitud":16.770303251490724
	},
	{
		"latitud":-93.10502171516418,
		"longitud":16.77041368115421
	},
	{
		"latitud":-93.1034928560257,
		"longitud":16.770508701976112
	},
	{
		"latitud":-93.10313612222672,
		"longitud":16.77051897449455
	},
	{
		"latitud":-93.10301810503006,
		"longitud":16.770513838235395
	},
	{
		"latitud":-93.10249775648117,
		"longitud":16.77041881741606
	},
	{
		"latitud":-93.10226440429688,
		"longitud":16.770352046001094
	},
	{
		"latitud":-93.10206592082977,
		"longitud":16.770269865765872
	},
	{
		"latitud":-93.1018379330635,
		"longitud":16.77013889094256
	},
	{
		"latitud":-93.10150802135468,
		"longitud":16.76986666847213
	},
	{
		"latitud":-93.10101449489594,
		"longitud":16.769489151759597
	},
	{
		"latitud":-93.10068994760513,
		"longitud":16.76921436021177
	},
	{
		"latitud":-93.10048878192902,
		"longitud":16.769057703170322
	},
	{
		"latitud":-93.09986650943756,
		"longitud":16.768664775924744
	},
	{
		"latitud":-93.09840470552444,
		"longitud":16.767840396515854
	},
	{
		"latitud":-93.09769660234451,
		"longitud":16.767349876230845
	},
	{
		"latitud":-93.09709042310715,
		"longitud":16.766874763753737
	},
	{
		"latitud":-93.09600949287415,
		"longitud":16.765993876398888
	},
	{
		"latitud":-93.09568762779236,
		"longitud":16.765757602711783
	},
	{
		"latitud":-93.09466302394867,
		"longitud":16.765169485411604
	},
	{
		"latitud":-93.09366792440414,
		"longitud":16.764553115983713
	},
	{
		"latitud":-93.09356600046158,
		"longitud":16.764501751774553
	},
	{
		"latitud":-93.0916240811348,
		"longitud":16.763081525897345
	},
	{
		"latitud":-93.09140145778656,
		"longitud":16.76291459087534
	},
	{
		"latitud":-93.09131026268005,
		"longitud":16.762873499155145
	},
	{
		"latitud":-93.09121906757355,
		"longitud":16.763130322260718
	},
	{
		"latitud":-93.09083819389343,
		"longitud":16.76423465766334
	},
	{
		"latitud":-93.09055119752884,
		"longitud":16.76494091531512
	},
	{
		"latitud":-93.09036880731583,
		"longitud":16.765549578896444
	},
	{
		"latitud":-93.09022665023804,
		"longitud":16.765880875976457
	},
	{
		"latitud":-93.08879435062408,
		"longitud":16.765482805771683
	},
	{
		"latitud":-93.08852076530457,
		"longitud":16.76539805523341
	},
	{
		"latitud":-93.08835983276367,
		"longitud":16.765367236846494
	},
	{
		"latitud":-93.08821231126785,
		"longitud":16.765382646040575
	},
	{
		"latitud":-93.08812648057938,
		"longitud":16.765416032623474
	},
	{
		"latitud":-93.0876275897026,
		"longitud":16.76555214709308
	},
	{
		"latitud":-93.08721452951431,
		"longitud":16.765644602148964
	},
	{
		"latitud":-93.0869972705841,
		"longitud":16.76566514771082
	},
	{
		"latitud":-93.08587074279785,
		"longitud":16.765374941443692
	},
	{
		"latitud":-93.08507680892944,
		"longitud":16.765190031024797
	},
	{
		"latitud":-93.08425337076187,
		"longitud":16.76506932551549
	},
	{
		"latitud":-93.08340311050415,
		"longitud":16.765012825038017
	},
	{
		"latitud":-93.0826386809349,
		"longitud":16.765017961445757
	},
	{
		"latitud":-93.08251529932022,
		"longitud":16.76509757574794
	},
	{
		"latitud":-93.08244287967682,
		"longitud":16.765254236051735
	},
	{
		"latitud":-93.08239459991455,
		"longitud":16.7658218075471
	},
	{
		"latitud":-93.08226585388184,
		"longitud":16.767516807359915
	},
	{
		"latitud":-93.08225244283676,
		"longitud":16.767966236594464
	},
	{
		"latitud":-93.08226853609085,
		"longitud":16.76816141695977
	},
	{
		"latitud":-93.08202981948853,
		"longitud":16.769240041681662
	},
	{
		"latitud":-93.08183670043945,
		"longitud":16.770164572287573
	},
	{
		"latitud":-93.08160066604614,
		"longitud":16.770994077866046
	},
	{
		"latitud":-93.08154970407486,
		"longitud":16.771417817709214
	},
	{
		"latitud":-93.08143973350525,
		"longitud":16.771836420384506
	},
	{
		"latitud":-93.08134317398071,
		"longitud":16.772252454031978
	},
	{
		"latitud":-93.08124125003815,
		"longitud":16.772678759170734
	},
	{
		"latitud":-93.08126270771027,
		"longitud":16.773066541930486
	},
	{
		"latitud":-93.081394135952,
		"longitud":16.773942260351774
	},
	{
		"latitud":-93.0815201997757,
		"longitud":16.775059373303094
	},
	{
		"latitud":-93.08172941207886,
		"longitud":16.776189319953936
	},
	{
		"latitud":-93.0817374587059,
		"longitud":16.77658993578978
	},
	{
		"latitud":-93.08124125003815,
		"longitud":16.77634853916931
	},
	{
		"latitud":-93.08133244514465,
		"longitud":16.77693148580347
	},
	{
		"latitud":-93.08112859725952,
		"longitud":16.77729614754656
	},
	{
		"latitud":-93.08118492364883,
		"longitud":16.77782773066507
	}]}