{
"inicio":[	{
		"latitud":-93.1191435456276,
		"longitud":16.751408562562755
	},
	{
		"latitud":-93.11929911375046,
		"longitud":16.750602087169337
	},
	{
		"latitud":-93.12185525894165,
		"longitud":16.750956525820396
	},
	{
		"latitud":-93.12440603971481,
		"longitud":16.751318668977905
	},
	{
		"latitud":-93.12538236379623,
		"longitud":16.751449656758837
	},
	{
		"latitud":-93.12636941671371,
		"longitud":16.751508729650144
	},
	{
		"latitud":-93.1264927983284,
		"longitud":16.751544687053283
	},
	{
		"latitud":-93.12669664621353,
		"longitud":16.74996255489022
	},
	{
		"latitud":-93.12705874443054,
		"longitud":16.750021628243015
	},
	{
		"latitud":-93.12739670276642,
		"longitud":16.75019627978753
	},
	{
		"latitud":-93.12778830528259,
		"longitud":16.750360657565405
	},
	{
		"latitud":-93.12803506851196,
		"longitud":16.75044027800054
	},
	{
		"latitud":-93.1284561753273,
		"longitud":16.75045312000309
	},
	{
		"latitud":-93.12893897294998,
		"longitud":16.75044541480166
	},
	{
		"latitud":-93.12889873981476,
		"longitud":16.749921460373123
	},
	{
		"latitud":-93.12884777784348,
		"longitud":16.748963441929355
	},
	{
		"latitud":-93.12883973121643,
		"longitud":16.74801826083163
	},
	{
		"latitud":-93.12897384166718,
		"longitud":16.747055095918732
	},
	{
		"latitud":-93.1291052699089,
		"longitud":16.74652856370664
	},
	{
		"latitud":-93.12937080860138,
		"longitud":16.74499005392502
	},
	{
		"latitud":-93.12945932149887,
		"longitud":16.744453242077768
	},
	{
		"latitud":-93.13048392534256,
		"longitud":16.744651015039654
	},
	{
		"latitud":-93.13048124313354,
		"longitud":16.744550844344374
	},
	{
		"latitud":-93.13040614128113,
		"longitud":16.744535433463493
	},
	{
		"latitud":-93.1304544210434,
		"longitud":16.743903586273937
	},
	{
		"latitud":-93.13039273023605,
		"longitud":16.74390101778515
	},
	{
		"latitud":-93.13039273023605,
		"longitud":16.743369339860195
	},
	{
		"latitud":-93.13037395477295,
		"longitud":16.743287147971206
	},
	{
		"latitud":-93.13036322593689,
		"longitud":16.743199819050314
	},
	{
		"latitud":-93.1304383277893,
		"longitud":16.742647591123273
	},
	{
		"latitud":-93.12900066375732,
		"longitud":16.74249861773385
	}],"final":[	{
		"latitud":-93.12974095344543,
		"longitud":16.7384634493669
	},
	{
		"latitud":-93.12965780496597,
		"longitud":16.739077334726655
	},
	{
		"latitud":-93.12946200370789,
		"longitud":16.740269139985966
	},
	{
		"latitud":-93.12916427850723,
		"longitud":16.74176145459203
	},
	{
		"latitud":-93.12875926494598,
		"longitud":16.743690401586605
	},
	{
		"latitud":-93.12866270542145,
		"longitud":16.74421694164622
	},
	{
		"latitud":-93.12780976295471,
		"longitud":16.74401916823357
	},
	{
		"latitud":-93.12778562307358,
		"longitud":16.744101359806617
	},
	{
		"latitud":-93.12864661216736,
		"longitud":16.744304270100727
	},
	{
		"latitud":-93.12945932149887,
		"longitud":16.74444553663354
	},
	{
		"latitud":-93.12924474477768,
		"longitud":16.74576059460147
	},
	{
		"latitud":-93.12898725271225,
		"longitud":16.747052527472462
	},
	{
		"latitud":-93.12884241342545,
		"longitud":16.748023397698105
	},
	{
		"latitud":-93.12885046005249,
		"longitud":16.748983989292427
	},
	{
		"latitud":-93.12890410423279,
		"longitud":16.74991632355785
	},
	{
		"latitud":-93.12841057777405,
		"longitud":16.74994457604009
	},
	{
		"latitud":-93.12803506851196,
		"longitud":16.74994200763277
	},
	{
		"latitud":-93.127860724926,
		"longitud":16.749882934255286
	},
	{
		"latitud":-93.12772929668427,
		"longitud":16.749800745177843
	},
	{
		"latitud":-93.12761396169662,
		"longitud":16.74971598765456
	},
	{
		"latitud":-93.12745034694672,
		"longitud":16.749448872788893
	},
	{
		"latitud":-93.12735110521317,
		"longitud":16.749238262726706
	},
	{
		"latitud":-93.12722772359848,
		"longitud":16.749099568168283
	},
	{
		"latitud":-93.12688440084457,
		"longitud":16.74894032614327
	},
	{
		"latitud":-93.12665104866028,
		"longitud":16.748899231405517
	},
	{
		"latitud":-93.12583029270172,
		"longitud":16.749091862912074
	},
	{
		"latitud":-93.1255915760994,
		"longitud":16.749063610303317
	},
	{
		"latitud":-93.12541455030441,
		"longitud":16.748914641933215
	},
	{
		"latitud":-93.12533408403397,
		"longitud":16.748775947139038
	},
	{
		"latitud":-93.12530189752579,
		"longitud":16.748606431142264
	},
	{
		"latitud":-93.12532603740692,
		"longitud":16.74839838857632
	},
	{
		"latitud":-93.12539041042328,
		"longitud":16.74821859852139
	},
	{
		"latitud":-93.12544137239456,
		"longitud":16.748087608517316
	},
	{
		"latitud":-93.1254655122757,
		"longitud":16.74792836564592
	},
	{
		"latitud":-93.12545478343964,
		"longitud":16.74783333354629
	},
	{
		"latitud":-93.12543869018555,
		"longitud":16.747763985767975
	},
	{
		"latitud":-93.12540113925934,
		"longitud":16.74765354295779
	},
	{
		"latitud":-93.12525361776352,
		"longitud":16.747432657145204
	},
	{
		"latitud":-93.12428802251816,
		"longitud":16.74725800306548
	},
	{
		"latitud":-93.12400370836258,
		"longitud":16.748829884015443
	},
	{
		"latitud":-93.12366843223572,
		"longitud":16.750409457190898
	},
	{
		"latitud":-93.12341630458832,
		"longitud":16.752017269434596
	},
	{
		"latitud":-93.1225311756134,
		"longitud":16.751906829091848
	},
	{
		"latitud":-93.12083601951599,
		"longitud":16.75167824306259
	},
	{
		"latitud":-93.11915427446365,
		"longitud":16.751413699337757
	}]}