{
"inicio":[	{
		"latitud":-93.19494277238846,
		"longitud":16.769091089108016
	},
	{
		"latitud":-93.19379210472107,
		"longitud":16.7682975294644
	},
	{
		"latitud":-93.1921237707138,
		"longitud":16.76715726320751
	},
	{
		"latitud":-93.19081485271454,
		"longitud":16.76620446791607
	},
	{
		"latitud":-93.1897982954979,
		"longitud":16.76546739658572
	},
	{
		"latitud":-93.18833917379379,
		"longitud":16.764427273646643
	},
	{
		"latitud":-93.1870248913765,
		"longitud":16.76350271514788
	},
	{
		"latitud":-93.18609952926636,
		"longitud":16.762883772086035
	},
	{
		"latitud":-93.18575084209442,
		"longitud":16.76263722159177
	},
	{
		"latitud":-93.18505346775055,
		"longitud":16.762267395251214
	},
	{
		"latitud":-93.18488448858261,
		"longitud":16.762198052732312
	},
	{
		"latitud":-93.18393766880035,
		"longitud":16.761923250649573
	},
	{
		"latitud":-93.18290770053864,
		"longitud":16.76168697190591
	},
	{
		"latitud":-93.18193137645721,
		"longitud":16.76145839762459
	},
	{
		"latitud":-93.18086922168732,
		"longitud":16.761232391323603
	},
	{
		"latitud":-93.17982584238052,
		"longitud":16.761003816496117
	},
	{
		"latitud":-93.17895412445068,
		"longitud":16.76083174313017
	},
	{
		"latitud":-93.17747354507446,
		"longitud":16.7604773228711
	},
	{
		"latitud":-93.17707926034927,
		"longitud":16.760397706635125
	},
	{
		"latitud":-93.17689418792725,
		"longitud":16.760312953831175
	},
	{
		"latitud":-93.17556917667389,
		"longitud":16.759963669149833
	},
	{
		"latitud":-93.17467868328094,
		"longitud":16.75972995624763
	},
	{
		"latitud":-93.1736969947815,
		"longitud":16.75957072311685
	},
	{
		"latitud":-93.17332416772842,
		"longitud":16.759519357562354
	},
	{
		"latitud":-93.17134737968445,
		"longitud":16.75905449866361
	},
	{
		"latitud":-93.17023694515228,
		"longitud":16.758813079781913
	},
	{
		"latitud":-93.16901385784149,
		"longitud":16.758535704518405
	},
	{
		"latitud":-93.16817164421082,
		"longitud":16.758348219157565
	},
	{
		"latitud":-93.16710948944092,
		"longitud":16.75810679937973
	},
	{
		"latitud":-93.16614925861359,
		"longitud":16.757883357397507
	},
	{
		"latitud":-93.16580593585968,
		"longitud":16.757816581581793
	},
	{
		"latitud":-93.1650361418724,
		"longitud":16.757641937029867
	},
	{
		"latitud":-93.16411882638931,
		"longitud":16.757439040952086
	},
	{
		"latitud":-93.16268652677536,
		"longitud":16.757097455927358
	},
	{
		"latitud":-93.16153049468994,
		"longitud":16.756858602876616
	},
	{
		"latitud":-93.16091626882553,
		"longitud":16.756732755449704
	},
	{
		"latitud":-93.1597951054573,
		"longitud":16.756496470260085
	},
	{
		"latitud":-93.15855592489243,
		"longitud":16.75621138665163
	},
	{
		"latitud":-93.15717726945877,
		"longitud":16.755895482694772
	},
	{
		"latitud":-93.15717726945877,
		"longitud":16.755895482694772
	},
	{
		"latitud":-93.1564450263977,
		"longitud":16.755759361315935
	},
	{
		"latitud":-93.15522193908691,
		"longitud":16.75566176479569
	},
	{
		"latitud":-93.15493494272232,
		"longitud":16.75568487976553
	},
	{
		"latitud":-93.15294206142426,
		"longitud":16.75554875823605
	},
	{
		"latitud":-93.15123349428177,
		"longitud":16.75542804660958
	},
	{
		"latitud":-93.15079361200333,
		"longitud":16.75539722660758
	},
	{
		"latitud":-93.15048784017563,
		"longitud":16.755399794941262
	},
	{
		"latitud":-93.14933717250824,
		"longitud":16.75530990324145
	},
	{
		"latitud":-93.14797461032867,
		"longitud":16.75523285317924
	},
	{
		"latitud":-93.1464833021164,
		"longitud":16.755119846364902
	},
	{
		"latitud":-93.14531922340393,
		"longitud":16.75503765954869
	},
	{
		"latitud":-93.14419001340866,
		"longitud":16.75498372443126
	},
	{
		"latitud":-93.14359456300735,
		"longitud":16.75492722095852
	},
	{
		"latitud":-93.14242780208588,
		"longitud":16.754850170741367
	},
	{
		"latitud":-93.14085066318512,
		"longitud":16.75473459535717
	},
	{
		"latitud":-93.13910186290741,
		"longitud":16.75460360983689
	},
	{
		"latitud":-93.13721358776093,
		"longitud":16.75446491918775
	},
	{
		"latitud":-93.13588589429855,
		"longitud":16.754377595393837
	},
	{
		"latitud":-93.13478082418442,
		"longitud":16.754267156420635
	},
	{
		"latitud":-93.13281744718552,
		"longitud":16.75413617057865
	},
	{
		"latitud":-93.13212811946869,
		"longitud":16.754100213665076
	},
	{
		"latitud":-93.13160508871078,
		"longitud":16.75413103387713
	},
	{
		"latitud":-93.13125103712082,
		"longitud":16.754190105936264
	},
	{
		"latitud":-93.13125103712082,
		"longitud":16.754190105936264
	},
	{
		"latitud":-93.13021838665009,
		"longitud":16.7543621853084
	},
	{
		"latitud":-93.12948077917099,
		"longitud":16.75451885445219
	},
	{
		"latitud":-93.12923938035965,
		"longitud":16.75460874652565
	},
	{
		"latitud":-93.12903821468353,
		"longitud":16.754729458671797
	},
	{
		"latitud":-93.12821477651596,
		"longitud":16.754863012446393
	},
	{
		"latitud":-93.12793850898743,
		"longitud":16.754896400875392
	},
	{
		"latitud":-93.12745571136475,
		"longitud":16.75489383253492
	},
	{
		"latitud":-93.12657326459885,
		"longitud":16.754937494318444
	},
	{
		"latitud":-93.12590003013611,
		"longitud":16.754968314394905
	},
	{
		"latitud":-93.12578469514847,
		"longitud":16.754976019413235
	},
	{
		"latitud":-93.1248888373375,
		"longitud":16.754955472696988
	},
	{
		"latitud":-93.12398225069046,
		"longitud":16.754852739082438
	},
	{
		"latitud":-93.12312126159668,
		"longitud":16.754714048614844
	},
	{
		"latitud":-93.12215030193329,
		"longitud":16.754570221356524
	},
	{
		"latitud":-93.12129467725754,
		"longitud":16.754452077455856
	},
	{
		"latitud":-93.120476603508,
		"longitud":16.7542851348625
	},
	{
		"latitud":-93.11962634325027,
		"longitud":16.754151580682382
	},
	{
		"latitud":-93.11866611242294,
		"longitud":16.75402316311311
	},
	{
		"latitud":-93.11711579561234,
		"longitud":16.75374834922377
	},
	{
		"latitud":-93.11626553535461,
		"longitud":16.753612226309208
	},
	{
		"latitud":-93.11461597681046,
		"longitud":16.753373368884198
	},
	{
		"latitud":-93.11368256807327,
		"longitud":16.753244950789856
	},
	{
		"latitud":-93.11289668083191,
		"longitud":16.753119100973354
	},
	{
		"latitud":-93.11206787824631,
		"longitud":16.752957293944128
	},
	{
		"latitud":-93.11120688915253,
		"longitud":16.75286483272283
	},
	{
		"latitud":-93.10940444469452,
		"longitud":16.752584880417764
	},
	{
		"latitud":-93.10870170593262,
		"longitud":16.752464166911476
	},
	{
		"latitud":-93.10851395130157,
		"longitud":16.752399957568425
	},
	{
		"latitud":-93.10634404420853,
		"longitud":16.752042953226052
	},
	{
		"latitud":-93.10515314340591,
		"longitud":16.751893987187373
	},
	{
		"latitud":-93.10403734445572,
		"longitud":16.751693653365322
	},
	{
		"latitud":-93.10185134410858,
		"longitud":16.751318668977905
	},
	{
		"latitud":-93.09961706399918,
		"longitud":16.750779306577357
	},
	{
		"latitud":-93.0972808599472,
		"longitud":16.750255353067793
	},
	{
		"latitud":-93.09650838375092,
		"longitud":16.750103817225092
	},
	{
		"latitud":-93.09367328882217,
		"longitud":16.749466851685842
	},
	{
		"latitud":-93.09261918067932,
		"longitud":16.749238262726706
	},
	{
		"latitud":-93.09177160263062,
		"longitud":16.749068747141585
	},
	{
		"latitud":-93.09021592140198,
		"longitud":16.748696326007845
	},
	{
		"latitud":-93.08878362178802,
		"longitud":16.74839838857632
	},
	{
		"latitud":-93.08673977851868,
		"longitud":16.74799000806355
	},
	{
		"latitud":-93.08564811944962,
		"longitud":16.74775628045772
	},
	{
		"latitud":-93.08356672525406,
		"longitud":16.74736587766305
	},
	{
		"latitud":-93.08345139026642,
		"longitud":16.74721947640868
	},
	{
		"latitud":-93.0832314491272,
		"longitud":16.74720663418802
	},
	{
		"latitud":-93.08310806751251,
		"longitud":16.747296529714482
	},
	{
		"latitud":-93.08212369680405,
		"longitud":16.747062801257382
	},
	{
		"latitud":-93.08082550764084,
		"longitud":16.746931810458157
	},
	{
		"latitud":-93.0796667933464,
		"longitud":16.74674431366717
	},
	{
		"latitud":-93.07789385318756,
		"longitud":16.746364182620237
	},
	{
		"latitud":-93.07687729597092,
		"longitud":16.74599689311756
	},
	{
		"latitud":-93.07617992162704,
		"longitud":16.74562189750981
	},
	{
		"latitud":-93.07433724403381,
		"longitud":16.74456111826425
	},
	{
		"latitud":-93.07242214679718,
		"longitud":16.743592798879035
	},
	{
		"latitud":-93.07005107402802,
		"longitud":16.74234707571815
	},
	{
		"latitud":-93.06978285312653,
		"longitud":16.74221351316368
	},
	{
		"latitud":-93.0688789486885,
		"longitud":16.74165614533888
	},
	{
		"latitud":-93.06877166032791,
		"longitud":16.741527719341597
	},
	{
		"latitud":-93.0675458908081,
		"longitud":16.740826511869358
	},
	{
		"latitud":-93.06630671024323,
		"longitud":16.739991737703466
	},
	{
		"latitud":-93.06390881538391,
		"longitud":16.73829392419097
	},
	{
		"latitud":-93.0630424618721,
		"longitud":16.737744250613293
	},
	{
		"latitud":-93.06222170591354,
		"longitud":16.73715090959773
	},
	{
		"latitud":-93.0606284737587,
		"longitud":16.736310982143777
	},
	{
		"latitud":-93.05851489305496,
		"longitud":16.735257856862958
	},
	{
		"latitud":-93.0580884218216,
		"longitud":16.735021545024757
	},
	{
		"latitud":-93.05699408054352,
		"longitud":16.734466724774677
	}],"final":[	{
		"latitud":-93.05798918008804,
		"longitud":16.73511658351665
	},
	{
		"latitud":-93.05862218141556,
		"longitud":16.735432521946294
	},
	{
		"latitud":-93.05958777666092,
		"longitud":16.735928261678414
	},
	{
		"latitud":-93.06049972772598,
		"longitud":16.736377765501906
	},
	{
		"latitud":-93.06140899658203,
		"longitud":16.73685552268894
	},
	{
		"latitud":-93.06210100650787,
		"longitud":16.737243378448976
	},
	{
		"latitud":-93.06325435638428,
		"longitud":16.73802679330458
	},
	{
		"latitud":-93.06412875652313,
		"longitud":16.738640680071374
	},
	{
		"latitud":-93.06520164012909,
		"longitud":16.73938556093957
	},
	{
		"latitud":-93.0657970905304,
		"longitud":16.739773411548885
	},
	{
		"latitud":-93.0668431520462,
		"longitud":16.740438663404195
	},
	{
		"latitud":-93.06685656309128,
		"longitud":16.74049517117674
	},
	{
		"latitud":-93.0680850148201,
		"longitud":16.74134278575338
	},
	{
		"latitud":-93.06956827640533,
		"longitud":16.74222635572106
	},
	{
		"latitud":-93.07061970233917,
		"longitud":16.742783721877252
	},
	{
		"latitud":-93.0716148018837,
		"longitud":16.743269168490762
	},
	{
		"latitud":-93.07326436042786,
		"longitud":16.744170708918798
	},
	{
		"latitud":-93.0757936835289,
		"longitud":16.745526864259052
	},
	{
		"latitud":-93.07685315608978,
		"longitud":16.74611247380668
	},
	{
		"latitud":-93.07793140411377,
		"longitud":16.7465003107175
	},
	{
		"latitud":-93.07985186576843,
		"longitud":16.74687016769793
	},
	{
		"latitud":-93.0811259150505,
		"longitud":16.747075643487737
	},
	{
		"latitud":-93.0827647447586,
		"longitud":16.747388993640296
	},
	{
		"latitud":-93.08308124542236,
		"longitud":16.74749943660394
	},
	{
		"latitud":-93.08329582214355,
		"longitud":16.747612447942284
	},
	{
		"latitud":-93.08349698781967,
		"longitud":16.747576489796447
	},
	{
		"latitud":-93.08455914258957,
		"longitud":16.747722890776323
	},
	{
		"latitud":-93.08574467897415,
		"longitud":16.74790268129934
	},
	{
		"latitud":-93.08670490980148,
		"longitud":16.748128703430268
	},
	{
		"latitud":-93.08766514062881,
		"longitud":16.74832904100382
	},
	{
		"latitud":-93.09019178152084,
		"longitud":16.74887097876817
	},
	{
		"latitud":-93.09200495481491,
		"longitud":16.749269083725977
	},
	{
		"latitud":-93.09445381164551,
		"longitud":16.749798176768593
	},
	{
		"latitud":-93.09694021940231,
		"longitud":16.75035295236025
	},
	{
		"latitud":-93.099584877491,
		"longitud":16.750946252245594
	},
	{
		"latitud":-93.10182452201843,
		"longitud":16.751447088371837
	},
	{
		"latitud":-93.103007376194,
		"longitud":16.75163458053139
	},
	{
		"latitud":-93.10524433851242,
		"longitud":16.751999290778514
	},
	{
		"latitud":-93.10634940862656,
		"longitud":16.75213284646885
	},
	{
		"latitud":-93.10764759778976,
		"longitud":16.75235629520278
	},
	{
		"latitud":-93.1085193157196,
		"longitud":16.752492419015542
	},
	{
		"latitud":-93.10875535011292,
		"longitud":16.752489850642615
	},
	{
		"latitud":-93.10940980911255,
		"longitud":16.752590017161015
	},
	{
		"latitud":-93.11031371355057,
		"longitud":16.752738982654975
	},
	{
		"latitud":-93.11121225357056,
		"longitud":16.752875106194086
	},
	{
		"latitud":-93.11206787824631,
		"longitud":16.752977840876106
	},
	{
		"latitud":-93.11292886734009,
		"longitud":16.753144784616126
	},
	{
		"latitud":-93.11377108097076,
		"longitud":16.753265497690776
	},
	{
		"latitud":-93.11460793018341,
		"longitud":16.753386210688866
	},
	{
		"latitud":-93.11627089977264,
		"longitud":16.753625068097758
	},
	{
		"latitud":-93.11792582273483,
		"longitud":16.753915292287974
	},
	{
		"latitud":-93.11883509159088,
		"longitud":16.75405398333765
	},
	{
		"latitud":-93.11967462301254,
		"longitud":16.754164422434545
	},
	{
		"latitud":-93.120476603508,
		"longitud":16.7542928399085
	},
	{
		"latitud":-93.12131881713867,
		"longitud":16.75447005588025
	},
	{
		"latitud":-93.12219589948654,
		"longitud":16.7545856314251
	},
	{
		"latitud":-93.12311857938766,
		"longitud":16.754714048614844
	},
	{
		"latitud":-93.12399297952652,
		"longitud":16.754863012446393
	},
	{
		"latitud":-93.1248888373375,
		"longitud":16.754965746055387
	},
	{
		"latitud":-93.1258973479271,
		"longitud":16.75497345107383
	},
	{
		"latitud":-93.1265839934349,
		"longitud":16.75494776767782
	},
	{
		"latitud":-93.12762200832367,
		"longitud":16.75489126419439
	},
	{
		"latitud":-93.12826305627823,
		"longitud":16.754870717469
	},
	{
		"latitud":-93.1290677189827,
		"longitud":16.754726890329056
	},
	{
		"latitud":-93.12929570674896,
		"longitud":16.754760278781948
	},
	{
		"latitud":-93.12959611415863,
		"longitud":16.75465754506204
	},
	{
		"latitud":-93.13023179769516,
		"longitud":16.754549674596447
	},
	{
		"latitud":-93.13081115484238,
		"longitud":16.754449509109374
	},
	{
		"latitud":-93.13120543956757,
		"longitud":16.754372458698832
	},
	{
		"latitud":-93.13205033540726,
		"longitud":16.754262019722642
	},
	{
		"latitud":-93.13273161649704,
		"longitud":16.7542928399085
	},
	{
		"latitud":-93.13273161649704,
		"longitud":16.7542928399085
	},
	{
		"latitud":-93.13323050737381,
		"longitud":16.754364753656063
	},
	{
		"latitud":-93.13377231359482,
		"longitud":16.75440071051965
	},
	{
		"latitud":-93.13521802425385,
		"longitud":16.754493170994845
	},
	{
		"latitud":-93.13586443662643,
		"longitud":16.75453683287029
	},
	{
		"latitud":-93.13640892505646,
		"longitud":16.754572789701374
	},
	{
		"latitud":-93.1379297375679,
		"longitud":16.754678091810465
	},
	{
		"latitud":-93.13906967639923,
		"longitud":16.754765415466483
	},
	{
		"latitud":-93.14097672700882,
		"longitud":16.75491437925783
	},
	{
		"latitud":-93.14222663640976,
		"longitud":16.75500683948345
	},
	{
		"latitud":-93.14254581928253,
		"longitud":16.755042796225748
	},
	{
		"latitud":-93.14383327960968,
		"longitud":16.755114709689934
	},
	{
		"latitud":-93.1443777680397,
		"longitud":16.755155803085824
	},
	{
		"latitud":-93.1453138589859,
		"longitud":16.75521744316305
	},
	{
		"latitud":-93.14645111560822,
		"longitud":16.755268809878814
	},
	{
		"latitud":-93.14719945192337,
		"longitud":16.75534329159204
	},
	{
		"latitud":-93.14845204353333,
		"longitud":16.755410068275687
	},
	{
		"latitud":-93.14933180809021,
		"longitud":16.755458866606606
	},
	{
		"latitud":-93.15073192119598,
		"longitud":16.75556930488825
	},
	{
		"latitud":-93.15197378396988,
		"longitud":16.755646354814242
	},
	{
		"latitud":-93.15307348966599,
		"longitud":16.755713131391534
	},
	{
		"latitud":-93.15397202968597,
		"longitud":16.755777339616838
	},
	{
		"latitud":-93.15494567155838,
		"longitud":16.755838979492736
	},
	{
		"latitud":-93.15570205450058,
		"longitud":16.75589291436777
	},
	{
		"latitud":-93.15683126449585,
		"longitud":16.75599307909515
	},
	{
		"latitud":-93.1574696302414,
		"longitud":16.75610865371507
	},
	{
		"latitud":-93.15854519605637,
		"longitud":16.756350076028014
	},
	{
		"latitud":-93.15974950790405,
		"longitud":16.756648001013264
	},
	{
		"latitud":-93.16074728965759,
		"longitud":16.756884286014746
	},
	{
		"latitud":-93.16106379032135,
		"longitud":16.75690996914939
	},
	{
		"latitud":-93.16232174634933,
		"longitud":16.757189915092315
	},
	{
		"latitud":-93.16408395767212,
		"longitud":16.757593139258766
	},
	{
		"latitud":-93.16573351621628,
		"longitud":16.757962974685633
	},
	{
		"latitud":-93.16724628210068,
		"longitud":16.758284011799752
	},
	{
		"latitud":-93.16762447357178,
		"longitud":16.7583687655075
	},
	{
		"latitud":-93.16814482212067,
		"longitud":16.758484338684493
	},
	{
		"latitud":-93.1688180565834,
		"longitud":16.75866668733212
	},
	{
		"latitud":-93.17116498947144,
		"longitud":16.759172639706843
	},
	{
		"latitud":-93.17213594913483,
		"longitud":16.759419194691212
	},
	{
		"latitud":-93.17458748817444,
		"longitud":16.759971373965904
	},
	{
		"latitud":-93.1768673658371,
		"longitud":16.76040027490131
	},
	{
		"latitud":-93.17704975605011,
		"longitud":16.76040797969969
	},
	{
		"latitud":-93.17880392074585,
		"longitud":16.760813765306846
	},
	{
		"latitud":-93.18086385726929,
		"longitud":16.761258073871335
	},
	{
		"latitud":-93.1829023361206,
		"longitud":16.761704949646717
	},
	{
		"latitud":-93.18393766880035,
		"longitud":16.761938660122667
	},
	{
		"latitud":-93.18493008613586,
		"longitud":16.762223735149668
	},
	{
		"latitud":-93.18574011325836,
		"longitud":16.762657767478505
	},
	{
		"latitud":-93.18674594163895,
		"longitud":16.763335780495517
	},
	{
		"latitud":-93.18753182888031,
		"longitud":16.763877675525208
	},
	{
		"latitud":-93.18896144628525,
		"longitud":16.76489725582724
	},
	{
		"latitud":-93.18995386362076,
		"longitud":16.76560094282262
	},
	{
		"latitud":-93.19132179021835,
		"longitud":16.766599968427858
	},
	{
		"latitud":-93.19212108850479,
		"longitud":16.767172672256553
	},
	{
		"latitud":-93.19288551807404,
		"longitud":16.767699147348836
	},
	{
		"latitud":-93.19411933422089,
		"longitud":16.76853636815213
	},
	{
		"latitud":-93.19488108158112,
		"longitud":16.769062839468816
	},
	{
		"latitud":-93.19494813680649,
		"longitud":16.769114202446055
	}]}