{
"inicio":[	{
		"latitud":-93.07038366794586,
		"longitud":16.75856909230302
	},
	{
		"latitud":-93.07048559188843,
		"longitud":16.75961438382725
	},
	{
		"latitud":-93.07058483362198,
		"longitud":16.7606442600319
	},
	{
		"latitud":-93.07245969772339,
		"longitud":16.760508142050263
	},
	{
		"latitud":-93.07227998971939,
		"longitud":16.758420131372606
	},
	{
		"latitud":-93.07211369276047,
		"longitud":16.756357780990392
	},
	{
		"latitud":-93.07194203138351,
		"longitud":16.75430311330266
	},
	{
		"latitud":-93.07241410017014,
		"longitud":16.75428256651377
	},
	{
		"latitud":-93.0728754401207,
		"longitud":16.754226062832856
	},
	{
		"latitud":-93.07380616664886,
		"longitud":16.754143875630668
	},
	{
		"latitud":-93.0742809176445,
		"longitud":16.75408480355717
	},
	{
		"latitud":-93.07521432638168,
		"longitud":16.75402316311311
	},
	{
		"latitud":-93.0756863951683,
		"longitud":16.7539923428836
	},
	{
		"latitud":-93.076171875,
		"longitud":16.753938407469946
	},
	{
		"latitud":-93.07664662599564,
		"longitud":16.75393327076308
	},
	{
		"latitud":-93.07676196098328,
		"longitud":16.75388960874917
	},
	{
		"latitud":-93.07684779167175,
		"longitud":16.753815126467032
	},
	{
		"latitud":-93.07688534259796,
		"longitud":16.753738075799664
	},
	{
		"latitud":-93.07689607143402,
		"longitud":16.75365075167226
	},
	{
		"latitud":-93.07693898677826,
		"longitud":16.75319358352786
	},
	{
		"latitud":-93.07697117328644,
		"longitud":16.75290849497181
	},
	{
		"latitud":-93.07698726654053,
		"longitud":16.752841717410483
	},
	{
		"latitud":-93.07704895734787,
		"longitud":16.7527569612412
	},
	{
		"latitud":-93.07697117328644,
		"longitud":16.752692751996925
	},
	{
		"latitud":-93.07713210582733,
		"longitud":16.752592585532593
	},
	{
		"latitud":-93.07717502117157,
		"longitud":16.752523239487946
	},
	{
		"latitud":-93.07718843221664,
		"longitud":16.75243848317684
	},
	{
		"latitud":-93.07729035615921,
		"longitud":16.751798957067297
	},
	{
		"latitud":-93.07732254266739,
		"longitud":16.751506161263958
	},
	{
		"latitud":-93.0775237083435,
		"longitud":16.749990807365588
	},
	{
		"latitud":-93.07754516601562,
		"longitud":16.749877797438984
	},
	{
		"latitud":-93.07783752679825,
		"longitud":16.74775628045772
	},
	{
		"latitud":-93.07795822620392,
		"longitud":16.746993453198428
	},
	{
		"latitud":-93.07799309492111,
		"longitud":16.74674945056802
	},
	{
		"latitud":-93.07801187038422,
		"longitud":16.746662123234834
	},
	{
		"latitud":-93.07808429002762,
		"longitud":16.746543974426203
	},
	{
		"latitud":-93.08019518852234,
		"longitud":16.746931810458157
	},
	{
		"latitud":-93.08230340480804,
		"longitud":16.747278550612588
	},
	{
		"latitud":-93.08306783437729,
		"longitud":16.747489162842577
	},
	{
		"latitud":-93.08315366506577,
		"longitud":16.747561079160445
	},
	{
		"latitud":-93.0833038687706,
		"longitud":16.747617584819714
	},
	{
		"latitud":-93.08344066143036,
		"longitud":16.747597037309195
	},
	{
		"latitud":-93.08351844549179,
		"longitud":16.747563647599872
	},
	{
		"latitud":-93.08355331420898,
		"longitud":16.74749943660394
	},
	{
		"latitud":-93.08355867862701,
		"longitud":16.747401835848656
	},
	{
		"latitud":-93.08355867862701,
		"longitud":16.747342761683
	},
	{
		"latitud":-93.08352380990982,
		"longitud":16.74727598216932
	},
	{
		"latitud":-93.08346748352051,
		"longitud":16.747224613296694
	},
	{
		"latitud":-93.08349967002869,
		"longitud":16.74665441787999
	},
	{
		"latitud":-93.08376252651215,
		"longitud":16.745133888421304
	},
	{
		"latitud":-93.0840414762497,
		"longitud":16.743317969933724
	},
	{
		"latitud":-93.08417290449142,
		"longitud":16.743094510592428
	},
	{
		"latitud":-93.08440893888474,
		"longitud":16.742847934463274
	},
	{
		"latitud":-93.08450818061829,
		"longitud":16.742768310853386
	},
	{
		"latitud":-93.08484077453613,
		"longitud":16.742578241456496
	},
	{
		"latitud":-93.08489978313446,
		"longitud":16.742524302809308
	},
	{
		"latitud":-93.08647692203522,
		"longitud":16.741694673121177
	},
	{
		"latitud":-93.0876624584198,
		"longitud":16.74099860331952
	},
	{
		"latitud":-93.08777242898941,
		"longitud":16.74094980128228
	},
	{
		"latitud":-93.08870047330856,
		"longitud":16.74039756683181
	},
	{
		"latitud":-93.09041172266006,
		"longitud":16.7394292262794
	},
	{
		"latitud":-93.09122174978256,
		"longitud":16.739020826533537
	},
	{
		"latitud":-93.09170722961426,
		"longitud":16.73896174976825
	},
	{
		"latitud":-93.09228390455246,
		"longitud":16.739100451709927
	},
	{
		"latitud":-93.0933004617691,
		"longitud":16.7394112464348
	},
	{
		"latitud":-93.09542208909988,
		"longitud":16.740084205175854
	},
	{
		"latitud":-93.09778243303299,
		"longitud":16.740849628640362
	},
	{
		"latitud":-93.0987748503685,
		"longitud":16.741157851985623
	},
	{
		"latitud":-93.09953927993774,
		"longitud":16.741468643353777
	},
	{
		"latitud":-93.10051292181015,
		"longitud":16.741992621041113
	},
	{
		"latitud":-93.10159653425217,
		"longitud":16.742570535936387
	},
	{
		"latitud":-93.1033855676651,
		"longitud":16.7435208810625
	},
	{
		"latitud":-93.10432434082031,
		"longitud":16.74364673722361
	},
	{
		"latitud":-93.10665249824524,
		"longitud":16.744008894284445
	},
	{
		"latitud":-93.1076180934906,
		"longitud":16.744227215584125
	},
	{
		"latitud":-93.11043709516525,
		"longitud":16.74503628645353
	},
	{
		"latitud":-93.1115072965622,
		"longitud":16.745234058809903
	},
	{
		"latitud":-93.11178892850876,
		"longitud":16.74531881832832
	},
	{
		"latitud":-93.11275988817215,
		"longitud":16.745424125556237
	},
	{
		"latitud":-93.11373889446259,
		"longitud":16.74554998045955
	},
	{
		"latitud":-93.11511754989624,
		"longitud":16.745752889210138
	},
	{
		"latitud":-93.1158658862114,
		"longitud":16.74587103850962
	},
	{
		"latitud":-93.1157398223877,
		"longitud":16.746695513102257
	},
	{
		"latitud":-93.11557084321976,
		"longitud":16.747512278804862
	},
	{
		"latitud":-93.11541259288788,
		"longitud":16.7483675674361
	},
	{
		"latitud":-93.11623603105545,
		"longitud":16.748503694101085
	},
	{
		"latitud":-93.1170728802681,
		"longitud":16.748616704843332
	},
	{
		"latitud":-93.11691731214523,
		"longitud":16.74943859913273
	},
	{
		"latitud":-93.11607778072357,
		"longitud":16.74930760996803
	},
	{
		"latitud":-93.11574786901474,
		"longitud":16.749263946893112
	}],"final":[	{
		"latitud":-93.1157585978508,
		"longitud":16.749266515309564
	},
	{
		"latitud":-93.11526507139206,
		"longitud":16.749212578556854
	},
	{
		"latitud":-93.114532828331,
		"longitud":16.749086726074438
	},
	{
		"latitud":-93.1146776676178,
		"longitud":16.748249419685727
	},
	{
		"latitud":-93.1148412823677,
		"longitud":16.747396698965424
	},
	{
		"latitud":-93.11496466398239,
		"longitud":16.746587638124893
	},
	{
		"latitud":-93.11512023210526,
		"longitud":16.745750320746296
	},
	{
		"latitud":-93.1137415766716,
		"longitud":16.745544843526346
	},
	{
		"latitud":-93.11275452375412,
		"longitud":16.745429262492685
	},
	{
		"latitud":-93.11182916164398,
		"longitud":16.745244332692927
	},
	{
		"latitud":-93.11153680086136,
		"longitud":16.745151867725696
	},
	{
		"latitud":-93.11045318841934,
		"longitud":16.744943821385288
	},
	{
		"latitud":-93.10967266559601,
		"longitud":16.744712658518246
	},
	{
		"latitud":-93.10833156108856,
		"longitud":16.744332523415686
	},
	{
		"latitud":-93.10762077569962,
		"longitud":16.744127044665937
	},
	{
		"latitud":-93.10752958059311,
		"longitud":16.744114202236712
	},
	{
		"latitud":-93.10656398534775,
		"longitud":16.74389844929632
	},
	{
		"latitud":-93.10432702302933,
		"longitud":16.743559408467586
	},
	{
		"latitud":-93.10346066951752,
		"longitud":16.743448963218807
	},
	{
		"latitud":-93.1027740240097,
		"longitud":16.74310735309041
	},
	{
		"latitud":-93.10164749622345,
		"longitud":16.74249861773385
	},
	{
		"latitud":-93.10045927762985,
		"longitud":16.74185905823809
	},
	{
		"latitud":-93.09957951307297,
		"longitud":16.74138901916728
	},
	{
		"latitud":-93.09908598661423,
		"longitud":16.741165557562866
	},
	{
		"latitud":-93.09779852628708,
		"longitud":16.74075202447705
	},
	{
		"latitud":-93.09679806232452,
		"longitud":16.740451506081254
	},
	{
		"latitud":-93.09330850839615,
		"longitud":16.739339327039424
	},
	{
		"latitud":-93.09231877326965,
		"longitud":16.739010552314802
	},
	{
		"latitud":-93.09174209833145,
		"longitud":16.738856438967304
	},
	{
		"latitud":-93.09123784303665,
		"longitud":16.738912947209194
	},
	{
		"latitud":-93.090400993824,
		"longitud":16.739316210085146
	},
	{
		"latitud":-93.08896064758301,
		"longitud":16.74010989057689
	},
	{
		"latitud":-93.08860659599304,
		"longitud":16.740310236586062
	},
	{
		"latitud":-93.08790385723114,
		"longitud":16.74075459300832
	},
	{
		"latitud":-93.08614164590836,
		"longitud":16.741733200895688
	},
	{
		"latitud":-93.08486491441727,
		"longitud":16.742452384589303
	},
	{
		"latitud":-93.08466911315918,
		"longitud":16.74252687131666
	},
	{
		"latitud":-93.08447062969208,
		"longitud":16.742549987881308
	},
	{
		"latitud":-93.08415681123734,
		"longitud":16.742483206686906
	},
	{
		"latitud":-93.08404415845871,
		"longitud":16.74245495309762
	},
	{
		"latitud":-93.08379739522934,
		"longitud":16.743872764406184
	},
	{
		"latitud":-93.08368474245071,
		"longitud":16.74466899438963
	},
	{
		"latitud":-93.0836284160614,
		"longitud":16.74504142340045
	},
	{
		"latitud":-93.08361500501633,
		"longitud":16.745187826329392
	},
	{
		"latitud":-93.08352380990982,
		"longitud":16.74569124606827
	},
	{
		"latitud":-93.0833575129509,
		"longitud":16.746636438717452
	},
	{
		"latitud":-93.08330655097961,
		"longitud":16.746936947353948
	},
	{
		"latitud":-93.08323413133621,
		"longitud":16.747209202632217
	},
	{
		"latitud":-93.08318048715591,
		"longitud":16.74724002395995
	},
	{
		"latitud":-93.08312952518463,
		"longitud":16.747293961271467
	},
	{
		"latitud":-93.08299273252487,
		"longitud":16.74726570839591
	},
	{
		"latitud":-93.08212906122208,
		"longitud":16.747065369703513
	},
	{
		"latitud":-93.08082818984985,
		"longitud":16.746931810458157
	},
	{
		"latitud":-93.0796667933464,
		"longitud":16.746746882117613
	},
	{
		"latitud":-93.07814866304398,
		"longitud":16.746423257089493
	},
	{
		"latitud":-93.07784825563431,
		"longitud":16.746482331540417
	},
	{
		"latitud":-93.07784289121628,
		"longitud":16.746723766062416
	},
	{
		"latitud":-93.07778924703598,
		"longitud":16.747165539076054
	},
	{
		"latitud":-93.07761758565903,
		"longitud":16.74829565142287
	},
	{
		"latitud":-93.07747274637222,
		"longitud":16.7494642832721
	},
	{
		"latitud":-93.07726353406906,
		"longitud":16.750979641361667
	},
	{
		"latitud":-93.07709455490112,
		"longitud":16.752155961867288
	},
	{
		"latitud":-93.07703018188477,
		"longitud":16.752461598538165
	},
	{
		"latitud":-93.07684242725372,
		"longitud":16.752597722275627
	},
	{
		"latitud":-93.07704359292984,
		"longitud":16.752738982654975
	},
	{
		"latitud":-93.0769819021225,
		"longitud":16.752862264354928
	},
	{
		"latitud":-93.07693898677826,
		"longitud":16.75321413043433
	},
	{
		"latitud":-93.076893389225,
		"longitud":16.75365588838676
	},
	{
		"latitud":-93.07683974504471,
		"longitud":16.75381769482207
	},
	{
		"latitud":-93.07675391435623,
		"longitud":16.753887040395096
	},
	{
		"latitud":-93.07665467262268,
		"longitud":16.753925565702527
	},
	{
		"latitud":-93.07616919279099,
		"longitud":16.753935839116533
	},
	{
		"latitud":-93.07567834854126,
		"longitud":16.753976932766967
	},
	{
		"latitud":-93.07475566864014,
		"longitud":16.754046278281976
	},
	{
		"latitud":-93.07380884885788,
		"longitud":16.754143875630668
	},
	{
		"latitud":-93.07287007570267,
		"longitud":16.754218357784158
	},
	{
		"latitud":-93.07242214679718,
		"longitud":16.75428256651377
	},
	{
		"latitud":-93.07194471359253,
		"longitud":16.75430824999955
	},
	{
		"latitud":-93.0714699625969,
		"longitud":16.754349343569583
	},
	{
		"latitud":-93.06999742984772,
		"longitud":16.754421257295807
	},
	{
		"latitud":-93.06908279657364,
		"longitud":16.754513717761
	},
	{
		"latitud":-93.06914448738098,
		"longitud":16.755538484909113
	},
	{
		"latitud":-93.0692383646965,
		"longitud":16.75656581485702
	},
	{
		"latitud":-93.07018786668777,
		"longitud":16.75650417521655
	},
	{
		"latitud":-93.07029515504837,
		"longitud":16.757546909779858
	},
	{
		"latitud":-93.07038098573685,
		"longitud":16.75856909230302
	}]}