{
"inicio":[	{
		"latitud":-93.07028442621231,
		"longitud":16.737769936329812
	},
	{
		"latitud":-93.06915253400803,
		"longitud":16.738442900868765
	},
	{
		"latitud":-93.06840419769287,
		"longitud":16.738894967315865
	},
	{
		"latitud":-93.06806087493896,
		"longitud":16.739151822773813
	},
	{
		"latitud":-93.06806892156601,
		"longitud":16.739172371195487
	},
	{
		"latitud":-93.06848734617233,
		"longitud":16.7394574803175
	},
	{
		"latitud":-93.06838542222977,
		"longitud":16.73960645608538
	},
	{
		"latitud":-93.06910425424576,
		"longitud":16.740058519771363
	},
	{
		"latitud":-93.0704802274704,
		"longitud":16.740924115994503
	},
	{
		"latitud":-93.07054460048676,
		"longitud":16.740757161539523
	},
	{
		"latitud":-93.0704265832901,
		"longitud":16.740674968523322
	},
	{
		"latitud":-93.07045876979828,
		"longitud":16.740446369010535
	},
	{
		"latitud":-93.07205200195312,
		"longitud":16.740587638404747
	},
	{
		"latitud":-93.07359963655472,
		"longitud":16.740726339162617
	},
	{
		"latitud":-93.07351112365723,
		"longitud":16.74148919152552
	},
	{
		"latitud":-93.07352989912033,
		"longitud":16.741676693490408
	},
	{
		"latitud":-93.07443112134933,
		"longitud":16.741427547003607
	},
	{
		"latitud":-93.07451158761978,
		"longitud":16.74143782109198
	},
	{
		"latitud":-93.07504802942276,
		"longitud":16.741689536083992
	},
	{
		"latitud":-93.07514727115631,
		"longitud":16.741697241639724
	},
	{
		"latitud":-93.07605654001236,
		"longitud":16.74153799342456
	},
	{
		"latitud":-93.0760994553566,
		"longitud":16.741566247149873
	},
	{
		"latitud":-93.07610750198364,
		"longitud":16.741620186068374
	},
	{
		"latitud":-93.0760458111763,
		"longitud":16.74177943421481
	},
	{
		"latitud":-93.07562738656998,
		"longitud":16.741871900819376
	},
	{
		"latitud":-93.07560056447983,
		"longitud":16.74193354519749
	},
	{
		"latitud":-93.07428359985352,
		"longitud":16.742331664658956
	},
	{
		"latitud":-93.07359427213669,
		"longitud":16.742529439823986
	},
	{
		"latitud":-93.07362914085388,
		"longitud":16.742701529735537
	},
	{
		"latitud":-93.07506948709488,
		"longitud":16.742293137005507
	},
	{
		"latitud":-93.07649105787277,
		"longitud":16.74179998235303
	},
	{
		"latitud":-93.07839274406433,
		"longitud":16.741258024465452
	},
	{
		"latitud":-93.07904452085495,
		"longitud":16.741029425652385
	},
	{
		"latitud":-93.08032661676407,
		"longitud":16.740490034107204
	},
	{
		"latitud":-93.08078795671463,
		"longitud":16.740264002910337
	},
	{
		"latitud":-93.08169186115265,
		"longitud":16.739837625149747
	},
	{
		"latitud":-93.08325827121735,
		"longitud":16.739082471834294
	},
	{
		"latitud":-93.08492660522461,
		"longitud":16.738283649933035
	},
	{
		"latitud":-93.08646887540817,
		"longitud":16.73754903905457
	},
	{
		"latitud":-93.08805406093597,
		"longitud":16.736770759404454
	},
	{
		"latitud":-93.08979213237762,
		"longitud":16.73593339887096
	},
	{
		"latitud":-93.09099107980728,
		"longitud":16.7353503266329
	},
	{
		"latitud":-93.09158116579056,
		"longitud":16.735047231108325
	},
	{
		"latitud":-93.09227854013443,
		"longitud":16.73465423365102
	},
	{
		"latitud":-93.09317708015442,
		"longitud":16.734081431983935
	},
	{
		"latitud":-93.09374302625656,
		"longitud":16.733734667806214
	},
	{
		"latitud":-93.09474349021912,
		"longitud":16.73300260802561
	},
	{
		"latitud":-93.09483736753464,
		"longitud":16.732951235303826
	},
	{
		"latitud":-93.09596925973892,
		"longitud":16.732172936874814
	},
	{
		"latitud":-93.09727817773819,
		"longitud":16.731281614307715
	},
	{
		"latitud":-93.09834569692612,
		"longitud":16.73052899575319
	},
	{
		"latitud":-93.09895992279053,
		"longitud":16.730197637153857
	},
	{
		"latitud":-93.09956341981888,
		"longitud":16.729930494917937
	},
	{
		"latitud":-93.10042172670364,
		"longitud":16.729671058349705
	},
	{
		"latitud":-93.10085088014603,
		"longitud":16.729591429233196
	},
	{
		"latitud":-93.10117542743683,
		"longitud":16.729547761639036
	},
	{
		"latitud":-93.10175478458405,
		"longitud":16.729537486909553
	},
	{
		"latitud":-93.10227245092392,
		"longitud":16.72956574241431
	},
	{
		"latitud":-93.1028088927269,
		"longitud":16.729647940222527
	},
	{
		"latitud":-93.10363233089447,
		"longitud":16.729863709300457
	},
	{
		"latitud":-93.10415267944336,
		"longitud":16.73003324197606
	},
	{
		"latitud":-93.10485810041428,
		"longitud":16.730326070787843
	},
	{
		"latitud":-93.10578346252441,
		"longitud":16.730767881827926
	},
	{
		"latitud":-93.10662299394608,
		"longitud":16.731122357387072
	},
	{
		"latitud":-93.10752153396606,
		"longitud":16.731605265059017
	},
	{
		"latitud":-93.10772806406021,
		"longitud":16.73175681561872
	},
	{
		"latitud":-93.1081035733223,
		"longitud":16.73206762232179
	},
	{
		"latitud":-93.10843616724014,
		"longitud":16.73236044800808
	},
	{
		"latitud":-93.10861051082611,
		"longitud":16.73253254710501
	},
	{
		"latitud":-93.1093829870224,
		"longitud":16.73335707942843
	},
	{
		"latitud":-93.11014741659164,
		"longitud":16.734078863362722
	},
	{
		"latitud":-93.11073750257492,
		"longitud":16.734420489680932
	},
	{
		"latitud":-93.11152875423431,
		"longitud":16.73471074313922
	},
	{
		"latitud":-93.11223685741425,
		"longitud":16.734821193454128
	},
	{
		"latitud":-93.11290740966797,
		"longitud":16.734859722618694
	},
	{
		"latitud":-93.11482518911362,
		"longitud":16.735008701981684
	},
	{
		"latitud":-93.1156325340271,
		"longitud":16.735060074148816
	},
	{
		"latitud":-93.11689853668213,
		"longitud":16.73512172073108
	},
	{
		"latitud":-93.1186044216156,
		"longitud":16.73536060104901
	},
	{
		"latitud":-93.11938494443893,
		"longitud":16.73546077657708
	},
	{
		"latitud":-93.12002331018448,
		"longitud":16.735658558875308
	},
	{
		"latitud":-93.12049001455307,
		"longitud":16.735882026939276
	},
	{
		"latitud":-93.12154144048691,
		"longitud":16.73645739178294
	},
	{
		"latitud":-93.12222003936768,
		"longitud":16.736968540342918
	},
	{
		"latitud":-93.12293618917465,
		"longitud":16.737687742024757
	},
	{
		"latitud":-93.12351018190384,
		"longitud":16.73849684067165
	},
	{
		"latitud":-93.12416464090347,
		"longitud":16.73952426257268
	},
	{
		"latitud":-93.12459111213684,
		"longitud":16.740204926530584
	},
	{
		"latitud":-93.12489956617355,
		"longitud":16.740741750351695
	},
	{
		"latitud":-93.12560230493546,
		"longitud":16.74188988043172
	},
	{
		"latitud":-93.12605559825897,
		"longitud":16.742619337558377
	},
	{
		"latitud":-93.12651425600052,
		"longitud":16.74322293553327
	},
	{
		"latitud":-93.12694072723389,
		"longitud":16.743603072850604
	},
	{
		"latitud":-93.12755227088928,
		"longitud":16.74401916823357
	},
	{
		"latitud":-93.12770515680313,
		"longitud":16.74408594888939
	},
	{
		"latitud":-93.1286546587944,
		"longitud":16.744301701617346
	},
	{
		"latitud":-93.12947005033493,
		"longitud":16.744450673596397
	},
	{
		"latitud":-93.1304919719696,
		"longitud":16.744645878082203
	},
	{
		"latitud":-93.13220053911209,
		"longitud":16.744920705111202
	},
	{
		"latitud":-93.13347727060318,
		"longitud":16.745115909115206
	},
	{
		"latitud":-93.13526093959808,
		"longitud":16.745393303934573
	},
	{
		"latitud":-93.13576519489288,
		"longitud":16.745488337251984
	},
	{
		"latitud":-93.13626408576965,
		"longitud":16.745539706593004
	},
	{
		"latitud":-93.13727796077728,
		"longitud":16.745732341498403
	},
	{
		"latitud":-93.13865661621094,
		"longitud":16.745978913892948
	},
	{
		"latitud":-93.13909113407135,
		"longitud":16.74611247380668
	},
	{
		"latitud":-93.13956320285797,
		"longitud":16.746125316101143
	},
	{
		"latitud":-93.14067363739014,
		"longitud":16.746343634974455
	},
	{
		"latitud":-93.14138174057007,
		"longitud":16.7464848999944
	},
	{
		"latitud":-93.14207643270493,
		"longitud":16.746913831321812
	},
	{
		"latitud":-93.1425404548645,
		"longitud":16.7472220448527
	},
	{
		"latitud":-93.14303666353226,
		"longitud":16.747540531643832
	},
	{
		"latitud":-93.14335584640503,
		"longitud":16.74770748015216
	},
	{
		"latitud":-93.14376622438431,
		"longitud":16.74788983912475
	},
	{
		"latitud":-93.14414709806442,
		"longitud":16.74790268129934
	},
	{
		"latitud":-93.14446896314621,
		"longitud":16.747830765110503
	},
	{
		"latitud":-93.14469963312149,
		"longitud":16.7478025123146
	},
	{
		"latitud":-93.14499735832214,
		"longitud":16.747851312595795
	},
	{
		"latitud":-93.14543455839157,
		"longitud":16.747959186857216
	},
	{
		"latitud":-93.14569741487503,
		"longitud":16.748108155974897
	},
	{
		"latitud":-93.14715653657913,
		"longitud":16.749171483877866
	},
	{
		"latitud":-93.14738988876343,
		"longitud":16.749328157293952
	},
	{
		"latitud":-93.14770370721817,
		"longitud":16.749466851685842
	},
	{
		"latitud":-93.1478887796402,
		"longitud":16.749466851685842
	},
	{
		"latitud":-93.1486639380455,
		"longitud":16.749333294125073
	},
	{
		"latitud":-93.14928889274597,
		"longitud":16.74927165214235
	},
	{
		"latitud":-93.15088480710983,
		"longitud":16.749392367673128
	},
	{
		"latitud":-93.15117985010147,
		"longitud":16.74945144120285
	},
	{
		"latitud":-93.15206497907639,
		"longitud":16.749489967408
	},
	{
		"latitud":-93.15279185771942,
		"longitud":16.749705714012816
	},
	{
		"latitud":-93.15378695726395,
		"longitud":16.750173164151136
	},
	{
		"latitud":-93.15478205680847,
		"longitud":16.75072793864999
	},
	{
		"latitud":-93.15526485443115,
		"longitud":16.750938547064127
	},
	{
		"latitud":-93.15578520298004,
		"longitud":16.750961662607587
	},
	{
		"latitud":-93.15695464611053,
		"longitud":16.751313532200346
	},
	{
		"latitud":-93.15786123275757,
		"longitud":16.75158834960509
	},
	{
		"latitud":-93.15831452608109,
		"longitud":16.75172190558376
	},
	{
		"latitud":-93.1586417555809,
		"longitud":16.75178354677309
	},
	{
		"latitud":-93.15886169672012,
		"longitud":16.751865734994468
	},
	{
		"latitud":-93.15913528203964,
		"longitud":16.75194021803943
	},
	{
		"latitud":-93.159921169281,
		"longitud":16.752058363499255
	},
	{
		"latitud":-93.16073924303055,
		"longitud":16.752130278091073
	},
	{
		"latitud":-93.16144734621048,
		"longitud":16.75221246616275
	},
	{
		"latitud":-93.16239148378372,
		"longitud":16.752315201202432
	},
	{
		"latitud":-93.16314250230789,
		"longitud":16.75237941057407
	},
	{
		"latitud":-93.16306740045547,
		"longitud":16.753083143867638
	},
	{
		"latitud":-93.16298961639404,
		"longitud":16.753812558111953
	},
	{
		"latitud":-93.16291719675064,
		"longitud":16.754454645802294
	},
	{
		"latitud":-93.1628206372261,
		"longitud":16.755371543268755
	},
	{
		"latitud":-93.16284209489822,
		"longitud":16.756288436317657
	},
	{
		"latitud":-93.16276967525482,
		"longitud":16.75689969589594
	},
	{
		"latitud":-93.16272407770157,
		"longitud":16.756953630470363
	},
	{
		"latitud":-93.1626945734024,
		"longitud":16.757015269965244
	},
	{
		"latitud":-93.16269725561142,
		"longitud":16.757279805904076
	},
	{
		"latitud":-93.16429048776627,
		"longitud":16.757636800422976
	},
	{
		"latitud":-93.1659534573555,
		"longitud":16.758006635764986
	},
	{
		"latitud":-93.16611975431442,
		"longitud":16.758034887046282
	},
	{
		"latitud":-93.16734552383423,
		"longitud":16.758307126451065
	},
	{
		"latitud":-93.16799730062485,
		"longitud":16.75843810942213
	},
	{
		"latitud":-93.16882610321045,
		"longitud":16.75866925562168
	},
	{
		"latitud":-93.1697729229927,
		"longitud":16.758864445527088
	},
	{
		"latitud":-93.17118376493454,
		"longitud":16.75916750314127
	},
	{
		"latitud":-93.17180067300797,
		"longitud":16.759326736609523
	},
	{
		"latitud":-93.17213863134384,
		"longitud":16.759421762970618
	},
	{
		"latitud":-93.17329198122025,
		"longitud":16.75966831763216
	},
	{
		"latitud":-93.17456871271133,
		"longitud":16.759968805693916
	},
	{
		"latitud":-93.17568719387054,
		"longitud":16.76018454041993
	},
	{
		"latitud":-93.17687004804611,
		"longitud":16.760397706635125
	},
	{
		"latitud":-93.17688882350922,
		"longitud":16.76031552209852
	},
	{
		"latitud":-93.17568987607956,
		"longitud":16.760012466312975
	}],"final":[	{
		"latitud":-93.1756979227066,
		"longitud":16.760009898041545
	},
	{
		"latitud":-93.17467868328094,
		"longitud":16.759747934173365
	},
	{
		"latitud":-93.17332416772842,
		"longitud":16.759519357562354
	},
	{
		"latitud":-93.17148417234421,
		"longitud":16.759090454641047
	},
	{
		"latitud":-93.17023694515228,
		"longitud":16.7588310577943
	},
	{
		"latitud":-93.16901117563248,
		"longitud":16.758538272809744
	},
	{
		"latitud":-93.16817700862885,
		"longitud":16.758350787451437
	},
	{
		"latitud":-93.16765666007996,
		"longitud":16.758248055669902
	},
	{
		"latitud":-93.16614389419556,
		"longitud":16.757888493997743
	},
	{
		"latitud":-93.16509515047073,
		"longitud":16.75767018836531
	},
	{
		"latitud":-93.1641161441803,
		"longitud":16.75745188248241
	},
	{
		"latitud":-93.16269993782043,
		"longitud":16.757115434101852
	},
	{
		"latitud":-93.16108524799347,
		"longitud":16.756781553441446
	},
	{
		"latitud":-93.15971463918686,
		"longitud":16.75648619698432
	},
	{
		"latitud":-93.15983533859253,
		"longitud":16.756404010758192
	},
	{
		"latitud":-93.16039055585861,
		"longitud":16.755792749587673
	},
	{
		"latitud":-93.16070705652237,
		"longitud":16.75524055818686
	},
	{
		"latitud":-93.16070705652237,
		"longitud":16.75416955913516
	},
	{
		"latitud":-93.1607311964035,
		"longitud":16.75286483272283
	},
	{
		"latitud":-93.1607311964035,
		"longitud":16.752125141335423
	},
	{
		"latitud":-93.15992653369904,
		"longitud":16.752055795120473
	},
	{
		"latitud":-93.15913259983063,
		"longitud":16.7519325128982
	},
	{
		"latitud":-93.158660531044,
		"longitud":16.751786115155532
	},
	{
		"latitud":-93.15825551748276,
		"longitud":16.75170906366681
	},
	{
		"latitud":-93.15704584121704,
		"longitud":16.751336647698274
	},
	{
		"latitud":-93.1569492816925,
		"longitud":16.751313532200346
	},
	{
		"latitud":-93.1557959318161,
		"longitud":16.75096679939465
	},
	{
		"latitud":-93.15526753664017,
		"longitud":16.750948820639348
	},
	{
		"latitud":-93.15431535243988,
		"longitud":16.750468530405005
	},
	{
		"latitud":-93.15376281738281,
		"longitud":16.750165458938373
	},
	{
		"latitud":-93.15279990434647,
		"longitud":16.7497082824233
	},
	{
		"latitud":-93.15202742815018,
		"longitud":16.7494976726481
	},
	{
		"latitud":-93.15116912126541,
		"longitud":16.749443735960874
	},
	{
		"latitud":-93.15089017152786,
		"longitud":16.749384662428774
	},
	{
		"latitud":-93.14929157495499,
		"longitud":16.749263946893112
	},
	{
		"latitud":-93.14867198467255,
		"longitud":16.74932302046268
	},
	{
		"latitud":-93.14787536859512,
		"longitud":16.749469420099558
	},
	{
		"latitud":-93.14770370721817,
		"longitud":16.749469420099558
	},
	{
		"latitud":-93.14738720655441,
		"longitud":16.74932045204699
	},
	{
		"latitud":-93.14663350582123,
		"longitud":16.74880419979049
	},
	{
		"latitud":-93.1457269191742,
		"longitud":16.748128703430268
	},
	{
		"latitud":-93.14544528722763,
		"longitud":16.747966892159276
	},
	{
		"latitud":-93.1450080871582,
		"longitud":16.747848744160258
	},
	{
		"latitud":-93.14469158649445,
		"longitud":16.74780508075077
	},
	{
		"latitud":-93.14415514469147,
		"longitud":16.74790268129934
	},
	{
		"latitud":-93.14377695322037,
		"longitud":16.747892407559736
	},
	{
		"latitud":-93.14333975315094,
		"longitud":16.74770234327716
	},
	{
		"latitud":-93.14303129911423,
		"longitud":16.74753282632452
	},
	{
		"latitud":-93.14252972602844,
		"longitud":16.7472220448527
	},
	{
		"latitud":-93.1413871049881,
		"longitud":16.746497742263735
	},
	{
		"latitud":-93.14071655273438,
		"longitud":16.746356477253332
	},
	{
		"latitud":-93.14059048891068,
		"longitud":16.746335929606722
	},
	{
		"latitud":-93.139568567276,
		"longitud":16.746122747642325
	},
	{
		"latitud":-93.13905358314514,
		"longitud":16.746097063052193
	},
	{
		"latitud":-93.13865661621094,
		"longitud":16.745978913892948
	},
	{
		"latitud":-93.13727796077728,
		"longitud":16.745724636105926
	},
	{
		"latitud":-93.1362533569336,
		"longitud":16.74553200119274
	},
	{
		"latitud":-93.13575714826584,
		"longitud":16.745393303934573
	},
	{
		"latitud":-93.13486397266388,
		"longitud":16.74524176422223
	},
	{
		"latitud":-93.13284426927567,
		"longitud":16.744938684435734
	},
	{
		"latitud":-93.13131809234619,
		"longitud":16.744689542216108
	},
	{
		"latitud":-93.1308326125145,
		"longitud":16.744622761771964
	},
	{
		"latitud":-93.12969535589218,
		"longitud":16.74440957788968
	},
	{
		"latitud":-93.12864929437637,
		"longitud":16.74421694164622
	},
	{
		"latitud":-93.12782049179077,
		"longitud":16.744008894284445
	},
	{
		"latitud":-93.12700241804123,
		"longitud":16.74349262762714
	},
	{
		"latitud":-93.12657594680786,
		"longitud":16.743145880579153
	},
	{
		"latitud":-93.12613070011139,
		"longitud":16.742567967429636
	},
	{
		"latitud":-93.12538772821426,
		"longitud":16.741365902461723
	},
	{
		"latitud":-93.12476813793182,
		"longitud":16.7403205107347
	},
	{
		"latitud":-93.1241887807846,
		"longitud":16.73938556093957
	},
	{
		"latitud":-93.12403321266174,
		"longitud":16.739118431583854
	},
	{
		"latitud":-93.12360674142838,
		"longitud":16.7384634493669
	},
	{
		"latitud":-93.12300860881805,
		"longitud":16.737636370566086
	},
	{
		"latitud":-93.12227636575699,
		"longitud":16.736891482858844
	},
	{
		"latitud":-93.1215950846672,
		"longitud":16.736380334092143
	},
	{
		"latitud":-93.12052756547928,
		"longitud":16.73579469462364
	},
	{
		"latitud":-93.12024056911469,
		"longitud":16.735663696075132
	},
	{
		"latitud":-93.12004745006561,
		"longitud":16.735568657856117
	},
	{
		"latitud":-93.11941713094711,
		"longitud":16.735368306860735
	},
	{
		"latitud":-93.11860978603363,
		"longitud":16.73526556267883
	},
	{
		"latitud":-93.11782389879227,
		"longitud":16.735167955654703
	},
	{
		"latitud":-93.11692535877228,
		"longitud":16.735026682241756
	},
	{
		"latitud":-93.11596244573593,
		"longitud":16.73499329032884
	},
	{
		"latitud":-93.11561644077301,
		"longitud":16.73497531006563
	},
	{
		"latitud":-93.11453014612198,
		"longitud":16.734895683165238
	},
	{
		"latitud":-93.11355918645859,
		"longitud":16.73483403650985
	},
	{
		"latitud":-93.11232537031174,
		"longitud":16.734733860652298
	},
	{
		"latitud":-93.11157166957855,
		"longitud":16.73462854751448
	},
	{
		"latitud":-93.11076432466507,
		"longitud":16.734328019459756
	},
	{
		"latitud":-93.11019033193588,
		"longitud":16.734004373332308
	},
	{
		"latitud":-93.10951977968216,
		"longitud":16.7333622166903
	},
	{
		"latitud":-93.10869634151459,
		"longitud":16.732488880184672
	},
	{
		"latitud":-93.10840129852295,
		"longitud":16.732219172513844
	},
	{
		"latitud":-93.10773074626923,
		"longitud":16.731638657565576
	},
	{
		"latitud":-93.10746252536774,
		"longitud":16.73145885169199
	},
	{
		"latitud":-93.10665518045425,
		"longitud":16.73103502289022
	},
	{
		"latitud":-93.1058719754219,
		"longitud":16.730693390503408
	},
	{
		"latitud":-93.10498684644699,
		"longitud":16.730246441944963
	},
	{
		"latitud":-93.10418218374252,
		"longitud":16.729891964756867
	},
	{
		"latitud":-93.10327291488647,
		"longitud":16.72957344846034
	},
	{
		"latitud":-93.10290813446045,
		"longitud":16.729506662717775
	},
	{
		"latitud":-93.10268819332123,
		"longitud":16.729465563787628
	},
	{
		"latitud":-93.10168772935867,
		"longitud":16.729427033532577
	},
	{
		"latitud":-93.10106813907623,
		"longitud":16.729434739584207
	},
	{
		"latitud":-93.10076773166656,
		"longitud":16.7294629951042
	},
	{
		"latitud":-93.10049146413803,
		"longitud":16.729522074814287
	},
	{
		"latitud":-93.09950709342957,
		"longitud":16.729794354980616
	},
	{
		"latitud":-93.09865415096283,
		"longitud":16.730135988978788
	},
	{
		"latitud":-93.09746325016022,
		"longitud":16.730983649638098
	},
	{
		"latitud":-93.09686779975891,
		"longitud":16.731384360637513
	},
	{
		"latitud":-93.09563130140305,
		"longitud":16.732257702204475
	},
	{
		"latitud":-93.09462547302246,
		"longitud":16.732946098030887
	},
	{
		"latitud":-93.09360891580582,
		"longitud":16.733662746268127
	},
	{
		"latitud":-93.09305638074875,
		"longitud":16.73402492230913
	},
	{
		"latitud":-93.09260040521622,
		"longitud":16.73431517636993
	},
	{
		"latitud":-93.09206932783127,
		"longitud":16.734649096424
	},
	{
		"latitud":-93.09148728847504,
		"longitud":16.73495989841008
	},
	{
		"latitud":-93.09105277061462,
		"longitud":16.73519877893088
	},
	{
		"latitud":-93.09001207351685,
		"longitud":16.735694519271107
	},
	{
		"latitud":-93.08853149414062,
		"longitud":16.736418862941427
	},
	{
		"latitud":-93.08787435293198,
		"longitud":16.73672195628417
	},
	{
		"latitud":-93.08682292699814,
		"longitud":16.73722796697688
	},
	{
		"latitud":-93.08559983968735,
		"longitud":16.737826444893972
	},
	{
		"latitud":-93.08492660522461,
		"longitud":16.738152653095796
	},
	{
		"latitud":-93.08322340250015,
		"longitud":16.73895918121281
	},
	{
		"latitud":-93.08179378509521,
		"longitud":16.739660395558836
	},
	{
		"latitud":-93.08039903640747,
		"longitud":16.74029225682461
	},
	{
		"latitud":-93.07970702648163,
		"longitud":16.740600481071766
	},
	{
		"latitud":-93.07898014783859,
		"longitud":16.740908704820182
	},
	{
		"latitud":-93.07829886674881,
		"longitud":16.74114244083021
	},
	{
		"latitud":-93.07676464319229,
		"longitud":16.741581658271
	},
	{
		"latitud":-93.07661712169647,
		"longitud":16.741512308216105
	},
	{
		"latitud":-93.07615578174591,
		"longitud":16.74141213587
	},
	{
		"latitud":-93.0751284956932,
		"longitud":16.741581658271
	},
	{
		"latitud":-93.07505339384079,
		"longitud":16.741571384190387
	},
	{
		"latitud":-93.07494878768921,
		"longitud":16.741527719341597
	},
	{
		"latitud":-93.07455450296402,
		"longitud":16.741245181842782
	},
	{
		"latitud":-93.07443916797638,
		"longitud":16.741222065119782
	},
	{
		"latitud":-93.07435601949692,
		"longitud":16.741229770694417
	},
	{
		"latitud":-93.07362914085388,
		"longitud":16.741453232223503
	},
	{
		"latitud":-93.0737042427063,
		"longitud":16.74075202447705
	},
	{
		"latitud":-93.07359963655472,
		"longitud":16.740726339162617
	},
	{
		"latitud":-93.07204931974411,
		"longitud":16.740597912538423
	},
	{
		"latitud":-93.07045608758926,
		"longitud":16.740446369010535
	},
	{
		"latitud":-93.07042926549911,
		"longitud":16.740682674120105
	},
	{
		"latitud":-93.06998938322067,
		"longitud":16.74041040951164
	},
	{
		"latitud":-93.06848734617233,
		"longitud":16.739444637573424
	},
	{
		"latitud":-93.06805551052094,
		"longitud":16.7391595284322
	},
	{
		"latitud":-93.06807696819305,
		"longitud":16.739121000137146
	},
	{
		"latitud":-93.06841760873795,
		"longitud":16.73888469309035
	},
	{
		"latitud":-93.07028442621231,
		"longitud":16.737780210615455
	}]}