{
"inicio":[	{
		"latitud":-93.09672027826309,
		"longitud":16.785033488448075
	},
	{
		"latitud":-93.09716820716858,
		"longitud":16.7851593171432
	},
	{
		"latitud":-93.09798896312714,
		"longitud":16.7852774419648
	},
	{
		"latitud":-93.09806406497955,
		"longitud":16.784833189536965
	},
	{
		"latitud":-93.09849590063095,
		"longitud":16.784879412381347
	},
	{
		"latitud":-93.09894919395447,
		"longitud":16.784935906953663
	},
	{
		"latitud":-93.0993863940239,
		"longitud":16.784974425970606
	},
	{
		"latitud":-93.09974312782288,
		"longitud":16.78504632811466
	},
	{
		"latitud":-93.09985041618347,
		"longitud":16.78504119224814
	},
	{
		"latitud":-93.09991747140884,
		"longitud":16.78462518659802
	},
	{
		"latitud":-93.10000598430634,
		"longitud":16.784160389084185
	},
	{
		"latitud":-93.09908866882324,
		"longitud":16.784085918658583
	},
	{
		"latitud":-93.09913694858551,
		"longitud":16.78365193525275
	},
	{
		"latitud":-93.09914231300354,
		"longitud":16.78350812988182
	},
	{
		"latitud":-93.09956073760986,
		"longitud":16.783418251469705
	},
	{
		"latitud":-93.10006767511368,
		"longitud":16.783341212796923
	},
	{
		"latitud":-93.10051023960114,
		"longitud":16.78326160613555
	},
	{
		"latitud":-93.10158312320709,
		"longitud":16.783051033515605
	},
	{
		"latitud":-93.10204982757568,
		"longitud":16.782986834499674
	},
	{
		"latitud":-93.10305029153824,
		"longitud":16.78282248492005
	},
	{
		"latitud":-93.10349017381668,
		"longitud":16.78277369361124
	},
	{
		"latitud":-93.10398638248444,
		"longitud":16.782868708253694
	},
	{
		"latitud":-93.1041419506073,
		"longitud":16.7829457471181
	},
	{
		"latitud":-93.10488224029541,
		"longitud":16.78144348362734
	},
	{
		"latitud":-93.10495465993881,
		"longitud":16.78130738053621
	},
	{
		"latitud":-93.1050431728363,
		"longitud":16.781250884884845
	},
	{
		"latitud":-93.10529798269272,
		"longitud":16.780711607367206
	},
	{
		"latitud":-93.1058344244957,
		"longitud":16.779538031479596
	},
	{
		"latitud":-93.10590952634811,
		"longitud":16.779340294785
	},
	{
		"latitud":-93.10593366622925,
		"longitud":16.779093765630847
	},
	{
		"latitud":-93.10583174228668,
		"longitud":16.77879073977399
	},
	{
		"latitud":-93.10558497905731,
		"longitud":16.778464601235616
	},
	{
		"latitud":-93.10543209314346,
		"longitud":16.77837985648441
	},
	{
		"latitud":-93.10526311397552,
		"longitud":16.77833106403477
	},
	{
		"latitud":-93.10515582561493,
		"longitud":16.778310519841686
	},
	{
		"latitud":-93.10409367084503,
		"longitud":16.7781153498967
	},
	{
		"latitud":-93.10295641422272,
		"longitud":16.777938155957266
	},
	{
		"latitud":-93.10272574424744,
		"longitud":16.777909907632818
	},
	{
		"latitud":-93.10222953557968,
		"longitud":16.777740417597904
	},
	{
		"latitud":-93.10160994529724,
		"longitud":16.777326963999837
	},
	{
		"latitud":-93.10141146183014,
		"longitud":16.777203698156786
	},
	{
		"latitud":-93.10128003358841,
		"longitud":16.7770598879055
	},
	{
		"latitud":-93.10122638940811,
		"longitud":16.77695973427336
	},
	{
		"latitud":-93.10127198696136,
		"longitud":16.776651568920347
	},
	{
		"latitud":-93.10139536857605,
		"longitud":16.776402468228138
	},
	{
		"latitud":-93.10160726308823,
		"longitud":16.775929946430374
	},
	{
		"latitud":-93.10220003128052,
		"longitud":16.77476404523023
	},
	{
		"latitud":-93.10239046812057,
		"longitud":16.774350585157354
	},
	{
		"latitud":-93.10252726078033,
		"longitud":16.773937124185107
	},
	{
		"latitud":-93.10257285833359,
		"longitud":16.773790743376896
	},
	{
		"latitud":-93.10275793075562,
		"longitud":16.77298693096487
	},
	{
		"latitud":-93.10288399457932,
		"longitud":16.772524673086327
	},
	{
		"latitud":-93.10301005840302,
		"longitud":16.771661788705647
	},
	{
		"latitud":-93.10309052467346,
		"longitud":16.77094785164419
	},
	{
		"latitud":-93.1031146645546,
		"longitud":16.770739833506806
	},
	{
		"latitud":-93.10312271118164,
		"longitud":16.770647380928253
	},
	{
		"latitud":-93.1031334400177,
		"longitud":16.770516406364997
	},
	{
		"latitud":-93.10314953327179,
		"longitud":16.770405976761165
	},
	{
		"latitud":-93.10318976640701,
		"longitud":16.770110641459027
	},
	{
		"latitud":-93.10325145721436,
		"longitud":16.769861532195343
	},
	{
		"latitud":-93.10335606336594,
		"longitud":16.769591877469896
	},
	{
		"latitud":-93.10355722904205,
		"longitud":16.76910906614896
	},
	{
		"latitud":-93.10395687818527,
		"longitud":16.76825130258696
	},
	{
		"latitud":-93.10408025979996,
		"longitud":16.767953395773922
	},
	{
		"latitud":-93.10428142547607,
		"longitud":16.767208626699475
	},
	{
		"latitud":-93.10457110404968,
		"longitud":16.76611714951041
	},
	{
		"latitud":-93.10465693473816,
		"longitud":16.765464828387923
	},
	{
		"latitud":-93.10468643903732,
		"longitud":16.764730322398822
	},
	{
		"latitud":-93.10472130775452,
		"longitud":16.76418586158328
	},
	{
		"latitud":-93.10477495193481,
		"longitud":16.763014751906127
	},
	{
		"latitud":-93.10481518507004,
		"longitud":16.76246258146499
	},
	{
		"latitud":-93.10492783784866,
		"longitud":16.761314575464127
	},
	{
		"latitud":-93.10498684644699,
		"longitud":16.761209277027696
	},
	{
		"latitud":-93.10486882925034,
		"longitud":16.76117075319492
	},
	{
		"latitud":-93.10305833816528,
		"longitud":16.76077267313285
	},
	{
		"latitud":-93.1021249294281,
		"longitud":16.760520983373446
	},
	{
		"latitud":-93.10204178094864,
		"longitud":16.760487595931377
	},
	{
		"latitud":-93.10194790363312,
		"longitud":16.760418252763717
	},
	{
		"latitud":-93.10167700052261,
		"longitud":16.75983011895515
	},
	{
		"latitud":-93.1016394495964,
		"longitud":16.75971711487105
	},
	{
		"latitud":-93.1016206741333,
		"longitud":16.75960667899673
	},
	{
		"latitud":-93.10162872076035,
		"longitud":16.759067340084908
	},
	{
		"latitud":-93.10203641653061,
		"longitud":16.758902969826842
	},
	{
		"latitud":-93.10373961925507,
		"longitud":16.758484338684493
	},
	{
		"latitud":-93.10418218374252,
		"longitud":16.7584946118524
	},
	{
		"latitud":-93.10460597276688,
		"longitud":16.758635867854657
	},
	{
		"latitud":-93.10486078262329,
		"longitud":16.758843899230673
	},
	{
		"latitud":-93.10519605875015,
		"longitud":16.759046793810413
	},
	{
		"latitud":-93.10549110174179,
		"longitud":16.75902111096418
	},
	{
		"latitud":-93.10562521219254,
		"longitud":16.75895433554774
	},
	{
		"latitud":-93.10572177171707,
		"longitud":16.7588310577943
	},
	{
		"latitud":-93.1057807803154,
		"longitud":16.758633299564643
	},
	{
		"latitud":-93.10578882694244,
		"longitud":16.758510021603193
	},
	{
		"latitud":-93.10586124658585,
		"longitud":16.758286580094477
	},
	{
		"latitud":-93.10607850551605,
		"longitud":16.75704608970519
	},
	{
		"latitud":-93.10624480247498,
		"longitud":16.756144610249166
	},
	{
		"latitud":-93.10633599758148,
		"longitud":16.75564378648387
	},
	{
		"latitud":-93.10645401477814,
		"longitud":16.75479623557082
	},
	{
		"latitud":-93.10646206140518,
		"longitud":16.754698638556658
	},
	{
		"latitud":-93.10666590929031,
		"longitud":16.753673866886356
	},
	{
		"latitud":-93.10681611299515,
		"longitud":16.752736414285383
	},
	{
		"latitud":-93.10691803693771,
		"longitud":16.752217602916048
	},
	{
		"latitud":-93.10691803693771,
		"longitud":16.75213284646885
	},
	{
		"latitud":-93.10690194368362,
		"longitud":16.75204808998393
	},
	{
		"latitud":-93.10703337192535,
		"longitud":16.751190249497352
	},
	{
		"latitud":-93.1070414185524,
		"longitud":16.751084945458643
	},
	{
		"latitud":-93.10716211795807,
		"longitud":16.750465962004775
	},
	{
		"latitud":-93.10722917318344,
		"longitud":16.750047312303725
	},
	{
		"latitud":-93.10724526643753,
		"longitud":16.74995998648316
	},
	{
		"latitud":-93.10738742351532,
		"longitud":16.7489223471966
	},
	{
		"latitud":-93.10837984085083,
		"longitud":16.749050768207027
	},
	{
		"latitud":-93.10901552438736,
		"longitud":16.749140662862796
	},
	{
		"latitud":-93.1092756986618,
		"longitud":16.749212578556854
	},
	{
		"latitud":-93.1099408864975,
		"longitud":16.74930247313621
	},
	{
		"latitud":-93.11080724000931,
		"longitud":16.749392367673128
	},
	{
		"latitud":-93.11188817024231,
		"longitud":16.74953106201824
	},
	{
		"latitud":-93.11289668083191,
		"longitud":16.74969544037051
	},
	{
		"latitud":-93.11439871788025,
		"longitud":16.749846976538276
	}],"final":[	{
		"latitud":-93.11441481113434,
		"longitud":16.749859818580838
	},
	{
		"latitud":-93.114532828331,
		"longitud":16.749091862912074
	},
	{
		"latitud":-93.11371475458145,
		"longitud":16.748978852451863
	},
	{
		"latitud":-93.1135967373848,
		"longitud":16.748983989292427
	},
	{
		"latitud":-93.11252921819687,
		"longitud":16.74880933663576
	},
	{
		"latitud":-93.11196863651276,
		"longitud":16.748757968176832
	},
	{
		"latitud":-93.11153948307037,
		"longitud":16.74873742078939
	},
	{
		"latitud":-93.11092793941498,
		"longitud":16.74865523121741
	},
	{
		"latitud":-93.11007499694824,
		"longitud":16.748544788924203
	},
	{
		"latitud":-93.10995161533356,
		"longitud":16.748519104660794
	},
	{
		"latitud":-93.10975849628448,
		"longitud":16.748511399381083
	},
	{
		"latitud":-93.10954660177231,
		"longitud":16.748598725866106
	},
	{
		"latitud":-93.10940444469452,
		"longitud":16.74879649452232
	},
	{
		"latitud":-93.10928106307983,
		"longitud":16.74921514697399
	},
	{
		"latitud":-93.10899406671524,
		"longitud":16.749138094444653
	},
	{
		"latitud":-93.10837984085083,
		"longitud":16.749048199787676
	},
	{
		"latitud":-93.10738205909729,
		"longitud":16.748919778775505
	},
	{
		"latitud":-93.10727208852768,
		"longitud":16.749767355854996
	},
	{
		"latitud":-93.10724258422852,
		"longitud":16.749965123297244
	},
	{
		"latitud":-93.10722380876541,
		"longitud":16.75005758592705
	},
	{
		"latitud":-93.10703605413437,
		"longitud":16.75108237706672
	},
	{
		"latitud":-93.10689926147461,
		"longitud":16.75204552160501
	},
	{
		"latitud":-93.10683488845825,
		"longitud":16.752125141335423
	},
	{
		"latitud":-93.10682147741318,
		"longitud":16.75221246616275
	},
	{
		"latitud":-93.10671955347061,
		"longitud":16.752738982654975
	},
	{
		"latitud":-93.10656666755676,
		"longitud":16.753645614957637
	},
	{
		"latitud":-93.10637086629868,
		"longitud":16.754693501870317
	},
	{
		"latitud":-93.10635209083557,
		"longitud":16.754791098887097
	},
	{
		"latitud":-93.10624212026596,
		"longitud":16.755638649823037
	},
	{
		"latitud":-93.10615360736847,
		"longitud":16.756118927011215
	},
	{
		"latitud":-93.10576468706131,
		"longitud":16.758266033735673
	},
	{
		"latitud":-93.10557425022125,
		"longitud":16.758224941011413
	},
	{
		"latitud":-93.10532480478287,
		"longitud":16.758124777458846
	},
	{
		"latitud":-93.10514241456985,
		"longitud":16.758014340660292
	},
	{
		"latitud":-93.10505658388138,
		"longitud":16.757937291693107
	},
	{
		"latitud":-93.10283571481705,
		"longitud":16.757629095512364
	},
	{
		"latitud":-93.10189694166183,
		"longitud":16.757937291693107
	},
	{
		"latitud":-93.10179233551025,
		"longitud":16.75795526978824
	},
	{
		"latitud":-93.10173600912094,
		"longitud":16.758271170325582
	},
	{
		"latitud":-93.10168504714966,
		"longitud":16.75843810942213
	},
	{
		"latitud":-93.10158044099808,
		"longitud":16.758951767262026
	},
	{
		"latitud":-93.10152411460876,
		"longitud":16.759185481120163
	},
	{
		"latitud":-93.10152679681778,
		"longitud":16.75974022934826
	},
	{
		"latitud":-93.10157239437103,
		"longitud":16.759863506512612
	},
	{
		"latitud":-93.10184866189957,
		"longitud":16.76045420848344
	},
	{
		"latitud":-93.10194790363312,
		"longitud":16.760590326503664
	},
	{
		"latitud":-93.10204714536667,
		"longitud":16.7606519648204
	},
	{
		"latitud":-93.10303688049316,
		"longitud":16.76088567658997
	},
	{
		"latitud":-93.10482323169708,
		"longitud":16.761273483398305
	},
	{
		"latitud":-93.10469180345535,
		"longitud":16.76244203555719
	},
	{
		"latitud":-93.10465425252914,
		"longitud":16.762999342520207
	},
	{
		"latitud":-93.10461401939392,
		"longitud":16.763872539086684
	},
	{
		"latitud":-93.10457915067673,
		"longitud":16.764745731644503
	},
	{
		"latitud":-93.10454964637756,
		"longitud":16.765446851002476
	},
	{
		"latitud":-93.104447722435,
		"longitud":16.76614796777581
	},
	{
		"latitud":-93.10417145490646,
		"longitud":16.76714442233235
	},
	{
		"latitud":-93.10398906469345,
		"longitud":16.76781985118899
	},
	{
		"latitud":-93.10398906469345,
		"longitud":16.76781985118899
	},
	{
		"latitud":-93.10367524623871,
		"longitud":16.768577458648792
	},
	{
		"latitud":-93.10319513082504,
		"longitud":16.76963553587996
	},
	{
		"latitud":-93.1030797958374,
		"longitud":16.770020756710803
	},
	{
		"latitud":-93.10303688049316,
		"longitud":16.77039570423662
	},
	{
		"latitud":-93.10302078723907,
		"longitud":16.77051897449455
	},
	{
		"latitud":-93.10299664735794,
		"longitud":16.77063967654466
	},
	{
		"latitud":-93.10299664735794,
		"longitud":16.77073469725363
	},
	{
		"latitud":-93.10299128293991,
		"longitud":16.770878512290352
	},
	{
		"latitud":-93.10291081666946,
		"longitud":16.771582177151753
	},
	{
		"latitud":-93.10280084609985,
		"longitud":16.772416812752923
	},
	{
		"latitud":-93.10252457857132,
		"longitud":16.773562183643904
	},
	{
		"latitud":-93.10237973928452,
		"longitud":16.774114321854764
	},
	{
		"latitud":-93.10232073068619,
		"longitud":16.774299223594813
	},
	{
		"latitud":-93.10209274291992,
		"longitud":16.774720387997927
	},
	{
		"latitud":-93.10148656368256,
		"longitud":16.775942786712143
	},
	{
		"latitud":-93.10127198696136,
		"longitud":16.77642301262748
	},
	{
		"latitud":-93.10113787651062,
		"longitud":16.776841604280442
	},
	{
		"latitud":-93.10112982988358,
		"longitud":16.776918645588495
	},
	{
		"latitud":-93.10116738080978,
		"longitud":16.777054751823094
	},
	{
		"latitud":-93.10102790594101,
		"longitud":16.777660808589946
	},
	{
		"latitud":-93.1009367108345,
		"longitud":16.77834647217811
	},
	{
		"latitud":-93.10084015130997,
		"longitud":16.778785603738353
	},
	{
		"latitud":-93.10079991817474,
		"longitud":16.77907578953417
	},
	{
		"latitud":-93.10079723596573,
		"longitud":16.779222166271868
	},
	{
		"latitud":-93.10288399457932,
		"longitud":16.779430175126237
	},
	{
		"latitud":-93.10282766819,
		"longitud":16.779889848206665
	},
	{
		"latitud":-93.10279548168182,
		"longitud":16.78032640820322
	},
	{
		"latitud":-93.10268551111221,
		"longitud":16.781214933097957
	},
	{
		"latitud":-93.10276597738266,
		"longitud":16.78123804496173
	},
	{
		"latitud":-93.10263186693192,
		"longitud":16.782193332871667
	},
	{
		"latitud":-93.10215175151825,
		"longitud":16.782159949235385
	},
	{
		"latitud":-93.10166627168655,
		"longitud":16.782121429647763
	},
	{
		"latitud":-93.10159653425217,
		"longitud":16.782794237321735
	},
	{
		"latitud":-93.10158848762512,
		"longitud":16.783048465555385
	},
	{
		"latitud":-93.1014946103096,
		"longitud":16.784042263567937
	},
	{
		"latitud":-93.10143023729324,
		"longitud":16.784946178692277
	},
	{
		"latitud":-93.10129076242447,
		"longitud":16.786163375785325
	},
	{
		"latitud":-93.09961974620819,
		"longitud":16.78595023846106
	},
	{
		"latitud":-93.09945344924927,
		"longitud":16.78661789675026
	},
	{
		"latitud":-93.09920936822891,
		"longitud":16.787583429201906
	},
	{
		"latitud":-93.09877753257751,
		"longitud":16.78750896011836
	},
	{
		"latitud":-93.09834033250809,
		"longitud":16.787442194708287
	},
	{
		"latitud":-93.09851467609406,
		"longitud":16.78647409362474
	},
	{
		"latitud":-93.0975678563118,
		"longitud":16.786332858306203
	},
	{
		"latitud":-93.09661835432053,
		"longitud":16.78618391912923
	},
	{
		"latitud":-93.09635549783707,
		"longitud":16.786147968275923
	},
	{
		"latitud":-93.09615969657898,
		"longitud":16.78608377030665
	},
	{
		"latitud":-93.09672564268112,
		"longitud":16.78504632811466
	}]}