{
"inicio":[	{
		"latitud":-93.10863465070724,
		"longitud":16.736806719590362
	},
	{
		"latitud":-93.10939639806747,
		"longitud":16.73630712925702
	},
	{
		"latitud":-93.11010181903839,
		"longitud":16.735804969015803
	},
	{
		"latitud":-93.1107710301876,
		"longitud":16.73528611151964
	},
	{
		"latitud":-93.1115260720253,
		"longitud":16.73623649298594
	},
	{
		"latitud":-93.1121376156807,
		"longitud":16.73703917634261
	},
	{
		"latitud":-93.11258554458618,
		"longitud":16.737573440510346
	},
	{
		"latitud":-93.11327755451202,
		"longitud":16.73843776374389
	},
	{
		"latitud":-93.11334997415543,
		"longitud":16.73856490754399
	},
	{
		"latitud":-93.11366513371468,
		"longitud":16.7390503649093
	},
	{
		"latitud":-93.11375498771667,
		"longitud":16.73925713341146
	},
	{
		"latitud":-93.11384752392769,
		"longitud":16.739487018625553
	},
	{
		"latitud":-93.11394944787025,
		"longitud":16.739982747807925
	},
	{
		"latitud":-93.1139588356018,
		"longitud":16.740513150919046
	},
	{
		"latitud":-93.11396956443787,
		"longitud":16.741216928069854
	},
	{
		"latitud":-93.11398163437843,
		"longitud":16.741965651636534
	},
	{
		"latitud":-93.11401918530464,
		"longitud":16.743452815961113
	},
	{
		"latitud":-93.11411172151566,
		"longitud":16.744214373161668
	},
	{
		"latitud":-93.11408758163452,
		"longitud":16.74442498878074
	},
	{
		"latitud":-93.1137415766716,
		"longitud":16.745544843526346
	},
	{
		"latitud":-93.11511486768723,
		"longitud":16.745750320746296
	},
	{
		"latitud":-93.11586052179337,
		"longitud":16.74587103850962
	},
	{
		"latitud":-93.11574250459671,
		"longitud":16.746695513102257
	},
	{
		"latitud":-93.11736658215523,
		"longitud":16.746981895186146
	},
	{
		"latitud":-93.1172351539135,
		"longitud":16.74776013311289
	},
	{
		"latitud":-93.11643049120903,
		"longitud":16.747644553423903
	},
	{
		"latitud":-93.11556681990623,
		"longitud":16.747510994584808
	}],"final":[	{
		"latitud":-93.11556950211525,
		"longitud":16.747510994584808
	},
	{
		"latitud":-93.1148412823677,
		"longitud":16.747394130523745
	},
	{
		"latitud":-93.11511754989624,
		"longitud":16.745751604978224
	},
	{
		"latitud":-93.1142820417881,
		"longitud":16.745611623647143
	},
	{
		"latitud":-93.1127679347992,
		"longitud":16.745424125556237
	},
	{
		"latitud":-93.11182647943497,
		"longitud":16.74524176422223
	},
	{
		"latitud":-93.11153680086136,
		"longitud":16.745146730781755
	},
	{
		"latitud":-93.11046123504639,
		"longitud":16.744943821385288
	},
	{
		"latitud":-93.10967803001404,
		"longitud":16.744715226996092
	},
	{
		"latitud":-93.10833692550659,
		"longitud":16.74433637614013
	},
	{
		"latitud":-93.1076180934906,
		"longitud":16.744132181637372
	},
	{
		"latitud":-93.10753226280212,
		"longitud":16.74411805496557
	},
	{
		"latitud":-93.1066806614399,
		"longitud":16.743926702671477
	},
	{
		"latitud":-93.10655727982521,
		"longitud":16.743902302029543
	},
	{
		"latitud":-93.10433641076088,
		"longitud":16.743559408467586
	},
	{
		"latitud":-93.10432434082031,
		"longitud":16.74337190835615
	},
	{
		"latitud":-93.10445576906204,
		"longitud":16.742587231229546
	},
	{
		"latitud":-93.1045389175415,
		"longitud":16.74223791402197
	},
	{
		"latitud":-93.10467436909676,
		"longitud":16.74153799342456
	},
	{
		"latitud":-93.10483396053314,
		"longitud":16.7405568160004
	},
	{
		"latitud":-93.1049332022667,
		"longitud":16.740090626526438
	},
	{
		"latitud":-93.10509949922562,
		"longitud":16.74011759619652
	},
	{
		"latitud":-93.10519874095917,
		"longitud":16.739673238288347
	},
	{
		"latitud":-93.10529932379723,
		"longitud":16.739246859205473
	},
	{
		"latitud":-93.10531675815582,
		"longitud":16.73910302026347
	},
	{
		"latitud":-93.10547232627869,
		"longitud":16.73833502121717
	},
	{
		"latitud":-93.10562521219254,
		"longitud":16.737642791999175
	},
	{
		"latitud":-93.10655862092972,
		"longitud":16.7378084648981
	},
	{
		"latitud":-93.10685634613037,
		"longitud":16.737848277743826
	},
	{
		"latitud":-93.10695827007294,
		"longitud":16.738029361872577
	},
	{
		"latitud":-93.10791850090027,
		"longitud":16.73730245574711
	},
	{
		"latitud":-93.10863465070724,
		"longitud":16.736804151005888
	}]}