{
"inicio":[	{
		"latitud":-93.07722330093384,
		"longitud":16.752564333443374
	},
	{
		"latitud":-93.07737082242966,
		"longitud":16.75228694907204
	},
	{
		"latitud":-93.07746469974518,
		"longitud":16.751876008519638
	},
	{
		"latitud":-93.07782143354416,
		"longitud":16.75192994451773
	},
	{
		"latitud":-93.07815134525299,
		"longitud":16.751868303375804
	},
	{
		"latitud":-93.07839542627335,
		"longitud":16.75177841000807
	},
	{
		"latitud":-93.07849735021591,
		"longitud":16.751585781219973
	},
	{
		"latitud":-93.07882726192474,
		"longitud":16.751161997199993
	},
	{
		"latitud":-93.07912766933441,
		"longitud":16.750751054219023
	},
	{
		"latitud":-93.07942271232605,
		"longitud":16.750340110350933
	},
	{
		"latitud":-93.07968556880951,
		"longitud":16.750211690210232
	},
	{
		"latitud":-93.08013081550598,
		"longitud":16.75017830095946
	},
	{
		"latitud":-93.08073431253433,
		"longitud":16.750155185320875
	},
	{
		"latitud":-93.08152288198471,
		"longitud":16.750096112009544
	},
	{
		"latitud":-93.08209419250488,
		"longitud":16.7500704279554
	},
	{
		"latitud":-93.08222830295563,
		"longitud":16.750067859549798
	},
	{
		"latitud":-93.08225780725479,
		"longitud":16.749877797438984
	},
	{
		"latitud":-93.08230608701706,
		"longitud":16.749656914206923
	},
	{
		"latitud":-93.08246433734894,
		"longitud":16.74927678897501
	},
	{
		"latitud":-93.08262795209885,
		"longitud":16.748876115611633
	},
	{
		"latitud":-93.0828183889389,
		"longitud":16.748426641283803
	},
	{
		"latitud":-93.08295249938965,
		"longitud":16.748108155974897
	},
	{
		"latitud":-93.08314025402069,
		"longitud":16.747853881031304
	},
	{
		"latitud":-93.08330923318863,
		"longitud":16.747615016381012
	},
	{
		"latitud":-93.08351308107376,
		"longitud":16.747573921357198
	},
	{
		"latitud":-93.08406561613083,
		"longitud":16.747638132328007
	},
	{
		"latitud":-93.08458060026169,
		"longitud":16.747738301399224
	},
	{
		"latitud":-93.08522433042526,
		"longitud":16.747838470417754
	},
	{
		"latitud":-93.08570981025696,
		"longitud":16.747900112864496
	},
	{
		"latitud":-93.08617115020752,
		"longitud":16.748005418664835
	},
	{
		"latitud":-93.08672100305557,
		"longitud":16.74813127186202
	},
	{
		"latitud":-93.08721452951431,
		"longitud":16.748246851255548
	},
	{
		"latitud":-93.0885636806488,
		"longitud":16.74852680994017
	},
	{
		"latitud":-93.08918058872223,
		"longitud":16.748668073340372
	},
	{
		"latitud":-93.08959096670151,
		"longitud":16.748747694483384
	},
	{
		"latitud":-93.0899503827095,
		"longitud":16.748824747170737
	},
	{
		"latitud":-93.09021592140198,
		"longitud":16.748881252454968
	},
	{
		"latitud":-93.09024274349213,
		"longitud":16.74857817846146
	},
	{
		"latitud":-93.09028029441833,
		"longitud":16.748231440673806
	},
	{
		"latitud":-93.09034198522568,
		"longitud":16.747843607289063
	},
	{
		"latitud":-93.09040367603302,
		"longitud":16.747440362468563
	},
	{
		"latitud":-93.09049755334854,
		"longitud":16.746967768725735
	},
	{
		"latitud":-93.09067726135254,
		"longitud":16.746520858346376
	},
	{
		"latitud":-93.09088110923767,
		"longitud":16.74616127452103
	},
	{
		"latitud":-93.09106081724167,
		"longitud":16.745832511572193
	},
	{
		"latitud":-93.0912646651268,
		"longitud":16.745454947172902
	},
	{
		"latitud":-93.09142291545868,
		"longitud":16.745046560347227
	},
	{
		"latitud":-93.09162139892578,
		"longitud":16.74471009004037
	},
	{
		"latitud":-93.09182524681091,
		"longitud":16.744332523415686
	},
	{
		"latitud":-93.09201568365097,
		"longitud":16.74394725057804
	},
	{
		"latitud":-93.09224098920822,
		"longitud":16.743561976960994
	},
	{
		"latitud":-93.0924528837204,
		"longitud":16.743151017577063
	},
	{
		"latitud":-93.09266209602356,
		"longitud":16.74276060534099
	},
	{
		"latitud":-93.09275329113007,
		"longitud":16.74248577519482
	},
	{
		"latitud":-93.09282839298248,
		"longitud":16.742154437388553
	},
	{
		"latitud":-93.09289813041687,
		"longitud":16.741825667522697
	},
	{
		"latitud":-93.09298127889633,
		"longitud":16.74132994313642
	},
	{
		"latitud":-93.0930483341217,
		"longitud":16.74098319215121
	},
	{
		"latitud":-93.09310734272003,
		"longitud":16.74059277547166
	},
	{
		"latitud":-93.09322535991669,
		"longitud":16.739919818527248
	},
	{
		"latitud":-93.09330582618713,
		"longitud":16.739413814984143
	},
	{
		"latitud":-93.09374302625656,
		"longitud":16.739560222238858
	},
	{
		"latitud":-93.09438675642014,
		"longitud":16.73977084300441
	},
	{
		"latitud":-93.0951002240181,
		"longitud":16.739994306244977
	},
	{
		"latitud":-93.09570103883743,
		"longitud":16.7401869467592
	},
	{
		"latitud":-93.09640914201736,
		"longitud":16.740415546583325
	},
	{
		"latitud":-93.09708505868912,
		"longitud":16.740646714665814
	},
	{
		"latitud":-93.097785115242,
		"longitud":16.740849628640362
	},
	{
		"latitud":-93.09831887483597,
		"longitud":16.741014014486566
	},
	{
		"latitud":-93.09879094362259,
		"longitud":16.741162989037157
	},
	{
		"latitud":-93.09915840625763,
		"longitud":16.741306826423713
	},
	{
		"latitud":-93.09954732656479,
		"longitud":16.741468643353777
	},
	{
		"latitud":-93.09992015361786,
		"longitud":16.74167155645273
	},
	{
		"latitud":-93.10031443834305,
		"longitud":16.741884743399794
	},
	{
		"latitud":-93.1006845831871,
		"longitud":16.742087656055478
	},
	{
		"latitud":-93.10104131698608,
		"longitud":16.74228029445262
	},
	{
		"latitud":-93.10160458087921,
		"longitud":16.74258080996311
	},
	{
		"latitud":-93.10205787420273,
		"longitud":16.742819680928097
	},
	{
		"latitud":-93.1025031208992,
		"longitud":16.743071394093874
	},
	{
		"latitud":-93.10295641422272,
		"longitud":16.743307695946786
	},
	{
		"latitud":-93.10340702533722,
		"longitud":16.743536292025468
	},
	{
		"latitud":-93.10386836528778,
		"longitud":16.743590230386047
	},
	{
		"latitud":-93.10428947210312,
		"longitud":16.743654442700155
	},
	{
		"latitud":-93.10485810041428,
		"longitud":16.743734065939584
	},
	{
		"latitud":-93.10535967350006,
		"longitud":16.743811120655725
	},
	{
		"latitud":-93.10581028461456,
		"longitud":16.743883038362654
	},
	{
		"latitud":-93.10643523931503,
		"longitud":16.743970366970274
	},
	{
		"latitud":-93.10699582099915,
		"longitud":16.744080811916685
	},
	{
		"latitud":-93.10746788978577,
		"longitud":16.74418868831414
	},
	{
		"latitud":-93.1079614162445,
		"longitud":16.744317112517134
	},
	{
		"latitud":-93.1084656715393,
		"longitud":16.744463516002927
	},
	{
		"latitud":-93.1090235710144,
		"longitud":16.74463046720902
	},
	{
		"latitud":-93.10945808887482,
		"longitud":16.744753754159557
	},
	{
		"latitud":-93.1099596619606,
		"longitud":16.744900157309676
	},
	{
		"latitud":-93.11043977737427,
		"longitud":16.745056834240376
	},
	{
		"latitud":-93.11100035905838,
		"longitud":16.745144162309735
	},
	{
		"latitud":-93.11152070760727,
		"longitud":16.745249469634235
	},
	{
		"latitud":-93.112011551857,
		"longitud":16.745344503023425
	},
	{
		"latitud":-93.1127679347992,
		"longitud":16.745431830960875
	},
	{
		"latitud":-93.11340898275375,
		"longitud":16.745508884990052
	},
	{
		"latitud":-93.11388373374939,
		"longitud":16.745567959724657
	},
	{
		"latitud":-93.11435043811798,
		"longitud":16.745637308302758
	},
	{
		"latitud":-93.11511754989624,
		"longitud":16.745768299992484
	},
	{
		"latitud":-93.11585783958435,
		"longitud":16.74587360697183
	},
	{
		"latitud":-93.11667323112488,
		"longitud":16.745999461578084
	},
	{
		"latitud":-93.1175047159195,
		"longitud":16.746130453018683
	},
	{
		"latitud":-93.11801970005035,
		"longitud":16.74621521213812
	},
	{
		"latitud":-93.11852931976318,
		"longitud":16.74630767658902
	},
	{
		"latitud":-93.1191435456276,
		"longitud":16.74641298327007
	},
	{
		"latitud":-93.11967194080353,
		"longitud":16.7465003107175
	},
	{
		"latitud":-93.12022179365158,
		"longitud":16.74658506967231
	},
	{
		"latitud":-93.12098622322083,
		"longitud":16.746718629160878
	},
	{
		"latitud":-93.12088698148727,
		"longitud":16.747165539076054
	},
	{
		"latitud":-93.1208199262619,
		"longitud":16.747522552564966
	},
	{
		"latitud":-93.12075018882751,
		"longitud":16.747938639383566
	},
	{
		"latitud":-93.12065094709396,
		"longitud":16.748495988820753
	},
	{
		"latitud":-93.12055438756943,
		"longitud":16.74898142087216
	},
	{
		"latitud":-93.1204605102539,
		"longitud":16.749333294125073
	},
	{
		"latitud":-93.12032639980316,
		"longitud":16.74994714444734
	},
	{
		"latitud":-93.11986237764359,
		"longitud":16.749890639479474
	},
	{
		"latitud":-93.11946004629135,
		"longitud":16.749839271312307
	},
	{
		"latitud":-93.119036257267,
		"longitud":16.749780197902936
	},
	{
		"latitud":-93.1186231970787,
		"longitud":16.749728829705962
	}],"final":[	{
		"latitud":-93.1186231970787,
		"longitud":16.7497365349364
	},
	{
		"latitud":-93.11861783266068,
		"longitud":16.749728829705962
	},
	{
		"latitud":-93.11777293682098,
		"longitud":16.749577293444165
	},
	{
		"latitud":-93.1178668141365,
		"longitud":16.749086726074438
	},
	{
		"latitud":-93.11795264482498,
		"longitud":16.74865523121741
	},
	{
		"latitud":-93.11804383993149,
		"longitud":16.74821089322953
	},
	{
		"latitud":-93.11812430620193,
		"longitud":16.747779396387564
	},
	{
		"latitud":-93.11822086572647,
		"longitud":16.747324782585473
	},
	{
		"latitud":-93.11827719211578,
		"longitud":16.746944652697355
	},
	{
		"latitud":-93.11836838722229,
		"longitud":16.7464027094501
	},
	{
		"latitud":-93.11838984489441,
		"longitud":16.746276855110377
	},
	{
		"latitud":-93.11785876750946,
		"longitud":16.74619209601837
	},
	{
		"latitud":-93.11725527048111,
		"longitud":16.74608935767446
	},
	{
		"latitud":-93.11668395996094,
		"longitud":16.746014872340467
	},
	{
		"latitud":-93.11623871326447,
		"longitud":16.74593781851603
	},
	{
		"latitud":-93.11560571193695,
		"longitud":16.74582994310942
	},
	{
		"latitud":-93.11560571193695,
		"longitud":16.74582994310942
	},
	{
		"latitud":-93.11512559652328,
		"longitud":16.745768299992484
	},
	{
		"latitud":-93.11428606510162,
		"longitud":16.745629602906437
	},
	{
		"latitud":-93.11374425888062,
		"longitud":16.745547411992963
	},
	{
		"latitud":-93.11316221952438,
		"longitud":16.745483200317125
	},
	{
		"latitud":-93.1125345826149,
		"longitud":16.74540100934046
	},
	{
		"latitud":-93.1119766831398,
		"longitud":16.74527515433869
	},
	{
		"latitud":-93.11156362295151,
		"longitud":16.745159573141343
	},
	{
		"latitud":-93.11102986335754,
		"longitud":16.74505940271357
	},
	{
		"latitud":-93.11040490865707,
		"longitud":16.744943821385288
	},
	{
		"latitud":-93.10984164476395,
		"longitud":16.74477173349985
	},
	{
		"latitud":-93.10926228761673,
		"longitud":16.744607350896896
	},
	{
		"latitud":-93.10851395130157,
		"longitud":16.744383893068473
	},
	{
		"latitud":-93.10762614011765,
		"longitud":16.74413731860868
	},
	{
		"latitud":-93.10703873634338,
		"longitud":16.744008894284445
	},
	{
		"latitud":-93.10655862092972,
		"longitud":16.743906154762687
	},
	{
		"latitud":-93.10596853494644,
		"longitud":16.743811120655725
	},
	{
		"latitud":-93.10553938150406,
		"longitud":16.743749476885313
	},
	{
		"latitud":-93.10491979122162,
		"longitud":16.74365187420801
	},
	{
		"latitud":-93.10433506965637,
		"longitud":16.743559408467586
	},
	{
		"latitud":-93.10374230146408,
		"longitud":16.743482353649608
	},
	{
		"latitud":-93.1034392118454,
		"longitud":16.743448963218807
	},
	{
		"latitud":-93.10298323631287,
		"longitud":16.74320752454494
	},
	{
		"latitud":-93.10258090496063,
		"longitud":16.742999476080463
	},
	{
		"latitud":-93.10197472572327,
		"longitud":16.742668139167847
	},
	{
		"latitud":-93.10148119926453,
		"longitud":16.742393308888268
	},
	{
		"latitud":-93.10101717710495,
		"longitud":16.742157005900903
	},
	{
		"latitud":-93.10046464204788,
		"longitud":16.741864195270708
	},
	{
		"latitud":-93.09986650943756,
		"longitud":16.741530287862396
	},
	{
		"latitud":-93.09912890195847,
		"longitud":16.74119381134343
	},
	{
		"latitud":-93.09867560863495,
		"longitud":16.741031994179888
	},
	{
		"latitud":-93.0980372428894,
		"longitud":16.740831648929838
	},
	{
		"latitud":-93.09727549552917,
		"longitud":16.740597912538423
	},
	{
		"latitud":-93.09656471014023,
		"longitud":16.740377018542294
	},
	{
		"latitud":-93.09593975543976,
		"longitud":16.740168966986104
	},
	{
		"latitud":-93.09532552957535,
		"longitud":16.73996605228651
	},
	{
		"latitud":-93.09484273195267,
		"longitud":16.739822213887518
	},
	{
		"latitud":-93.09433043003082,
		"longitud":16.73966553265075
	},
	{
		"latitud":-93.09378325939178,
		"longitud":16.73948830289972
	},
	{
		"latitud":-93.09331119060516,
		"longitud":16.739339327039424
	},
	{
		"latitud":-93.09322535991669,
		"longitud":16.73991468144219
	},
	{
		"latitud":-93.09313148260117,
		"longitud":16.740477191432745
	},
	{
		"latitud":-93.09303492307663,
		"longitud":16.741044836816933
	},
	{
		"latitud":-93.09296786785126,
		"longitud":16.74146607483214
	},
	{
		"latitud":-93.09285253286362,
		"longitud":16.742036285783332
	},
	{
		"latitud":-93.09275060892105,
		"longitud":16.74250889176445
	},
	{
		"latitud":-93.09267282485962,
		"longitud":16.742755468332547
	},
	{
		"latitud":-93.09238314628601,
		"longitud":16.74328971646828
	},
	{
		"latitud":-93.09208005666733,
		"longitud":16.743831668574767
	},
	{
		"latitud":-93.09186547994614,
		"longitud":16.744247763458272
	},
	{
		"latitud":-93.09158384799957,
		"longitud":16.74478714436161
	},
	{
		"latitud":-93.09138000011444,
		"longitud":16.74518525785793
	},
	{
		"latitud":-93.0910849571228,
		"longitud":16.745824806183773
	},
	{
		"latitud":-93.09094548225403,
		"longitud":16.74603798848173
	},
	{
		"latitud":-93.09077650308609,
		"longitud":16.746343634974455
	},
	{
		"latitud":-93.09064507484436,
		"longitud":16.746595343482447
	},
	{
		"latitud":-93.09051364660263,
		"longitud":16.746895852183776
	},
	{
		"latitud":-93.09043318033218,
		"longitud":16.747178381299502
	},
	{
		"latitud":-93.09037417173386,
		"longitud":16.7476663851483
	},
	{
		"latitud":-93.09029370546341,
		"longitud":16.74819805107574
	},
	{
		"latitud":-93.09021860361099,
		"longitud":16.74870403128006
	},
	{
		"latitud":-93.08971434831619,
		"longitud":16.748598725866106
	},
	{
		"latitud":-93.08916181325912,
		"longitud":16.748483146686183
	},
	{
		"latitud":-93.08834910392761,
		"longitud":16.74831876728722
	},
	{
		"latitud":-93.08769196271896,
		"longitud":16.748182640490025
	},
	{
		"latitud":-93.08708041906357,
		"longitud":16.748054218894033
	},
	{
		"latitud":-93.0864554643631,
		"longitud":16.74792836564592
	},
	{
		"latitud":-93.08583319187164,
		"longitud":16.74780764918689
	},
	{
		"latitud":-93.08514654636383,
		"longitud":16.74765611139596
	},
	{
		"latitud":-93.08461546897888,
		"longitud":16.74755337384197
	},
	{
		"latitud":-93.08415681123734,
		"longitud":16.747478889080668
	},
	{
		"latitud":-93.08356404304504,
		"longitud":16.747386425198517
	},
	{
		"latitud":-93.0834648013115,
		"longitud":16.747227181740662
	},
	{
		"latitud":-93.08323681354523,
		"longitud":16.747209202632217
	},
	{
		"latitud":-93.08309733867645,
		"longitud":16.74736587766305
	},
	{
		"latitud":-93.08307856321335,
		"longitud":16.747525121004912
	},
	{
		"latitud":-93.0829980969429,
		"longitud":16.747846175724675
	},
	{
		"latitud":-93.08288276195526,
		"longitud":16.748079903220166
	},
	{
		"latitud":-93.08269500732422,
		"longitud":16.74851396780769
	},
	{
		"latitud":-93.08252066373825,
		"longitud":16.74889409456268
	},
	{
		"latitud":-93.08235973119736,
		"longitud":16.74929476788822
	},
	{
		"latitud":-93.08221220970154,
		"longitud":16.749633798505045
	},
	{
		"latitud":-93.08213979005814,
		"longitud":16.74996769170423
	},
	{
		"latitud":-93.08196276426315,
		"longitud":16.74998053373866
	},
	{
		"latitud":-93.0812680721283,
		"longitud":16.75002419664924
	},
	{
		"latitud":-93.08062434196472,
		"longitud":16.750042175491853
	},
	{
		"latitud":-93.07985454797745,
		"longitud":16.75007299636097
	},
	{
		"latitud":-93.07963997125626,
		"longitud":16.750096112009544
	},
	{
		"latitud":-93.07953268289566,
		"longitud":16.750008786211357
	},
	{
		"latitud":-93.07937979698181,
		"longitud":16.750008786211357
	},
	{
		"latitud":-93.0793234705925,
		"longitud":16.75016032212969
	},
	{
		"latitud":-93.0792886018753,
		"longitud":16.750293879110266
	},
	{
		"latitud":-93.07902842760086,
		"longitud":16.750668865516378
	},
	{
		"latitud":-93.07870656251907,
		"longitud":16.751136313289678
	},
	{
		"latitud":-93.07850807905197,
		"longitud":16.751439383210634
	},
	{
		"latitud":-93.07835519313812,
		"longitud":16.751667969526743
	},
	{
		"latitud":-93.0783149600029,
		"longitud":16.75188114528202
	},
	{
		"latitud":-93.07792335748672,
		"longitud":16.752127709713275
	},
	{
		"latitud":-93.0774861574173,
		"longitud":16.752155961867288
	},
	{
		"latitud":-93.07732254266739,
		"longitud":16.75217650888575
	},
	{
		"latitud":-93.0772152543068,
		"longitud":16.75255405995535
	}]}