{
"inicio":[	{
		"latitud":-93.09484004974365,
		"longitud":16.785190132321137
	},
	{
		"latitud":-93.0947408080101,
		"longitud":16.785172156801274
	},
	{
		"latitud":-93.09460401535034,
		"longitud":16.784969290102122
	},
	{
		"latitud":-93.09457451105118,
		"longitud":16.784840893345145
	},
	{
		"latitud":-93.0949205160141,
		"longitud":16.784224587703513
	},
	{
		"latitud":-93.09520751237869,
		"longitud":16.78423999536893
	},
	{
		"latitud":-93.09525579214096,
		"longitud":16.783698158384567
	},
	{
		"latitud":-93.0952987074852,
		"longitud":16.78331296527573
	},
	{
		"latitud":-93.09532552957535,
		"longitud":16.782948315079704
	},
	{
		"latitud":-93.09535771608353,
		"longitud":16.782557984516817
	},
	{
		"latitud":-93.09537380933762,
		"longitud":16.782183060984217
	},
	{
		"latitud":-93.09537649154663,
		"longitud":16.78180556873469
	},
	{
		"latitud":-93.09541940689087,
		"longitud":16.78143321169934
	},
	{
		"latitud":-93.09544622898102,
		"longitud":16.781068557895384
	},
	{
		"latitud":-93.09552133083344,
		"longitud":16.78082716696412
	},
	{
		"latitud":-93.09575200080872,
		"longitud":16.780108128330323
	},
	{
		"latitud":-93.09601753950119,
		"longitud":16.779327454732794
	},
	{
		"latitud":-93.09553742408752,
		"longitud":16.779294070592965
	},
	{
		"latitud":-93.09454500675201,
		"longitud":16.779227302295713
	},
	{
		"latitud":-93.09454768896103,
		"longitud":16.779124581792594
	},
	{
		"latitud":-93.09318780899048,
		"longitud":16.778988477040436
	},
	{
		"latitud":-93.09167504310608,
		"longitud":16.778777899684634
	},
	{
		"latitud":-93.08973848819733,
		"longitud":16.778451761124224
	},
	{
		"latitud":-93.09019178152084,
		"longitud":16.776905805372653
	},
	{
		"latitud":-93.09026420116425,
		"longitud":16.776633592592674
	},
	{
		"latitud":-93.09068262577057,
		"longitud":16.77503369261932
	},
	{
		"latitud":-93.09091597795486,
		"longitud":16.77420163658776
	},
	{
		"latitud":-93.09117883443832,
		"longitud":16.7732257637617
	},
	{
		"latitud":-93.09142023324966,
		"longitud":16.772298679936604
	},
	{
		"latitud":-93.0914980173111,
		"longitud":16.77207782273528
	},
	{
		"latitud":-93.09171259403229,
		"longitud":16.771327933578974
	},
	{
		"latitud":-93.09180110692978,
		"longitud":16.770999214112223
	},
	{
		"latitud":-93.09198349714279,
		"longitud":16.770334069077677
	},
	{
		"latitud":-93.09208273887634,
		"longitud":16.77002846111946
	},
	{
		"latitud":-93.09208273887634,
		"longitud":16.77002846111946
	},
	{
		"latitud":-93.09223562479019,
		"longitud":16.769376153414182
	},
	{
		"latitud":-93.09231877326965,
		"longitud":16.769088520959166
	},
	{
		"latitud":-93.09239119291306,
		"longitud":16.76878804730489
	},
	{
		"latitud":-93.0924528837204,
		"longitud":16.768461891604268
	},
	{
		"latitud":-93.0927050113678,
		"longitud":16.767483421145815
	},
	{
		"latitud":-93.09290617704391,
		"longitud":16.766538332038575
	},
	{
		"latitud":-93.09304028749466,
		"longitud":16.766047808394998
	},
	{
		"latitud":-93.09312880039215,
		"longitud":16.765755034517905
	},
	{
		"latitud":-93.09354990720749,
		"longitud":16.764771413717874
	},
	{
		"latitud":-93.09367328882217,
		"longitud":16.76454284314298
	},
	{
		"latitud":-93.09371888637543,
		"longitud":16.76445038755153
	},
	{
		"latitud":-93.09505462646484,
		"longitud":16.76152003566008
	},
	{
		"latitud":-93.09525579214096,
		"longitud":16.761111683302854
	},
	{
		"latitud":-93.09529066085815,
		"longitud":16.760926768739555
	},
	{
		"latitud":-93.0961275100708,
		"longitud":16.75937039737592
	},
	{
		"latitud":-93.0963796377182,
		"longitud":16.758723189694503
	},
	{
		"latitud":-93.09640377759933,
		"longitud":16.758607616662598
	},
	{
		"latitud":-93.09727817773819,
		"longitud":16.75846379234705
	},
	{
		"latitud":-93.0990806221962,
		"longitud":16.75805286513219
	},
	{
		"latitud":-93.0996921658516,
		"longitud":16.75784740119196
	},
	{
		"latitud":-93.10013741254807,
		"longitud":16.75757516112941
	},
	{
		"latitud":-93.10098230838776,
		"longitud":16.75720275663946
	},
	{
		"latitud":-93.10214638710022,
		"longitud":16.756573519810672
	},
	{
		"latitud":-93.10238778591156,
		"longitud":16.755222579835245
	},
	{
		"latitud":-93.10255944728851,
		"longitud":16.754218357784158
	},
	{
		"latitud":-93.10258626937866,
		"longitud":16.754138738929353
	},
	{
		"latitud":-93.1027552485466,
		"longitud":16.753126806066543
	},
	{
		"latitud":-93.1028464436531,
		"longitud":16.752664499922563
	},
	{
		"latitud":-93.10301005840302,
		"longitud":16.751629443762354
	},
	{
		"latitud":-93.10322195291519,
		"longitud":16.750417162393774
	},
	{
		"latitud":-93.10327559709549,
		"longitud":16.749903481519095
	},
	{
		"latitud":-93.10338288545609,
		"longitud":16.749448872788893
	},
	{
		"latitud":-93.1035304069519,
		"longitud":16.748359862150274
	},
	{
		"latitud":-93.10456037521362,
		"longitud":16.74853194679293
	},
	{
		"latitud":-93.10579150915146,
		"longitud":16.748709168128023
	},
	{
		"latitud":-93.1073847413063,
		"longitud":16.7489223471966
	},
	{
		"latitud":-93.10898333787918,
		"longitud":16.749143231280915
	},
	{
		"latitud":-93.1092756986618,
		"longitud":16.749217715391104
	},
	{
		"latitud":-93.11082065105438,
		"longitud":16.749392367673128
	},
	{
		"latitud":-93.11188012361526,
		"longitud":16.749525925192447
	},
	{
		"latitud":-93.1128939986229,
		"longitud":16.749692871959848
	},
	{
		"latitud":-93.1144067645073,
		"longitud":16.749867523805968
	},
	{
		"latitud":-93.11512559652328,
		"longitud":16.74997026011119
	},
	{
		"latitud":-93.11504781246185,
		"longitud":16.75043514119928
	}],"final":[	{
		"latitud":-93.11503976583481,
		"longitud":16.75043257279859
	},
	{
		"latitud":-93.11497271060944,
		"longitud":16.750825537700152
	},
	{
		"latitud":-93.11335533857346,
		"longitud":16.75062777115174
	},
	{
		"latitud":-93.11341971158981,
		"longitud":16.750365794368676
	},
	{
		"latitud":-93.11371475458145,
		"longitud":16.74898142087216
	},
	{
		"latitud":-93.11358332633972,
		"longitud":16.748983989292427
	},
	{
		"latitud":-93.11252653598785,
		"longitud":16.74880933663576
	},
	{
		"latitud":-93.11196595430374,
		"longitud":16.748755399753527
	},
	{
		"latitud":-93.11160922050476,
		"longitud":16.748750262906807
	},
	{
		"latitud":-93.10993820428848,
		"longitud":16.748524241513756
	},
	{
		"latitud":-93.10975581407547,
		"longitud":16.748519104660794
	},
	{
		"latitud":-93.10954928398132,
		"longitud":16.748598725866106
	},
	{
		"latitud":-93.10940712690353,
		"longitud":16.748786220830958
	},
	{
		"latitud":-93.10928642749786,
		"longitud":16.74921514697399
	},
	{
		"latitud":-93.10900211334229,
		"longitud":16.749145799698994
	},
	{
		"latitud":-93.10685902833939,
		"longitud":16.748855568236948
	},
	{
		"latitud":-93.10455769300461,
		"longitud":16.74852680994017
	},
	{
		"latitud":-93.1034392118454,
		"longitud":16.74835472529287
	},
	{
		"latitud":-93.10245752334595,
		"longitud":16.74817493519672
	},
	{
		"latitud":-93.10200154781342,
		"longitud":16.74806192419224
	},
	{
		"latitud":-93.10026615858078,
		"longitud":16.74742495182154
	},
	{
		"latitud":-93.10012131929398,
		"longitud":16.74819291421397
	},
	{
		"latitud":-93.09992283582687,
		"longitud":16.749194599635885
	},
	{
		"latitud":-93.09962779283524,
		"longitud":16.75077416978524
	},
	{
		"latitud":-93.09808284044266,
		"longitud":16.75043514119928
	},
	{
		"latitud":-93.09753835201263,
		"longitud":16.750314426329727
	},
	{
		"latitud":-93.0974954366684,
		"longitud":16.750483940805672
	},
	{
		"latitud":-93.09867024421692,
		"longitud":16.75076132780436
	},
	{
		"latitud":-93.0985227227211,
		"longitud":16.751565234137736
	},
	{
		"latitud":-93.09825450181961,
		"longitud":16.752795486777366
	},
	{
		"latitud":-93.09810698032379,
		"longitud":16.753499218532586
	},
	{
		"latitud":-93.09798896312714,
		"longitud":16.753989774530915
	},
	{
		"latitud":-93.09780389070511,
		"longitud":16.754791098887097
	},
	{
		"latitud":-93.09745788574219,
		"longitud":16.75638089587569
	},
	{
		"latitud":-93.097243309021,
		"longitud":16.757318330524686
	},
	{
		"latitud":-93.09726744890213,
		"longitud":16.758458655762347
	},
	{
		"latitud":-93.09639304876328,
		"longitud":16.758617889823824
	},
	{
		"latitud":-93.09637695550919,
		"longitud":16.758728326272085
	},
	{
		"latitud":-93.09613019227982,
		"longitud":16.75937553393601
	},
	{
		"latitud":-93.09528261423111,
		"longitud":16.760939610034484
	},
	{
		"latitud":-93.09516727924347,
		"longitud":16.761062886421673
	},
	{
		"latitud":-93.09495002031326,
		"longitud":16.761517467409004
	},
	{
		"latitud":-93.09362769126892,
		"longitud":16.764399023314628
	},
	{
		"latitud":-93.09347212314606,
		"longitud":16.764709776735963
	},
	{
		"latitud":-93.09305369853973,
		"longitud":16.765683125075647
	},
	{
		"latitud":-93.09294909238815,
		"longitud":16.765983603635977
	},
	{
		"latitud":-93.09281498193741,
		"longitud":16.766510082020137
	},
	{
		"latitud":-93.09267282485962,
		"longitud":16.76714699050746
	},
	{
		"latitud":-93.09261113405228,
		"longitud":16.76746287578039
	},
	{
		"latitud":-93.09251457452774,
		"longitud":16.767804442192382
	},
	{
		"latitud":-93.0923455953598,
		"longitud":16.768523527370085
	},
	{
		"latitud":-93.09230268001556,
		"longitud":16.76877263838673
	},
	{
		"latitud":-93.092200756073,
		"longitud":16.769160429113718
	},
	{
		"latitud":-93.09211760759354,
		"longitud":16.769478879185524
	},
	{
		"latitud":-93.09197545051575,
		"longitud":16.769995075346355
	},
	{
		"latitud":-93.09188693761826,
		"longitud":16.7703263646814
	},
	{
		"latitud":-93.0917689204216,
		"longitud":16.77071158411257
	},
	{
		"latitud":-93.0916079878807,
		"longitud":16.77125089000494
	},
	{
		"latitud":-93.09136927127838,
		"longitud":16.772057277866303
	},
	{
		"latitud":-93.09132635593414,
		"longitud":16.772272998879863
	},
	{
		"latitud":-93.09093207120895,
		"longitud":16.773793311462214
	},
	{
		"latitud":-93.09052169322968,
		"longitud":16.775300771560943
	},
	{
		"latitud":-93.09017032384872,
		"longitud":16.776605344074298
	},
	{
		"latitud":-93.08965533971786,
		"longitud":16.778433784966822
	},
	{
		"latitud":-93.0923268198967,
		"longitud":16.778875484341956
	},
	{
		"latitud":-93.09318780899048,
		"longitud":16.778985909025305
	},
	{
		"latitud":-93.09304565191269,
		"longitud":16.780190304311898
	},
	{
		"latitud":-93.094362616539,
		"longitud":16.780331544197203
	},
	{
		"latitud":-93.09433579444885,
		"longitud":16.780842574905076
	},
	{
		"latitud":-93.09452086687088,
		"longitud":16.780850278875082
	},
	{
		"latitud":-93.0955159664154,
		"longitud":16.78083487093475
	},
	{
		"latitud":-93.09544891119003,
		"longitud":16.78106598990837
	},
	{
		"latitud":-93.09537917375565,
		"longitud":16.781831248503327
	},
	{
		"latitud":-93.09535503387451,
		"longitud":16.782568256384003
	},
	{
		"latitud":-93.0952987074852,
		"longitud":16.783318101188993
	},
	{
		"latitud":-93.09520751237869,
		"longitud":16.78423999536893
	},
	{
		"latitud":-93.09536039829254,
		"longitud":16.784263106864703
	},
	{
		"latitud":-93.09483200311661,
		"longitud":16.785202971977125
	},
	{
		"latitud":-93.09475153684616,
		"longitud":16.785177292664272
	},
	{
		"latitud":-93.0945959687233,
		"longitud":16.784956450430336
	},
	{
		"latitud":-93.09457451105118,
		"longitud":16.784840893345145
	}]}