{
"inicio":[	{
		"latitud":-93.11659812927246,
		"longitud":16.751037430202583
	},
	{
		"latitud":-93.11829596757889,
		"longitud":16.751287848310472
	},
	{
		"latitud":-93.11920523643494,
		"longitud":16.75142140449999
	},
	{
		"latitud":-93.11906844377518,
		"longitud":16.752270254629387
	},
	{
		"latitud":-93.11892628669739,
		"longitud":16.753093417327097
	},
	{
		"latitud":-93.11875730752945,
		"longitud":16.754047562457952
	},
	{
		"latitud":-93.11862856149673,
		"longitud":16.7549490518477
	},
	{
		"latitud":-93.11836838722229,
		"longitud":16.75652086928781
	},
	{
		"latitud":-93.11821013689041,
		"longitud":16.757304204831375
	},
	{
		"latitud":-93.11802640557289,
		"longitud":16.758543409392313
	},
	{
		"latitud":-93.1177394092083,
		"longitud":16.76044136715574
	},
	{
		"latitud":-93.11740815639496,
		"longitud":16.762269963492162
	},
	{
		"latitud":-93.115523904562,
		"longitud":16.761978467922376
	},
	{
		"latitud":-93.11290204524994,
		"longitud":16.761504626153084
	},
	{
		"latitud":-93.11100974678993,
		"longitud":16.76114892301956
	},
	{
		"latitud":-93.11001598834991,
		"longitud":16.760952451328546
	},
	{
		"latitud":-93.11025336384773,
		"longitud":16.76004713797392
	},
	{
		"latitud":-93.1105363368988,
		"longitud":16.75884133094347
	},
	{
		"latitud":-93.10975715517998,
		"longitud":16.758603764226986
	},
	{
		"latitud":-93.10983493924141,
		"longitud":16.758269886178116
	},
	{
		"latitud":-93.10996636748314,
		"longitud":16.758118356716498
	},
	{
		"latitud":-93.10977190732956,
		"longitud":16.758149176277787
	},
	{
		"latitud":-93.10946613550186,
		"longitud":16.758284011799752
	},
	{
		"latitud":-93.10894846916199,
		"longitud":16.757426199420895
	},
	{
		"latitud":-93.1088438630104,
		"longitud":16.756879149387398
	},
	{
		"latitud":-93.1087888777256,
		"longitud":16.755818432869653
	},
	{
		"latitud":-93.10780316591263,
		"longitud":16.755865946932154
	},
	{
		"latitud":-93.10743570327759,
		"longitud":16.755828706181475
	},
	{
		"latitud":-93.10697838664055,
		"longitud":16.755747803835888
	},
	{
		"latitud":-93.10623541474342,
		"longitud":16.755639933988274
	},
	{
		"latitud":-93.10541331768036,
		"longitud":16.755483265767367
	},
	{
		"latitud":-93.10464486479759,
		"longitud":16.75539080577319
	},
	{
		"latitud":-93.10430690646172,
		"longitud":16.755371543268755
	},
	{
		"latitud":-93.10414999723434,
		"longitud":16.7554524457743
	},
	{
		"latitud":-93.10238510370255,
		"longitud":16.755227716507314
	},
	{
		"latitud":-93.10079053044319,
		"longitud":16.754996566127268
	},
	{
		"latitud":-93.09903100132942,
		"longitud":16.754737163699808
	},
	{
		"latitud":-93.09685572981834,
		"longitud":16.754852739082438
	},
	{
		"latitud":-93.09518873691559,
		"longitud":16.75447005588025
	},
	{
		"latitud":-93.09340506792068,
		"longitud":16.75405655168947
	},
	{
		"latitud":-93.09325620532036,
		"longitud":16.754576642218584
	},
	{
		"latitud":-93.0931381881237,
		"longitud":16.75511342552116
	},
	{
		"latitud":-93.09297859668732,
		"longitud":16.755949417553804
	},
	{
		"latitud":-93.0931730568409,
		"longitud":16.756374475074505
	},
	{
		"latitud":-93.09343457221985,
		"longitud":16.75679182670127
	},
	{
		"latitud":-93.09365183115005,
		"longitud":16.757284942520613
	},
	{
		"latitud":-93.09367597103119,
		"longitud":16.757413357888836
	},
	{
		"latitud":-93.09368804097176,
		"longitud":16.757480133846073
	},
	{
		"latitud":-93.09354856610298,
		"longitud":16.757757510648347
	},
	{
		"latitud":-93.09311404824257,
		"longitud":16.75843554112944
	},
	{
		"latitud":-93.09271842241287,
		"longitud":16.759035236530043
	},
	{
		"latitud":-93.09255480766296,
		"longitud":16.759416626411777
	},
	{
		"latitud":-93.09244886040688,
		"longitud":16.75983011895515
	},
	{
		"latitud":-93.09236839413643,
		"longitud":16.759970089829917
	},
	{
		"latitud":-93.09009790420532,
		"longitud":16.759049362094846
	},
	{
		"latitud":-93.08805540204048,
		"longitud":16.75824035078405
	},
	{
		"latitud":-93.0881854891777,
		"longitud":16.75772155441901
	}],"final":[	{
		"latitud":-93.08818280696869,
		"longitud":16.757743384987666
	},
	{
		"latitud":-93.08801919221878,
		"longitud":16.758355924039055
	},
	{
		"latitud":-93.09088379144669,
		"longitud":16.7595039478933
	},
	{
		"latitud":-93.09241399168968,
		"longitud":16.760112628871813
	},
	{
		"latitud":-93.09245556592941,
		"longitud":16.759993204276427
	},
	{
		"latitud":-93.09245020151138,
		"longitud":16.759827550681266
	},
	{
		"latitud":-93.09256285429001,
		"longitud":16.759403785014054
	},
	{
		"latitud":-93.09271305799484,
		"longitud":16.759042941383733
	},
	{
		"latitud":-93.09289276599884,
		"longitud":16.758764282311173
	},
	{
		"latitud":-93.09177428483963,
		"longitud":16.75808882129892
	},
	{
		"latitud":-93.09200763702393,
		"longitud":16.757803740076085
	},
	{
		"latitud":-93.09222087264061,
		"longitud":16.757463439858988
	},
	{
		"latitud":-93.0925440788269,
		"longitud":16.757639368726426
	},
	{
		"latitud":-93.09281498193741,
		"longitud":16.757279805904115
	},
	{
		"latitud":-93.09204518795013,
		"longitud":16.756875296916824
	},
	{
		"latitud":-93.09217125177383,
		"longitud":16.756560678221124
	},
	{
		"latitud":-93.09216186404228,
		"longitud":16.756434830597183
	},
	{
		"latitud":-93.0921122431755,
		"longitud":16.756364201792188
	},
	{
		"latitud":-93.09200629591942,
		"longitud":16.756324392817824
	},
	{
		"latitud":-93.0926164984703,
		"longitud":16.75444565658963
	},
	{
		"latitud":-93.09325754642487,
		"longitud":16.754577926390997
	},
	{
		"latitud":-93.09340640902519,
		"longitud":16.754056551689494
	},
	{
		"latitud":-93.09591695666313,
		"longitud":16.754648555858946
	},
	{
		"latitud":-93.09685438871384,
		"longitud":16.754856591594027
	},
	{
		"latitud":-93.0978012084961,
		"longitud":16.75479623557082
	},
	{
		"latitud":-93.09902966022491,
		"longitud":16.75473459535717
	},
	{
		"latitud":-93.1007918715477,
		"longitud":16.754993997788144
	},
	{
		"latitud":-93.10128271579742,
		"longitud":16.755068479608934
	},
	{
		"latitud":-93.10144230723381,
		"longitud":16.754062972568896
	},
	{
		"latitud":-93.10146108269691,
		"longitud":16.753973080237657
	},
	{
		"latitud":-93.10359477996826,
		"longitud":16.754296692431414
	},
	{
		"latitud":-93.10480043292046,
		"longitud":16.754485465956986
	},
	{
		"latitud":-93.10646206140518,
		"longitud":16.754714048614883
	},
	{
		"latitud":-93.1068067252636,
		"longitud":16.752751824502493
	},
	{
		"latitud":-93.1093293428421,
		"longitud":16.753261645147052
	},
	{
		"latitud":-93.11101377010345,
		"longitud":16.753539028097947
	},
	{
		"latitud":-93.11274245381355,
		"longitud":16.75384466254796
	},
	{
		"latitud":-93.11286449432373,
		"longitud":16.75312552188441
	},
	{
		"latitud":-93.11306431889534,
		"longitud":16.75222787642228
	},
	{
		"latitud":-93.11389580368996,
		"longitud":16.752366568701504
	},
	{
		"latitud":-93.11638221144676,
		"longitud":16.752729993361275
	},
	{
		"latitud":-93.11651229858398,
		"longitud":16.751891418806405
	},
	{
		"latitud":-93.11666116118431,
		"longitud":16.751046419576294
	}]}