{
"inicio":[	{
		"latitud":-93.08817744255066,
		"longitud":16.726958512293464
	},
	{
		"latitud":-93.0881130695343,
		"longitud":16.72785499248554
	},
	{
		"latitud":-93.08806747198105,
		"longitud":16.728073332295082
	},
	{
		"latitud":-93.0879870057106,
		"longitud":16.728253141362224
	},
	{
		"latitud":-93.08789312839508,
		"longitud":16.72840726328478
	},
	{
		"latitud":-93.08785825967789,
		"longitud":16.72846891201893
	},
	{
		"latitud":-93.08726280927658,
		"longitud":16.72914447809089
	},
	{
		"latitud":-93.08671295642853,
		"longitud":16.72970188251491
	},
	{
		"latitud":-93.08656007051468,
		"longitud":16.729755824792026
	},
	{
		"latitud":-93.08567225933075,
		"longitud":16.73007177210857
	},
	{
		"latitud":-93.08543354272842,
		"longitud":16.730197637153857
	},
	{
		"latitud":-93.08502584695816,
		"longitud":16.730485328373824
	},
	{
		"latitud":-93.08493733406067,
		"longitud":16.73079099981927
	},
	{
		"latitud":-93.08516532182693,
		"longitud":16.731281614307715
	},
	{
		"latitud":-93.08525651693344,
		"longitud":16.73156159792623
	},
	{
		"latitud":-93.08536916971207,
		"longitud":16.73223972168315
	},
	{
		"latitud":-93.08542549610138,
		"longitud":16.732928117574513
	},
	{
		"latitud":-93.08536648750305,
		"longitud":16.733113059330535
	},
	{
		"latitud":-93.08504462242126,
		"longitud":16.73356513842302
	},
	{
		"latitud":-93.08466643095016,
		"longitud":16.73400694195454
	},
	{
		"latitud":-93.08443307876587,
		"longitud":16.73439737212983
	},
	{
		"latitud":-93.08442234992981,
		"longitud":16.734649096424
	},
	{
		"latitud":-93.08547377586365,
		"longitud":16.734746703713895
	},
	{
		"latitud":-93.08649837970734,
		"longitud":16.734921369265777
	},
	{
		"latitud":-93.08709114789963,
		"longitud":16.73499329032884
	},
	{
		"latitud":-93.08789849281311,
		"longitud":16.73583579218892
	},
	{
		"latitud":-93.08845907449722,
		"longitud":16.73644454883663
	},
	{
		"latitud":-93.0873191356659,
		"longitud":16.73697110892518
	},
	{
		"latitud":-93.08752030134201,
		"longitud":16.73703789205193
	},
	{
		"latitud":-93.08857172727585,
		"longitud":16.73652160650146
	},
	{
		"latitud":-93.08974653482437,
		"longitud":16.735953947639747
	},
	{
		"latitud":-93.09095621109009,
		"longitud":16.735376012672145
	},
	{
		"latitud":-93.09158384799957,
		"longitud":16.735047231108325
	},
	{
		"latitud":-93.09160530567169,
		"longitud":16.73594624185172
	},
	{
		"latitud":-93.09161335229874,
		"longitud":16.736475371906312
	},
	{
		"latitud":-93.09159725904465,
		"longitud":16.737009637655014
	},
	{
		"latitud":-93.09162139892578,
		"longitud":16.73776223061522
	},
	{
		"latitud":-93.09152752161026,
		"longitud":16.737705722032015
	},
	{
		"latitud":-93.0913719534874,
		"longitud":16.738304198448343
	},
	{
		"latitud":-93.09125930070877,
		"longitud":16.738889830203178
	},
	{
		"latitud":-93.09123516082764,
		"longitud":16.739002846650386
	},
	{
		"latitud":-93.09168845415115,
		"longitud":16.738954044101853
	},
	{
		"latitud":-93.09228926897049,
		"longitud":16.73909274604915
	},
	{
		"latitud":-93.09331119060516,
		"longitud":16.739418952082698
	},
	{
		"latitud":-93.09438407421112,
		"longitud":16.73977598009335
	},
	{
		"latitud":-93.09541404247284,
		"longitud":16.740091910796533
	},
	{
		"latitud":-93.09676855802536,
		"longitud":16.74053626772807
	},
	{
		"latitud":-93.09777975082397,
		"longitud":16.74084706011039
	},
	{
		"latitud":-93.09878021478653,
		"longitud":16.741157851985623
	},
	{
		"latitud":-93.09949368238449,
		"longitud":16.741442958135956
	},
	{
		"latitud":-93.0997109413147,
		"longitud":16.741563678629557
	},
	{
		"latitud":-93.10042709112167,
		"longitud":16.741941250743345
	},
	{
		"latitud":-93.10160726308823,
		"longitud":16.74257567294983
	},
	{
		"latitud":-93.10266941785812,
		"longitud":16.743145880579153
	},
	{
		"latitud":-93.1033855676651,
		"longitud":16.743515744074568
	},
	{
		"latitud":-93.10423582792282,
		"longitud":16.74364416873136
	},
	{
		"latitud":-93.1065559387207,
		"longitud":16.743983209409198
	},
	{
		"latitud":-93.10761272907257,
		"longitud":16.7442246470997
	},
	{
		"latitud":-93.10831546783447,
		"longitud":16.744422420298985
	},
	{
		"latitud":-93.10966193675995,
		"longitud":16.744812829128414
	},
	{
		"latitud":-93.1104263663292,
		"longitud":16.745028581032887
	},
	{
		"latitud":-93.11151802539825,
		"longitud":16.74523919575148
	},
	{
		"latitud":-93.1117969751358,
		"longitud":16.74531624985863
	},
	{
		"latitud":-93.11276257038116,
		"longitud":16.745424125556237
	},
	{
		"latitud":-93.11374694108963,
		"longitud":16.745544843526346
	},
	{
		"latitud":-93.1151095032692,
		"longitud":16.745755457673955
	},
	{
		"latitud":-93.11585515737534,
		"longitud":16.7458607646604
	},
	{
		"latitud":-93.11573445796967,
		"longitud":16.746703218455437
	},
	{
		"latitud":-93.11556547880173,
		"longitud":16.74750200504419
	},
	{
		"latitud":-93.11541259288788,
		"longitud":16.74837270429315
	},
	{
		"latitud":-93.11526238918304,
		"longitud":16.749207441722465
	},
	{
		"latitud":-93.11453551054001,
		"longitud":16.749086726074438
	},
	{
		"latitud":-93.11458379030228,
		"longitud":16.748788789253847
	}],"final":[	{
		"latitud":-93.11458110809326,
		"longitud":16.748788789253847
	},
	{
		"latitud":-93.11468303203583,
		"longitud":16.748244282825347
	},
	{
		"latitud":-93.11484396457672,
		"longitud":16.74737871987297
	},
	{
		"latitud":-93.11496198177338,
		"longitud":16.746595343482447
	},
	{
		"latitud":-93.11511486768723,
		"longitud":16.745747752282416
	},
	{
		"latitud":-93.11427533626556,
		"longitud":16.74562189750981
	},
	{
		"latitud":-93.11374425888062,
		"longitud":16.745555117392616
	},
	{
		"latitud":-93.11275988817215,
		"longitud":16.745421557087944
	},
	{
		"latitud":-93.11182647943497,
		"longitud":16.74524176422223
	},
	{
		"latitud":-93.11153948307037,
		"longitud":16.74514929925375
	},
	{
		"latitud":-93.11045050621033,
		"longitud":16.744943821385288
	},
	{
		"latitud":-93.10967803001404,
		"longitud":16.744720363951675
	},
	{
		"latitud":-93.1083396077156,
		"longitud":16.744335091898648
	},
	{
		"latitud":-93.10762077569962,
		"longitud":16.744127044665937
	},
	{
		"latitud":-93.10752958059311,
		"longitud":16.744114202236712
	},
	{
		"latitud":-93.10667395591736,
		"longitud":16.743926702671477
	},
	{
		"latitud":-93.10657471418381,
		"longitud":16.74390101778515
	},
	{
		"latitud":-93.10433775186539,
		"longitud":16.743556839974165
	},
	{
		"latitud":-93.10425460338593,
		"longitud":16.743549134493662
	},
	{
		"latitud":-93.10344994068146,
		"longitud":16.743446394723886
	},
	{
		"latitud":-93.10291349887848,
		"longitud":16.743176702564533
	},
	{
		"latitud":-93.10291349887848,
		"longitud":16.743176702564533
	},
	{
		"latitud":-93.10269892215729,
		"longitud":16.743071394093874
	},
	{
		"latitud":-93.10165286064148,
		"longitud":16.74249604922612
	},
	{
		"latitud":-93.10045927762985,
		"longitud":16.741864195270708
	},
	{
		"latitud":-93.09959024190903,
		"longitud":16.74138901916728
	},
	{
		"latitud":-93.09908866882324,
		"longitud":16.74116812608854
	},
	{
		"latitud":-93.09848517179489,
		"longitud":16.74096521245328
	},
	{
		"latitud":-93.09780657291412,
		"longitud":16.740762298601872
	},
	{
		"latitud":-93.09679001569748,
		"longitud":16.740456643151816
	},
	{
		"latitud":-93.09544086456299,
		"longitud":16.740004580410652
	},
	{
		"latitud":-93.09448599815369,
		"longitud":16.739704060835667
	},
	{
		"latitud":-93.09330314397812,
		"longitud":16.739326484287396
	},
	{
		"latitud":-93.09231072664261,
		"longitud":16.739005415205217
	},
	{
		"latitud":-93.09172868728638,
		"longitud":16.738859007524116
	},
	{
		"latitud":-93.09124857187271,
		"longitud":16.738910378653106
	},
	{
		"latitud":-93.09137463569641,
		"longitud":16.738291355626533
	},
	{
		"latitud":-93.09151411056519,
		"longitud":16.737713427748897
	},
	{
		"latitud":-93.09161335229874,
		"longitud":16.737751956328612
	},
	{
		"latitud":-93.09161067008972,
		"longitud":16.737019911981648
	},
	{
		"latitud":-93.09161067008972,
		"longitud":16.736470234728383
	},
	{
		"latitud":-93.09159189462662,
		"longitud":16.735951379043772
	},
	{
		"latitud":-93.09158116579056,
		"longitud":16.73505493693272
	},
	{
		"latitud":-93.09154897928238,
		"longitud":16.734934212314744
	},
	{
		"latitud":-93.09069603681564,
		"longitud":16.735365738256863
	},
	{
		"latitud":-93.08977603912354,
		"longitud":16.73581010621166
	},
	{
		"latitud":-93.08848053216934,
		"longitud":16.73644968601526
	},
	{
		"latitud":-93.08790653944016,
		"longitud":16.73584606657886
	},
	{
		"latitud":-93.08708846569061,
		"longitud":16.73499329032884
	},
	{
		"latitud":-93.08649033308029,
		"longitud":16.734913663435986
	},
	{
		"latitud":-93.08547914028168,
		"longitud":16.734736429264682
	},
	{
		"latitud":-93.0844196677208,
		"longitud":16.734649096424
	},
	{
		"latitud":-93.08443039655685,
		"longitud":16.734399940746773
	},
	{
		"latitud":-93.08466374874115,
		"longitud":16.73400694195454
	},
	{
		"latitud":-93.08478444814682,
		"longitud":16.733883648048778
	},
	{
		"latitud":-93.0850499868393,
		"longitud":16.73357027567928
	},
	{
		"latitud":-93.08517068624496,
		"longitud":16.73342129519175
	},
	{
		"latitud":-93.08536380529404,
		"longitud":16.733131039769468
	},
	{
		"latitud":-93.0854281783104,
		"longitud":16.732933254847946
	},
	{
		"latitud":-93.08542549610138,
		"longitud":16.732845921180903
	},
	{
		"latitud":-93.08536916971207,
		"longitud":16.732252564912848
	},
	{
		"latitud":-93.08524578809738,
		"longitud":16.731494812880268
	},
	{
		"latitud":-93.08517336845398,
		"longitud":16.73128932028437
	},
	{
		"latitud":-93.08494538068771,
		"longitud":16.730860353776475
	},
	{
		"latitud":-93.08493465185165,
		"longitud":16.730780725156794
	},
	{
		"latitud":-93.08502316474915,
		"longitud":16.730498171721734
	},
	{
		"latitud":-93.08543086051941,
		"longitud":16.730197637153857
	},
	{
		"latitud":-93.08565616607666,
		"longitud":16.730087184159398
	},
	{
		"latitud":-93.08657616376877,
		"longitud":16.729742981394104
	},
	{
		"latitud":-93.08672100305557,
		"longitud":16.72969417647407
	},
	{
		"latitud":-93.08726280927658,
		"longitud":16.72915475284156
	},
	{
		"latitud":-93.08785557746887,
		"longitud":16.72846891201893
	},
	{
		"latitud":-93.08803260326385,
		"longitud":16.72818121775572
	},
	{
		"latitud":-93.0881130695343,
		"longitud":16.72794489714327
	},
	{
		"latitud":-93.08817744255066,
		"longitud":16.726961081010632
	}]}