{
"inicio":[	{
		"latitud":-93.07672709226608,
		"longitud":16.729334560888685
	},
	{
		"latitud":-93.07616651058197,
		"longitud":16.729599135278182
	},
	{
		"latitud":-93.07581782341003,
		"longitud":16.72983288516142
	},
	{
		"latitud":-93.07580709457397,
		"longitud":16.730135988978788
	},
	{
		"latitud":-93.075812458992,
		"longitud":16.73048789704347
	},
	{
		"latitud":-93.07578027248383,
		"longitud":16.730837235793544
	},
	{
		"latitud":-93.07567298412323,
		"longitud":16.73128932028437
	},
	{
		"latitud":-93.07568103075027,
		"longitud":16.73134326211224
	},
	{
		"latitud":-93.07571321725845,
		"longitud":16.731386929295052
	},
	{
		"latitud":-93.07603508234024,
		"longitud":16.73156159792623
	},
	{
		"latitud":-93.0762630701065,
		"longitud":16.73171571717376
	},
	{
		"latitud":-93.07605385780334,
		"longitud":16.732237153037115
	},
	{
		"latitud":-93.07586342096329,
		"longitud":16.7327174892449
	},
	{
		"latitud":-93.07575076818466,
		"longitud":16.73304627482823
	},
	{
		"latitud":-93.07576686143875,
		"longitud":16.73310535342763
	},
	{
		"latitud":-93.07585537433624,
		"longitud":16.733187549709346
	},
	{
		"latitud":-93.07589292526245,
		"longitud":16.733251765529776
	},
	{
		"latitud":-93.07610750198364,
		"longitud":16.733290295011646
	},
	{
		"latitud":-93.07651251554489,
		"longitud":16.733429001081884
	},
	{
		"latitud":-93.07701408863068,
		"longitud":16.733575412935387
	},
	{
		"latitud":-93.07792872190475,
		"longitud":16.73394272638857
	},
	{
		"latitud":-93.07887822389603,
		"longitud":16.734084000605126
	},
	{
		"latitud":-93.07909280061722,
		"longitud":16.7340994123315
	},
	{
		"latitud":-93.08017641305923,
		"longitud":16.73419958852259
	},
	{
		"latitud":-93.08105081319809,
		"longitud":16.73429462742442
	},
	{
		"latitud":-93.08165431022644,
		"longitud":16.734328019459756
	},
	{
		"latitud":-93.08194667100906,
		"longitud":16.734366548724026
	},
	{
		"latitud":-93.08189570903778,
		"longitud":16.73482889928766
	},
	{
		"latitud":-93.08184206485748,
		"longitud":16.735314366172144
	},
	{
		"latitud":-93.081756234169,
		"longitud":16.73614659223941
	},
	{
		"latitud":-93.08164894580841,
		"longitud":16.737068715025625
	},
	{
		"latitud":-93.08163285255432,
		"longitud":16.737551607629005
	},
	{
		"latitud":-93.08157116174698,
		"longitud":16.738008813327614
	},
	{
		"latitud":-93.08152288198471,
		"longitud":16.738317041269287
	},
	{
		"latitud":-93.08151751756668,
		"longitud":16.73845831224258
	},
	{
		"latitud":-93.0817911028862,
		"longitud":16.73966553265075
	},
	{
		"latitud":-93.08190375566483,
		"longitud":16.73974002046789
	},
	{
		"latitud":-93.08326631784439,
		"longitud":16.73907219761889
	},
	{
		"latitud":-93.08469325304031,
		"longitud":16.738388961050603
	},
	{
		"latitud":-93.08492660522461,
		"longitud":16.73828108136846
	},
	{
		"latitud":-93.08480590581894,
		"longitud":16.738776813688922
	},
	{
		"latitud":-93.08458060026169,
		"longitud":16.73968094392565
	},
	{
		"latitud":-93.08444648981094,
		"longitud":16.740364175860226
	},
	{
		"latitud":-93.08427482843399,
		"longitud":16.741234907744005
	},
	{
		"latitud":-93.08418363332748,
		"longitud":16.741776865697368
	},
	{
		"latitud":-93.08402270078659,
		"longitud":16.742544850867176
	},
	{
		"latitud":-93.0843847990036,
		"longitud":16.74260906353374
	},
	{
		"latitud":-93.08453500270844,
		"longitud":16.742624474570484
	},
	{
		"latitud":-93.08465301990509,
		"longitud":16.742621906064457
	},
	{
		"latitud":-93.08490246534348,
		"longitud":16.742516597287025
	},
	{
		"latitud":-93.08565616607666,
		"longitud":16.742123615237745
	},
	{
		"latitud":-93.08660835027695,
		"longitud":16.7416278916269
	},
	{
		"latitud":-93.08766514062881,
		"longitud":16.740990897735525
	},
	{
		"latitud":-93.08777511119843,
		"longitud":16.74094723275366
	},
	{
		"latitud":-93.08868169784546,
		"longitud":16.74039756683181
	},
	{
		"latitud":-93.0893924832344,
		"longitud":16.74000714895198
	},
	{
		"latitud":-93.09043318033218,
		"longitud":16.739408677885436
	},
	{
		"latitud":-93.09123784303665,
		"longitud":16.739007983760022
	},
	{
		"latitud":-93.09170991182327,
		"longitud":16.738956612657358
	},
	{
		"latitud":-93.09228926897049,
		"longitud":16.73909788315637
	},
	{
		"latitud":-93.09330582618713,
		"longitud":16.7394112464348
	},
	{
		"latitud":-93.0943974852562,
		"longitud":16.73977854863776
	},
	{
		"latitud":-93.09543013572693,
		"longitud":16.740097047876805
	},
	{
		"latitud":-93.09677124023438,
		"longitud":16.74053626772807
	},
	{
		"latitud":-93.09777975082397,
		"longitud":16.740854765700202
	},
	{
		"latitud":-93.09903770685196,
		"longitud":16.741245181842782
	},
	{
		"latitud":-93.09954732656479,
		"longitud":16.74146607483214
	},
	{
		"latitud":-93.09972167015076,
		"longitud":16.74156881567015
	},
	{
		"latitud":-93.10041099786758,
		"longitud":16.741941250743345
	},
	{
		"latitud":-93.10160994529724,
		"longitud":16.742588515482794
	},
	{
		"latitud":-93.10249775648117,
		"longitud":16.74305598309329
	},
	{
		"latitud":-93.10339897871017,
		"longitud":16.743528586544137
	},
	{
		"latitud":-93.10434579849243,
		"longitud":16.743649305715824
	},
	{
		"latitud":-93.10655057430267,
		"longitud":16.743985777896878
	},
	{
		"latitud":-93.10665786266327,
		"longitud":16.744003757309667
	},
	{
		"latitud":-93.10762614011765,
		"longitud":16.74421694164622
	},
	{
		"latitud":-93.1095278263092,
		"longitud":16.74477173349985
	},
	{
		"latitud":-93.11043977737427,
		"longitud":16.745031149506474
	},
	{
		"latitud":-93.11151266098022,
		"longitud":16.745236627280704
	},
	{
		"latitud":-93.11180502176285,
		"longitud":16.74531624985863
	},
	{
		"latitud":-93.11276257038116,
		"longitud":16.745429262492685
	},
	{
		"latitud":-93.11374962329865,
		"longitud":16.745547411992963
	},
	{
		"latitud":-93.11429411172867,
		"longitud":16.745619329044203
	},
	{
		"latitud":-93.11586052179337,
		"longitud":16.74586590158508
	},
	{
		"latitud":-93.11751812696457,
		"longitud":16.746130453018683
	},
	{
		"latitud":-93.11735987663269,
		"longitud":16.74698574785699
	},
	{
		"latitud":-93.11722576618195,
		"longitud":16.747792238569588
	},
	{
		"latitud":-93.1170728802681,
		"longitud":16.748596157440648
	},
	{
		"latitud":-93.11691999435425,
		"longitud":16.749441167546816
	}],"final":[	{
		"latitud":-93.11694279313087,
		"longitud":16.74944630437491
	},
	{
		"latitud":-93.11612203717232,
		"longitud":16.749333294125073
	},
	{
		"latitud":-93.1152731180191,
		"longitud":16.749238262726706
	},
	{
		"latitud":-93.11450332403183,
		"longitud":16.749130389190007
	},
	{
		"latitud":-93.11382070183754,
		"longitud":16.749031505060987
	},
	{
		"latitud":-93.11367452144623,
		"longitud":16.749013526122933
	},
	{
		"latitud":-93.11250776052475,
		"longitud":16.748846578759817
	},
	{
		"latitud":-93.11196729540825,
		"longitud":16.74879649452232
	},
	{
		"latitud":-93.1115984916687,
		"longitud":16.748772094504425
	},
	{
		"latitud":-93.11093330383301,
		"longitud":16.74865779964208
	},
	{
		"latitud":-93.10993954539299,
		"longitud":16.74852680994017
	},
	{
		"latitud":-93.10975849628448,
		"longitud":16.748511399381083
	},
	{
		"latitud":-93.10954123735428,
		"longitud":16.74858588373847
	},
	{
		"latitud":-93.10938969254494,
		"longitud":16.748769526081308
	},
	{
		"latitud":-93.1092569231987,
		"longitud":16.749183041757224
	},
	{
		"latitud":-93.10897663235664,
		"longitud":16.749117547098223
	},
	{
		"latitud":-93.10737669467926,
		"longitud":16.7489223471966
	},
	{
		"latitud":-93.1057807803154,
		"longitud":16.74870403128006
	},
	{
		"latitud":-93.10456037521362,
		"longitud":16.74852937836657
	},
	{
		"latitud":-93.10353174805641,
		"longitud":16.748358577935942
	},
	{
		"latitud":-93.10359209775925,
		"longitud":16.747894975994686
	},
	{
		"latitud":-93.10368329286575,
		"longitud":16.747550805402405
	},
	{
		"latitud":-93.10371816158295,
		"longitud":16.747293961271467
	},
	{
		"latitud":-93.10383349657059,
		"longitud":16.74671349225921
	},
	{
		"latitud":-93.10391664505005,
		"longitud":16.746103484200034
	},
	{
		"latitud":-93.10404807329178,
		"longitud":16.745267448927713
	},
	{
		"latitud":-93.10419291257858,
		"longitud":16.744540570423922
	},
	{
		"latitud":-93.10433506965637,
		"longitud":16.743556839974165
	},
	{
		"latitud":-93.10345262289047,
		"longitud":16.743451531713692
	},
	{
		"latitud":-93.10272172093391,
		"longitud":16.74308423659342
	},
	{
		"latitud":-93.10165017843246,
		"longitud":16.742501186241544
	},
	{
		"latitud":-93.10060277581215,
		"longitud":16.741938682228096
	},
	{
		"latitud":-93.10045123100281,
		"longitud":16.741864195270708
	},
	{
		"latitud":-93.0996023118496,
		"longitud":16.741399293257725
	},
	{
		"latitud":-93.09908866882324,
		"longitud":16.741171978877
	},
	{
		"latitud":-93.09846639633179,
		"longitud":16.74096521245328
	},
	{
		"latitud":-93.09780657291412,
		"longitud":16.740762298601872
	},
	{
		"latitud":-93.096794039011,
		"longitud":16.740459211687057
	},
	{
		"latitud":-93.09543415904045,
		"longitud":16.740000727598602
	},
	{
		"latitud":-93.09403002262115,
		"longitud":16.739567927880717
	},
	{
		"latitud":-93.09293702244759,
		"longitud":16.739213468032204
	},
	{
		"latitud":-93.09231072664261,
		"longitud":16.739010552314802
	},
	{
		"latitud":-93.09171929955482,
		"longitud":16.73886157608092
	},
	{
		"latitud":-93.09124857187271,
		"longitud":16.738912947209194
	},
	{
		"latitud":-93.0903822183609,
		"longitud":16.739332905663538
	},
	{
		"latitud":-93.08954536914825,
		"longitud":16.73980423408001
	},
	{
		"latitud":-93.08890163898468,
		"longitud":16.740150987211333
	},
	{
		"latitud":-93.08862805366516,
		"longitud":16.74029996243688
	},
	{
		"latitud":-93.08790653944016,
		"longitud":16.740762298601872
	},
	{
		"latitud":-93.0870857834816,
		"longitud":16.741216928069854
	},
	{
		"latitud":-93.08551400899887,
		"longitud":16.742087656055478
	},
	{
		"latitud":-93.08485686779022,
		"longitud":16.742454953097646
	},
	{
		"latitud":-93.08468788862228,
		"longitud":16.74252173430192
	},
	{
		"latitud":-93.08458596467972,
		"longitud":16.7425409981065
	},
	{
		"latitud":-93.08441296219826,
		"longitud":16.742440826301408
	},
	{
		"latitud":-93.0843298137188,
		"longitud":16.74236248677611
	},
	{
		"latitud":-93.08427482843399,
		"longitud":16.742266167643454
	},
	{
		"latitud":-93.08423459529877,
		"longitud":16.742128752263223
	},
	{
		"latitud":-93.08434724807739,
		"longitud":16.741530287862396
	},
	{
		"latitud":-93.08457657694817,
		"longitud":16.74039628256379
	},
	{
		"latitud":-93.08473750948906,
		"longitud":16.739725893470336
	},
	{
		"latitud":-93.08483943343163,
		"longitud":16.739391982313702
	},
	{
		"latitud":-93.08511435985565,
		"longitud":16.738490419267357
	},
	{
		"latitud":-93.08520019054413,
		"longitud":16.738089723210567
	},
	{
		"latitud":-93.08520153164864,
		"longitud":16.737930471979617
	},
	{
		"latitud":-93.0851948261261,
		"longitud":16.73773654489766
	},
	{
		"latitud":-93.08524310588837,
		"longitud":16.737429600304864
	},
	{
		"latitud":-93.08527931571007,
		"longitud":16.736945423100966
	},
	{
		"latitud":-93.08352380990982,
		"longitud":16.736756632186715
	},
	{
		"latitud":-93.08270037174225,
		"longitud":16.736674437444513
	},
	{
		"latitud":-93.08180317282677,
		"longitud":16.73658582119835
	},
	{
		"latitud":-93.08185681700706,
		"longitud":16.736144023646034
	},
	{
		"latitud":-93.08190643787384,
		"longitud":16.73573304825909
	},
	{
		"latitud":-93.08195069432259,
		"longitud":16.735309228962905
	},
	{
		"latitud":-93.08199763298035,
		"longitud":16.73482633067652
	},
	{
		"latitud":-93.08208078145981,
		"longitud":16.734378107501794
	},
	{
		"latitud":-93.08164894580841,
		"longitud":16.734330588077615
	},
	{
		"latitud":-93.08126538991928,
		"longitud":16.734289490187713
	},
	{
		"latitud":-93.08109506964684,
		"longitud":16.734272794167378
	},
	{
		"latitud":-93.08060690760612,
		"longitud":16.734226559026588
	},
	{
		"latitud":-93.08016568422318,
		"longitud":16.73419958852259
	},
	{
		"latitud":-93.07902306318283,
		"longitud":16.734091706468465
	},
	{
		"latitud":-93.07856172323227,
		"longitud":16.734026206620097
	},
	{
		"latitud":-93.07855904102325,
		"longitud":16.73352147173929
	},
	{
		"latitud":-93.07856306433678,
		"longitud":16.733015451203883
	},
	{
		"latitud":-93.07859390974045,
		"longitud":16.732526125499703
	},
	{
		"latitud":-93.0786207318306,
		"longitud":16.731727276112295
	},
	{
		"latitud":-93.07869717478752,
		"longitud":16.731624529967366
	},
	{
		"latitud":-93.0784584581852,
		"longitud":16.731192995553776
	},
	{
		"latitud":-93.07815536856651,
		"longitud":16.730767881828015
	},
	{
		"latitud":-93.0786395072937,
		"longitud":16.73047633803004
	},
	{
		"latitud":-93.0786743760109,
		"longitud":16.730039663665625
	},
	{
		"latitud":-93.07871460914612,
		"longitud":16.729577301483502
	},
	{
		"latitud":-93.07873338460922,
		"longitud":16.72873220326351
	},
	{
		"latitud":-93.07826936244965,
		"longitud":16.728714222409604
	},
	{
		"latitud":-93.07777047157288,
		"longitud":16.728701378941505
	},
	{
		"latitud":-93.07728499174118,
		"longitud":16.72864486767156
	},
	{
		"latitud":-93.07731181383133,
		"longitud":16.729248509916125
	},
	{
		"latitud":-93.07728230953217,
		"longitud":16.729412905770708
	},
	{
		"latitud":-93.0768209695816,
		"longitud":16.72933841391667
	},
	{
		"latitud":-93.07675123214722,
		"longitud":16.72937437550502
	},
	{
		"latitud":-93.07675123214722,
		"longitud":16.72937437550502
	}]}