{
"inicio":[	{
		"latitud":-93.09127807617188,
		"longitud":16.79356397163292
	},
	{
		"latitud":-93.09160262346268,
		"longitud":16.79361789580437
	},
	{
		"latitud":-93.09226781129837,
		"longitud":16.793687226859458
	},
	{
		"latitud":-93.09345602989197,
		"longitud":16.793802778561663
	},
	{
		"latitud":-93.0935150384903,
		"longitud":16.79333030004626
	},
	{
		"latitud":-93.0941641330719,
		"longitud":16.793394495565757
	},
	{
		"latitud":-93.09426605701447,
		"longitud":16.792896337765175
	},
	{
		"latitud":-93.09434652328491,
		"longitud":16.792411017826172
	},
	{
		"latitud":-93.09437334537506,
		"longitud":16.79209003834897
	},
	{
		"latitud":-93.09534162282944,
		"longitud":16.792213294532388
	},
	{
		"latitud":-93.09536039829254,
		"longitud":16.792118284564737
	},
	{
		"latitud":-93.09537380933762,
		"longitud":16.791630394792744
	},
	{
		"latitud":-93.09543818235397,
		"longitud":16.79117588582457
	},
	{
		"latitud":-93.09647351503372,
		"longitud":16.79130684614732
	},
	{
		"latitud":-93.0983054637909,
		"longitud":16.791468620538943
	},
	{
		"latitud":-93.09842079877853,
		"longitud":16.79147632407796
	},
	{
		"latitud":-93.09851467609406,
		"longitud":16.791016679036055
	},
	{
		"latitud":-93.09861928224564,
		"longitud":16.790559600740185
	},
	{
		"latitud":-93.09872388839722,
		"longitud":16.790084546289147
	},
	{
		"latitud":-93.09878557920456,
		"longitud":16.78971734122344
	},
	{
		"latitud":-93.0989196896553,
		"longitud":16.78928593856079
	},
	{
		"latitud":-93.0990993976593,
		"longitud":16.788921299831674
	},
	{
		"latitud":-93.09923082590103,
		"longitud":16.78871073348611
	},
	{
		"latitud":-93.09946686029434,
		"longitud":16.788538685201175
	},
	{
		"latitud":-93.09986114501953,
		"longitud":16.788407722969364
	},
	{
		"latitud":-93.10047000646591,
		"longitud":16.788261353309277
	},
	{
		"latitud":-93.10079723596573,
		"longitud":16.788215131287917
	},
	{
		"latitud":-93.10108691453934,
		"longitud":16.788150934017374
	},
	{
		"latitud":-93.10142487287521,
		"longitud":16.78810727986101
	},
	{
		"latitud":-93.10160726308823,
		"longitud":16.788063625694594
	},
	{
		"latitud":-93.10193717479706,
		"longitud":16.787922391558073
	},
	{
		"latitud":-93.10220807790756,
		"longitud":16.78775804624883
	},
	{
		"latitud":-93.10251921415329,
		"longitud":16.7875474786135
	},
	{
		"latitud":-93.10284912586212,
		"longitud":16.787303528012377
	},
	{
		"latitud":-93.10308516025543,
		"longitud":16.7866923661832
	},
	{
		"latitud":-93.10335874557495,
		"longitud":16.786081202387432
	},
	{
		"latitud":-93.10371547937393,
		"longitud":16.78541097428338
	},
	{
		"latitud":-93.10392737388611,
		"longitud":16.785043760181413
	},
	{
		"latitud":-93.10400515794754,
		"longitud":16.784848597153005
	},
	{
		"latitud":-93.10404002666473,
		"longitud":16.784494221667774
	},
	{
		"latitud":-93.10395956039429,
		"longitud":16.784006312309288
	},
	{
		"latitud":-93.10393273830414,
		"longitud":16.78360314415696
	},
	{
		"latitud":-93.10394078493118,
		"longitud":16.78348245033984
	},
	{
		"latitud":-93.10401856899261,
		"longitud":16.783225654729144
	},
	{
		"latitud":-93.10414731502533,
		"longitud":16.782940611194785
	},
	{
		"latitud":-93.10463547706604,
		"longitud":16.782000734889316
	},
	{
		"latitud":-93.10494124889374,
		"longitud":16.78132535642177
	},
	{
		"latitud":-93.10505121946335,
		"longitud":16.781232908992248
	},
	{
		"latitud":-93.10556620359421,
		"longitud":16.780144080326636
	},
	{
		"latitud":-93.10583978891373,
		"longitud":16.779538031479596
	},
	{
		"latitud":-93.10591489076614,
		"longitud":16.779319750701045
	},
	{
		"latitud":-93.10593098402023,
		"longitud":16.77910146967174
	},
	{
		"latitud":-93.10582906007767,
		"longitud":16.778783035720476
	},
	{
		"latitud":-93.10561180114746,
		"longitud":16.77848771343392
	},
	{
		"latitud":-93.10543477535248,
		"longitud":16.778382424507733
	},
	{
		"latitud":-93.10515850782394,
		"longitud":16.778310519841686
	},
	{
		"latitud":-93.10463279485703,
		"longitud":16.778233479097878
	},
	{
		"latitud":-93.104088306427,
		"longitud":16.778120485950456
	},
	{
		"latitud":-93.10295641422272,
		"longitud":16.777948428074204
	},
	{
		"latitud":-93.10274988412857,
		"longitud":16.777907339603107
	},
	{
		"latitud":-93.10221880674362,
		"longitud":16.777740417597904
	},
	{
		"latitud":-93.10140609741211,
		"longitud":16.777201130117536
	},
	{
		"latitud":-93.10127198696136,
		"longitud":16.777054751823094
	},
	{
		"latitud":-93.10122102499008,
		"longitud":16.776949462102976
	},
	{
		"latitud":-93.1012424826622,
		"longitud":16.77677740316653
	},
	{
		"latitud":-93.10129344463348,
		"longitud":16.776610480168866
	},
	{
		"latitud":-93.10160726308823,
		"longitud":16.7759325144868
	},
	{
		"latitud":-93.10212761163712,
		"longitud":16.77487190423177
	},
	{
		"latitud":-93.10220539569855,
		"longitud":16.774746068724028
	},
	{
		"latitud":-93.1023958325386,
		"longitud":16.774327472455926
	},
	{
		"latitud":-93.10256749391556,
		"longitud":16.773780471035234
	},
	{
		"latitud":-93.10273379087448,
		"longitud":16.77312047192051
	},
	{
		"latitud":-93.10288935899734,
		"longitud":16.772473311030446
	},
	{
		"latitud":-93.10302883386612,
		"longitud":16.771569336575414
	},
	{
		"latitud":-93.10308247804642,
		"longitud":16.77110450712829
	},
	{
		"latitud":-93.10313075780869,
		"longitud":16.77051897449455
	},
	{
		"latitud":-93.10321122407913,
		"longitud":16.769977098389184
	},
	{
		"latitud":-93.10355454683304,
		"longitud":16.769114202446055
	},
	{
		"latitud":-93.10373425483704,
		"longitud":16.76874952500718
	},
	{
		"latitud":-93.1040507555008,
		"longitud":16.76802787252094
	},
	{
		"latitud":-93.10427874326706,
		"longitud":16.76719321765334
	},
	{
		"latitud":-93.10457110404968,
		"longitud":16.76610174037583
	},
	{
		"latitud":-93.10461670160294,
		"longitud":16.765814102968
	},
	{
		"latitud":-93.10467302799225,
		"longitud":16.76523112224454
	},
	{
		"latitud":-93.10471326112747,
		"longitud":16.764178156937913
	},
	{
		"latitud":-93.10477763414383,
		"longitud":16.763017320136985
	},
	{
		"latitud":-93.10481250286102,
		"longitud":16.76245487674983
	},
	{
		"latitud":-93.10493588447571,
		"longitud":16.761312007210275
	},
	{
		"latitud":-93.104989528656,
		"longitud":16.761206708772423
	},
	{
		"latitud":-93.10486078262329,
		"longitud":16.761165616683297
	},
	{
		"latitud":-93.10318171977997,
		"longitud":16.760798355742626
	},
	{
		"latitud":-93.1021437048912,
		"longitud":16.76053125643137
	},
	{
		"latitud":-93.10196131467819,
		"longitud":16.76043109409297
	},
	{
		"latitud":-93.10168772935867,
		"longitud":16.759835255502846
	},
	{
		"latitud":-93.10161262750626,
		"longitud":16.75961438382725
	},
	{
		"latitud":-93.10163140296936,
		"longitud":16.75905449866361
	},
	{
		"latitud":-93.1020525097847,
		"longitud":16.758908106399563
	},
	{
		"latitud":-93.10379058122635,
		"longitud":16.758484338684493
	},
	{
		"latitud":-93.10418218374252,
		"longitud":16.758504885019736
	},
	{
		"latitud":-93.10458451509476,
		"longitud":16.758635867854657
	},
	{
		"latitud":-93.1048634648323,
		"longitud":16.758851604092087
	},
	{
		"latitud":-93.10503244400024,
		"longitud":16.75895433554774
	},
	{
		"latitud":-93.10522556304932,
		"longitud":16.75905706694794
	},
	{
		"latitud":-93.10537308454514,
		"longitud":16.759044225525944
	},
	{
		"latitud":-93.10550451278687,
		"longitud":16.759013406109638
	},
	{
		"latitud":-93.10561716556549,
		"longitud":16.758951767262026
	},
	{
		"latitud":-93.10572981834412,
		"longitud":16.758810511494286
	},
	{
		"latitud":-93.10577273368835,
		"longitud":16.758620458114045
	},
	{
		"latitud":-93.10585588216782,
		"longitud":16.758278875210188
	},
	{
		"latitud":-93.10605973005295,
		"longitud":16.75717193692488
	},
	{
		"latitud":-93.10624748468399,
		"longitud":16.756139473601856
	},
	{
		"latitud":-93.1063386797905,
		"longitud":16.755648923144566
	},
	{
		"latitud":-93.10645133256912,
		"longitud":16.754801372254374
	},
	{
		"latitud":-93.10645937919617,
		"longitud":16.75470377524286
	},
	{
		"latitud":-93.1066632270813,
		"longitud":16.753666161815307
	},
	{
		"latitud":-93.10681343078613,
		"longitud":16.752741551024545
	},
	{
		"latitud":-93.10691267251968,
		"longitud":16.752225308045738
	},
	{
		"latitud":-93.10692608356476,
		"longitud":16.752130278091073
	},
	{
		"latitud":-93.10689926147461,
		"longitud":16.752035248088983
	},
	{
		"latitud":-93.1070414185524,
		"longitud":16.75117997593516
	},
	{
		"latitud":-93.10704946517944,
		"longitud":16.751077240282786
	},
	{
		"latitud":-93.10715675354004,
		"longitud":16.7504608252042
	},
	{
		"latitud":-93.10725063085556,
		"longitud":16.74997026011119
	},
	{
		"latitud":-93.10726672410965,
		"longitud":16.749767355854996
	},
	{
		"latitud":-93.10739010572433,
		"longitud":16.7489223471966
	},
	{
		"latitud":-93.10838520526886,
		"longitud":16.749055905045655
	},
	{
		"latitud":-93.10897797346115,
		"longitud":16.74913552602647
	},
	{
		"latitud":-93.10927838087082,
		"longitud":16.749222852225216
	},
	{
		"latitud":-93.10994625091553,
		"longitud":16.74930504155214
	},
	{
		"latitud":-93.11081796884537,
		"longitud":16.74939493608785
	},
	{
		"latitud":-93.1118854880333,
		"longitud":16.74953106201824
	},
	{
		"latitud":-93.11290204524994,
		"longitud":16.749685166727655
	},
	{
		"latitud":-93.11354845762253,
		"longitud":16.74975708221602
	},
	{
		"latitud":-93.11441481113434,
		"longitud":16.749864955397634
	}],"final":[	{
		"latitud":-93.11441481113434,
		"longitud":16.74984954494685
	},
	{
		"latitud":-93.114532828331,
		"longitud":16.749094431330853
	},
	{
		"latitud":-93.11373889446259,
		"longitud":16.74897628403153
	},
	{
		"latitud":-93.11360210180283,
		"longitud":16.748991694553
	},
	{
		"latitud":-93.11252385377884,
		"longitud":16.74880933663576
	},
	{
		"latitud":-93.1119766831398,
		"longitud":16.74875283133018
	},
	{
		"latitud":-93.11160385608673,
		"longitud":16.748747694483384
	},
	{
		"latitud":-93.1104451417923,
		"longitud":16.74859358901515
	},
	{
		"latitud":-93.1099221110344,
		"longitud":16.748524241513756
	},
	{
		"latitud":-93.10975313186646,
		"longitud":16.748519104660794
	},
	{
		"latitud":-93.10955733060837,
		"longitud":16.748603862716905
	},
	{
		"latitud":-93.10940712690353,
		"longitud":16.748793926099548
	},
	{
		"latitud":-93.1092756986618,
		"longitud":16.749222852225216
	},
	{
		"latitud":-93.10900211334229,
		"longitud":16.749143231280915
	},
	{
		"latitud":-93.1083744764328,
		"longitud":16.749045631368286
	},
	{
		"latitud":-93.10739010572433,
		"longitud":16.7489223471966
	},
	{
		"latitud":-93.10726404190063,
		"longitud":16.74975708221602
	},
	{
		"latitud":-93.10724794864655,
		"longitud":16.74998053373866
	},
	{
		"latitud":-93.10715407133102,
		"longitud":16.750463393604505
	},
	{
		"latitud":-93.10703605413437,
		"longitud":16.75108237706672
	},
	{
		"latitud":-93.10701727867126,
		"longitud":16.75125702763805
	},
	{
		"latitud":-93.10689926147461,
		"longitud":16.75204552160501
	},
	{
		"latitud":-93.10684025287628,
		"longitud":16.752125141335423
	},
	{
		"latitud":-93.1067168712616,
		"longitud":16.75272870917638
	},
	{
		"latitud":-93.10657203197479,
		"longitud":16.753640478242875
	},
	{
		"latitud":-93.10636818408966,
		"longitud":16.754690933527094
	},
	{
		"latitud":-93.10624480247498,
		"longitud":16.755641218153475
	},
	{
		"latitud":-93.10605436563492,
		"longitud":16.756660842596972
	},
	{
		"latitud":-93.10588270425797,
		"longitud":16.75760598077869
	},
	{
		"latitud":-93.10577005147934,
		"longitud":16.758266033735673
	},
	{
		"latitud":-93.10578346252441,
		"longitud":16.758548545974726
	},
	{
		"latitud":-93.10576736927032,
		"longitud":16.758646141014374
	},
	{
		"latitud":-93.10572981834412,
		"longitud":16.7588156480695
	},
	{
		"latitud":-93.10563057661057,
		"longitud":16.758946630690488
	},
	{
		"latitud":-93.1055098772049,
		"longitud":16.75902111096418
	},
	{
		"latitud":-93.10537040233612,
		"longitud":16.759041657241447
	},
	{
		"latitud":-93.10523629188538,
		"longitud":16.75905706694794
	},
	{
		"latitud":-93.10502976179123,
		"longitud":16.75895433554774
	},
	{
		"latitud":-93.10483664274216,
		"longitud":16.758838762656225
	},
	{
		"latitud":-93.10460597276688,
		"longitud":16.75863843614464
	},
	{
		"latitud":-93.1041955947876,
		"longitud":16.75850745331147
	},
	{
		"latitud":-93.10379058122635,
		"longitud":16.7584946118524
	},
	{
		"latitud":-93.10204982757568,
		"longitud":16.758910674685865
	},
	{
		"latitud":-93.1015482544899,
		"longitud":16.759082749789314
	},
	{
		"latitud":-93.10152679681778,
		"longitud":16.759182912837574
	},
	{
		"latitud":-93.1015294790268,
		"longitud":16.759760775547857
	},
	{
		"latitud":-93.1018540263176,
		"longitud":16.760482459401302
	},
	{
		"latitud":-93.1019639968872,
		"longitud":16.760608304348104
	},
	{
		"latitud":-93.10208201408386,
		"longitud":16.7606596696086
	},
	{
		"latitud":-93.10305029153824,
		"longitud":16.760883108330333
	},
	{
		"latitud":-93.10482323169708,
		"longitud":16.761268346889448
	},
	{
		"latitud":-93.10469180345535,
		"longitud":16.762457444988257
	},
	{
		"latitud":-93.1046462059021,
		"longitud":16.763245892545097
	},
	{
		"latitud":-93.10460060834885,
		"longitud":16.764247498734967
	},
	{
		"latitud":-93.10456037521362,
		"longitud":16.765310736457504
	},
	{
		"latitud":-93.10450941324234,
		"longitud":16.765798693808872
	},
	{
		"latitud":-93.10445576906204,
		"longitud":16.766099172186625
	},
	{
		"latitud":-93.10420095920563,
		"longitud":16.767031422593572
	},
	{
		"latitud":-93.10398638248444,
		"longitud":16.767824987520914
	},
	{
		"latitud":-93.10367792844772,
		"longitud":16.768585163115933
	},
	{
		"latitud":-93.10324609279633,
		"longitud":16.76951483319238
	},
	{
		"latitud":-93.10320049524307,
		"longitud":16.76962012703049
	},
	{
		"latitud":-93.10308784246445,
		"longitud":16.77000021161953
	},
	{
		"latitud":-93.10307174921036,
		"longitud":16.77012091399898
	},
	{
		"latitud":-93.10303419828415,
		"longitud":16.770403408630084
	},
	{
		"latitud":-93.10302078723907,
		"longitud":16.77051127010578
	},
	{
		"latitud":-93.10299664735794,
		"longitud":16.770647380928253
	},
	{
		"latitud":-93.1029725074768,
		"longitud":16.771125052100228
	},
	{
		"latitud":-93.10284376144409,
		"longitud":16.772121480574498
	},
	{
		"latitud":-93.10280352830887,
		"longitud":16.77241424464902
	},
	{
		"latitud":-93.10253530740738,
		"longitud":16.773485140975353
	},
	{
		"latitud":-93.10238778591156,
		"longitud":16.774109185692755
	},
	{
		"latitud":-93.1023234128952,
		"longitud":16.774294087437795
	},
	{
		"latitud":-93.10208737850189,
		"longitud":16.774720387997927
	},
	{
		"latitud":-93.10175478458405,
		"longitud":16.775364973173655
	},
	{
		"latitud":-93.10139000415802,
		"longitud":16.776168775529342
	},
	{
		"latitud":-93.10124784708023,
		"longitud":16.776494918007675
	},
	{
		"latitud":-93.10113787651062,
		"longitud":16.77684674036861
	},
	{
		"latitud":-93.10112714767456,
		"longitud":16.77693148580347
	},
	{
		"latitud":-93.1011700630188,
		"longitud":16.7770470476992
	},
	{
		"latitud":-93.10128003358841,
		"longitud":16.777203698156786
	},
	{
		"latitud":-93.10190498828888,
		"longitud":16.777691624984076
	},
	{
		"latitud":-93.10220271348953,
		"longitud":16.77785854703214
	},
	{
		"latitud":-93.1027203798294,
		"longitud":16.777992084565017
	},
	{
		"latitud":-93.10391396284103,
		"longitud":16.778207798843006
	},
	{
		"latitud":-93.10491174459457,
		"longitud":16.778382424507733
	},
	{
		"latitud":-93.1051155924797,
		"longitud":16.778418376830558
	},
	{
		"latitud":-93.1053838133812,
		"longitud":16.77849028145579
	},
	{
		"latitud":-93.10552597045898,
		"longitud":16.778590434281305
	},
	{
		"latitud":-93.10560375452042,
		"longitud":16.77866490686093
	},
	{
		"latitud":-93.10570567846298,
		"longitud":16.77878817175619
	},
	{
		"latitud":-93.10579687356949,
		"longitud":16.779024429248597
	},
	{
		"latitud":-93.10580760240555,
		"longitud":16.779286366559855
	},
	{
		"latitud":-93.1057620048523,
		"longitud":16.77947896729367
	},
	{
		"latitud":-93.1056359410286,
		"longitud":16.779730631958316
	},
	{
		"latitud":-93.1054562330246,
		"longitud":16.780149216325558
	},
	{
		"latitud":-93.1052228808403,
		"longitud":16.780580639739075
	},
	{
		"latitud":-93.10503780841827,
		"longitud":16.781001790221673
	},
	{
		"latitud":-93.10495734214783,
		"longitud":16.781217501082956
	},
	{
		"latitud":-93.10494661331177,
		"longitud":16.781320220454642
	},
	{
		"latitud":-93.10470253229141,
		"longitud":16.78184922433931
	},
	{
		"latitud":-93.10435384511948,
		"longitud":16.782537440780775
	},
	{
		"latitud":-93.10414731502533,
		"longitud":16.782953451002815
	},
	{
		"latitud":-93.1040158867836,
		"longitud":16.783238494517924
	},
	{
		"latitud":-93.10394614934921,
		"longitud":16.78348245033984
	},
	{
		"latitud":-93.10395151376724,
		"longitud":16.78388048285041
	},
	{
		"latitud":-93.1039622426033,
		"longitud":16.78401658409817
	},
	{
		"latitud":-93.10404002666473,
		"longitud":16.784494221667774
	},
	{
		"latitud":-93.10400515794754,
		"longitud":16.7848511650889
	},
	{
		"latitud":-93.10393542051315,
		"longitud":16.78504119224814
	},
	{
		"latitud":-93.10372620820999,
		"longitud":16.785400702569902
	},
	{
		"latitud":-93.1034767627716,
		"longitud":16.785857793282183
	},
	{
		"latitud":-93.10333997011185,
		"longitud":16.78612742492811
	},
	{
		"latitud":-93.10309588909149,
		"longitud":16.786646143779983
	},
	{
		"latitud":-93.1028464436531,
		"longitud":16.787313799622957
	},
	{
		"latitud":-93.1019452214241,
		"longitud":16.7879275273467
	},
	{
		"latitud":-93.1016206741333,
		"longitud":16.78805848990966
	},
	{
		"latitud":-93.10139000415802,
		"longitud":16.788125255103083
	},
	{
		"latitud":-93.10107618570328,
		"longitud":16.788153501908614
	},
	{
		"latitud":-93.1007570028305,
		"longitud":16.78822797073942
	},
	{
		"latitud":-93.10050755739212,
		"longitud":16.788261353309277
	},
	{
		"latitud":-93.0998557806015,
		"longitud":16.78841285874486
	},
	{
		"latitud":-93.09947222471237,
		"longitud":16.78855409251663
	},
	{
		"latitud":-93.09922009706497,
		"longitud":16.788721005020587
	},
	{
		"latitud":-93.09908866882324,
		"longitud":16.7889392749967
	},
	{
		"latitud":-93.0989196896553,
		"longitud":16.78929621006415
	},
	{
		"latitud":-93.09879094362259,
		"longitud":16.789714773353346
	},
	{
		"latitud":-93.09871852397919,
		"longitud":16.79009481774931
	},
	{
		"latitud":-93.09861928224564,
		"longitud":16.79056473645749
	},
	{
		"latitud":-93.09842348098755,
		"longitud":16.791481459770466
	},
	{
		"latitud":-93.09831351041794,
		"longitud":16.79193083232696
	},
	{
		"latitud":-93.09828400611877,
		"longitud":16.792108013214033
	},
	{
		"latitud":-93.09814989566803,
		"longitud":16.792213294532388
	},
	{
		"latitud":-93.09806406497955,
		"longitud":16.792269786923057
	},
	{
		"latitud":-93.09629648923874,
		"longitud":16.792398178657496
	},
	{
		"latitud":-93.09616506099701,
		"longitud":16.792277490429566
	},
	{
		"latitud":-93.09599608182907,
		"longitud":16.792200455350354
	},
	{
		"latitud":-93.09536308050156,
		"longitud":16.792120852402327
	},
	{
		"latitud":-93.09533625841141,
		"longitud":16.792213294532388
	},
	{
		"latitud":-93.09437334537506,
		"longitud":16.792095174024876
	},
	{
		"latitud":-93.09434920549393,
		"longitud":16.7924084499925
	},
	{
		"latitud":-93.09426337480545,
		"longitud":16.792911744727054
	},
	{
		"latitud":-93.09416145086288,
		"longitud":16.793402199026634
	},
	{
		"latitud":-93.09350967407227,
		"longitud":16.793332867867466
	},
	{
		"latitud":-93.09346139431,
		"longitud":16.793802778561663
	},
	{
		"latitud":-93.09231609106064,
		"longitud":16.79369236249216
	},
	{
		"latitud":-93.09161067008972,
		"longitud":16.79363073489057
	},
	{
		"latitud":-93.09128612279892,
		"longitud":16.79356397163292
	}]}